political_actions = {

	improved_worker_conditions = {

		icon = GFX_decision_GENERIC_Improve_Worker_Conditions

		available = {
			
		}

		visible = {
			always = yes
		}

		fire_only_once = no

		modifier = {
			stability_weekly = 0.005
			consumer_goods_factor = 0.05
			industrial_capacity_factory = -0.1
		}

		days_remove = 180
		days_re_enable = 540

		cost = 100

		complete_effect = {

		}

		ai_will_do = {
			base = 0
			modifier = {
				add = 1
				has_stability < 0.6
			}
		}
	}

	promises_of_peace = {

		icon = GFX_decision_GENERIC_Promises_of_Peace

		available = {
			has_war = no
			has_war_support > 0.2
		}

		visible = {
			always = yes
		}

		cancel_trigger = {
			has_war = yes
			has_war_support < 0.05
		}

		fire_only_once = no

		modifier = {
			stability_weekly = 0.005
			war_support_weekly = -0.01
			political_power_gain = -0.5
		}

		days_remove = 90
		days_re_enable = 360

		cost = 50

		complete_effect = {

		}

		ai_will_do = {
			base = 0
			modifier = {
				add = 1
				has_stability < 0.4
			}
		}
	}
}

economy_decisions = {

	dismantle_maginot = {

		icon = generic_construction

		allowed = {
			NOT = { OR = { tag = GER tag = FRA } }
		}

		cost = 50
		fire_only_once = yes

		days_remove = 200

		available = {
			controls_state = 28
		}

		visible = {
			always = no
			#any_state = {
			#	is_owned_by = FRA
			#	is_controlled_by = ROOT
			#}
			#NOT = { is_in_faction_with = FRA }
			#NOT = { original_tag = FRA }
		}

		modifier = {
			civilian_factory_use = 5
		}

		complete_effect = {
			28 = {
				set_building_level = {
					type = bunker
					level = 2
					province = {
						all_provinces = yes
						level > 2
					}
				}
			}
		}		
	}
}	

propaganda_efforts = {

	war_propaganda = {

		icon = GFX_decision_GENERIC_War_Propaganda

		available = {
			NOT = { has_country_flag = war_propaganda_campaign_running }
			threat > 0.5
			has_war_support < 0.5
			has_offensive_war = no
		}

		visible = {
			
		}

		fire_only_once = no

		days_remove = 90
		days_re_enable = 180

		cost = 150

		modifier = {
			war_support_weekly = 0.01
		}

		complete_effect = {
			set_country_flag = war_propaganda_campaign_running
		}
		remove_effect = {
			clr_country_flag = war_propaganda_campaign_running
		}

		ai_will_do = {
			base = 0
			modifier = {
				add = 1
				has_war_support < 0.4
				has_war = yes
			}
		}
	}

	#Propaganda campaign against a country in offensive that has caused a lot of tension and started a war
	war_propaganda_against_warmonger = {

		icon = generic_prepare_civil_war

		available = {
			NOT = { has_country_flag = war_propaganda_campaign_running }
			FROM = {
				OR = {
					has_offensive_war = yes
					is_justifying_wargoal_against = ROOT
				}
			}
		}

		visible = {
			FROM = { NOT = { has_government = ROOT } }
			FROM = {
				NOT = { is_neighbor_of = ROOT }
				OR = {
					AND = {
						NOT = { has_government = ROOT }
						has_offensive_war = yes
						has_added_tension_amount > 30
					}
					is_justifying_wargoal_against = ROOT
					has_offensive_war_with = ROOT
				}
			}
		}

		target_trigger = {
			FROM = {
				NOT = { is_neighbor_of = ROOT }
				OR = {
					AND = {
						NOT = { has_government = ROOT }
						has_offensive_war = yes
						has_added_tension_amount > 30
					}
					is_justifying_wargoal_against = ROOT
					has_offensive_war_with = ROOT
				}
			}
		}

		days_remove = 90

		fire_only_once = yes

		cost = 75

		modifier = {
			war_support_weekly = 0.01
		}

		complete_effect = {
			set_country_flag = war_propaganda_campaign_running
		}
		remove_effect = {
			clr_country_flag = war_propaganda_campaign_running
		}

		ai_will_do = {
			factor = 0
		}
	}

	#Propaganda campaign against a neighbor
	war_propaganda_against_warmonger_neighbor = {

		icon = generic_prepare_civil_war

		available = {
			NOT = { has_country_flag = war_propaganda_campaign_running }
			FROM = {
				OR = {
					has_offensive_war = yes 
					is_justifying_wargoal_against = ROOT
					has_war_with = ROOT
				}
			}
		}

		visible = {
			FROM = { NOT = { has_government = ROOT } }
			FROM = {
				is_neighbor_of = ROOT
				OR = {
					AND = {
						NOT = { has_government = ROOT }
						has_offensive_war = yes
					}
					is_justifying_wargoal_against = ROOT
					has_war_with = ROOT
				}
				has_added_tension_amount > 5
			}
		}

		target_trigger = {
			FROM = {
				is_neighbor_of = ROOT
				OR = {
					AND = {
						NOT = { has_government = ROOT }
						has_offensive_war = yes
					}
					is_justifying_wargoal_against = ROOT
					has_war_with = ROOT
				}
				has_added_tension_amount > 5
			}
		}

		days_remove = 90
		days_re_enable = 180

		cost = 50

		modifier = {
			war_support_weekly = 0.01
		}

		complete_effect = {
			set_country_flag = war_propaganda_campaign_running
		}
		remove_effect = {
			clr_country_flag = war_propaganda_campaign_running
		}
		ai_will_do = {
			factor = 1
			modifier = {
				factor = 0
				has_war_support > 0.9
			}
		}
	}
}

operations = {
	
	blow_suez_canal = {

		icon = GFX_decision_generic_ignite_civil_war

		available = {
			has_war = yes
			OR = {
				has_full_control_of_state = 773
				has_full_control_of_state = 959
			}
		}
	
		visible = {
			NOT = { has_global_flag = SUEZ_CANAL_BLOCKED }
			OR = {
				has_full_control_of_state = 773
				has_full_control_of_state = 959
			}
		}
	
		fire_only_once = no
	
		days_remove = 30
	
		cost = 75
	
		modifier = {
			civilian_factory_use = 5
		}

		complete_effect = {
			hidden_effect = {
				if = {
					limit = {
						NOT = {
							owns_state = 773
							owns_state = 959
						}
					}
					random_country = {
						limit = {
							owns_state = 773
							owns_state = 959
						}
						country_event = { id = generic.12 days = 1 }
					}
				}
			}
		}
	
		remove_effect = {
			if = {
				limit = {
					OR = {						
						has_full_control_of_state = 773
						has_full_control_of_state = 959
					}
				}
				set_country_flag = blew_up_suez
				set_global_flag = SUEZ_CANAL_BLOCKED
				country_event = { id = wtt_news.40 hours = 6}
			}
		}
		ai_will_do = {
			factor = 0
		}
	}

	blow_panama_canal = {

		icon = GFX_decision_generic_ignite_civil_war

		available = {
			has_war = yes
			has_full_control_of_state = 685
		}
	
		visible = {
			NOT = { has_global_flag = PANAMA_CANAL_BLOCKED }
			has_full_control_of_state = 685
		}
	
		fire_only_once = no
	
		days_remove = 30
	
		cost = 75
	
		modifier = {
			civilian_factory_use = 5
		}

		complete_effect = {
			hidden_effect = {
				if = {
					limit = {
						NOT = {
							owns_state = 685
						}
					}
					random_country = {
						limit = {
							owns_state = 685
						}
						country_event = { id = generic.13 days = 1 }
					}
				}
			}
		}
	
		remove_effect = {
			if = {
				limit = {
					OR = {
						has_full_control_of_state = 685
						has_full_control_of_state = 304
					}
				}
				set_country_flag = blew_up_panama
				set_global_flag = PANAMA_CANAL_BLOCKED
				country_event = { id = wtt_news.41 hours = 6}
			}
		}

		ai_will_do = {
			factor = 0
		}
	}

	blow_kiel_canal = {

		icon = GFX_decision_generic_ignite_civil_war

		available = {
			has_war = yes
			OR = {
				has_full_control_of_state = 1182
				has_full_control_of_state = 58
			}
		}
	
		visible = {
			always = no
			#has_war = yes
			#NOT = { has_global_flag = KIEL_CANAL_BLOCKED }
			#OR = {
			#	has_full_control_of_state = 1182
			#	has_full_control_of_state = 58
			#}
		}
	
		fire_only_once = no
	
		days_remove = 30
	
		cost = 75
	
		modifier = {
			civilian_factory_use = 5
		}

		complete_effect = {
			hidden_effect = {
				if = {
					limit = {
						NOT = {
							owns_state = 1182
							owns_state = 58
						}
					}
					random_country = {
						limit = {
							owns_state = 1182
							owns_state = 58
						}
						#country_event = Yet to be made
					}
				}
			}
		}
	
		remove_effect = {
			if = {
				limit = {
					OR = {						
						has_full_control_of_state = 1182
						has_full_control_of_state = 58
					}
				}
				set_country_flag = blew_up_kiel
				set_global_flag = KIEL_CANAL_BLOCKED
				#country_event = Yet to be made
			}
		}
		ai_will_do = {
			factor = 0
		}
	}
}

special_projects = {

	rebuild_suez_canal = {

		icon = GFX_decision_generic_special_project

		available = {
			num_of_civilian_factories > 50
		}
	
		visible = {
			has_global_flag = SUEZ_CANAL_BLOCKED
			has_full_control_of_state = 773
			has_full_control_of_state = 959
		}
	
		fire_only_once = no
	
		days_remove = 365
	
		cost = 250
	
		modifier = {
			civilian_factory_use = 50
		}
	
		remove_effect = {
			if = {
				limit = {
					has_full_control_of_state = 446
					has_full_control_of_state = 453
				}
				set_country_flag = rebuilt_suez
				clr_global_flag = SUEZ_CANAL_BLOCKED
				country_event = { id = wtt_news.42 hours = 6}
			}
		}

		ai_will_do = {
			factor = 0
		}
	}

	rebuild_panama_canal = {

		icon = GFX_decision_generic_special_project

		available = {
			num_of_civilian_factories > 80
		}
	
		visible = {
			has_global_flag = PANAMA_CANAL_BLOCKED
			has_full_control_of_state = 685
		}
	
		fire_only_once = no
	
		days_remove = 550
	
		cost = 400
	
		modifier = {
			civilian_factory_use = 80
		}
	
		remove_effect = {
			if = {
				limit = {
					has_full_control_of_state = 685
				}
				set_country_flag = rebuilt_panama
				clr_global_flag = PANAMA_CANAL_BLOCKED
				country_event = { id = wtt_news.43 hours = 6}
			}
		}

		ai_will_do = {
			factor = 0
		}
	}

	rebuild_kiel_canal = {

		icon = GFX_decision_generic_special_project

		available = {
			num_of_civilian_factories > 50
		}
	
		visible = {
			has_global_flag = KIEL_CANAL_BLOCKED
			has_full_control_of_state = 1182
			has_full_control_of_state = 58
		}
	
		fire_only_once = no
	
		days_remove = 365
	
		cost = 250
	
		modifier = {
			civilian_factory_use = 50
		}
	
		remove_effect = {
			if = {
				limit = {
					has_full_control_of_state = 1182
					has_full_control_of_state = 58
				}
				set_country_flag = rebuilt_kiel
				clr_global_flag = KIEL_CANAL_BLOCKED
				#country_event = Yet to be made
			}
		}

		ai_will_do = {
			factor = 0
		}
	}
}

war_measures = {
	
	emergency_factory_conversion_defensive = {

		icon = generic_industry

		available = {
			num_of_civilian_factories > 5 #Change this if amount of factories change
		}

		visible = {
			has_defensive_war = yes
			has_offensive_war = no			
		}

		fire_only_once = no

		days_re_enable = 90

		cost = 100

		complete_effect = {
			replace_civ_with_arms_factories = yes
			add_war_support = -0.05
		}
		ai_will_do = {
			factor = 0
		}
	}

	emergency_factory_conversion_offensive = {

		icon = generic_industry

		available = {
			num_of_civilian_factories > 5 #Change this if amount of factories change
		}

		visible = {
			has_offensive_war = yes
		}

		fire_only_once = no

		days_re_enable = 90

		cost = 100

		complete_effect = {
			replace_civ_with_arms_factories = yes
			add_war_support = -0.05
			add_stability = -0.03
		}
		ai_will_do = {
			factor = 0
		}
	}

	desperate_defense = {

		icon = generic_prepare_civil_war

		available = {
			surrender_progress > 0.5
		}

		visible = {
			surrender_progress > 0
		}

		fire_only_once = no

		days_remove = 45
		days_re_enable = 360

		cost = 50
		ai_will_do = {
			factor = 1
			modifier = {
				surrender_progress > 0.6
				factor = 10
			}
		}

		modifier = {
			defence = 0.2
			dig_in_speed_factor = 0.5
		}

		complete_effect = {

		}
	}

	women_in_the_workforce = {

		icon = generic_industry

        allowed = {
            always = yes
        }

        available = {
            has_war = yes
            has_idea = tot_economic_mobilisation
            OR = {
                AND = {
                    has_government = democratic
                    has_war_support > 0.79
                }
                AND = {
                    has_government = communist
                    has_war_support > 0.79
                }
                AND = {
                    has_government = fascist
                    OR = {
                        has_war_support > 0.89
                        surrender_progress > 0
                    }
                }
                AND = {
                    has_government = authoritarian
                    has_war_support > 0.84
                    has_stability > 0.7
                }
            }
        }
        visible = {
            has_war = yes
        }
        cost = 100
        days_remove = -1
        cancel_trigger = {
            has_war = no
        }
        modifier = {
            conscription = 0.03
            stability_factor = -0.05
        }
        ai_will_do = {
			factor = 1
		}
		complete_effect = {
			if = {
				limit = {
					tag = CAN
				}
				country_event = { id = canada_vanilla.1 hours = 6 } # Ronnie the Bren Gun Girl
			}
        }
   }

    war_bonds = {

    	icon = generic_industry

    	allowed = {
            always = yes
        }

        available = {
            has_war = yes
            OR = {
                AND = {
                    has_government = democratic
                    has_war_support > 0.79
                }
                AND = {
                    has_government = communist
                    has_war_support > 0.79
                }
                AND = {
                    has_government = fascist
                    OR = {
                        has_war_support > 0.89
                        surrender_progress > 0
                    }
                }
                AND = {
                    has_government = authoritarian
                    has_war_support > 0.84
                    has_stability > 0.7
                }
            }
        }
        visible = {
            has_war = yes
        }

        fire_only_once = no

		days_remove = 180

		cost = GER_war_bonds_var?50

		modifier = {
			consumer_goods_factor = -0.05
		}

		ai_will_do = {
			factor = 1
			modifier = {
				has_political_power < 150
				factor = 0 #use as pp dump
			}
		}

		remove_effect = {

		}

		complete_effect = {
			if = {
				limit = {
					NOT = {
						check_variable = {
							var = GER_war_bonds_var
							value = 100
							compare = greater_than_or_equals
						}
					}
				}
				set_variable = {
					var = GER_war_bonds_var
					value = 50
				}
			}
			add_to_variable = {
				var = GER_war_bonds_var
				value = 25
			}
			if = {
				limit = {
					check_variable = {
						var = GER_war_bonds_var
						value = 100
						compare = greater_than_or_equals
					}
					NOT = {
						check_variable = {
							var = GER_war_bonds_war_support_var
							value = 5
							compare = greater_than_or_equals
						}
					}
				}
				set_variable = {
					var = GER_war_bonds_war_support_var
					value = -5
				}
				add_war_support = GER_war_bonds_war_support_var
			}
			if = {
				limit = {
					check_variable = {
						var = GER_war_bonds_var
						value = 100
						compare = greater_than_or_equals
					}
					check_variable = {
						var = GER_war_bonds_war_support_var
						value = 5
						compare = greater_than_or_equals
					}
				}
				add_to_variable = {
					var = GER_war_bonds_war_support_var
					value = -2.5
				}
				add_war_support = GER_war_bonds_war_support_var
			}
		}
    }
}

foreign_politics = {
	object_to_attaches = {

		allowed = {
            always = yes
        }

        cost = 50
        fire_only_once = no

        days_re_enable = 30

        available = {
        }

        visible = {
        	FROM = {
        		NOT = { has_country_flag = rejected_withdrawing_attache }
        		NOT = { has_country_flag = rejected_withdrawing_attache@ROOT }
        	}
        	has_war = yes
        	NOT = { has_war_with = FROM }
        	any_enemy_country = {
				has_attache_from = FROM
			}
		}

		target_trigger = {
			NOT = { has_war_with = FROM }
			#FROM = { has_sent_attache = yes } # Make such trigger to optimize if it becomes a performance problem again.
			any_enemy_country = {
				has_attache_from = FROM
			}			
		}

        complete_effect = {
			FROM = { country_event = { id = generic.14 hours = 6 } }
		}
		ai_will_do = {
			factor = 1
		}
	}
}

economy_decisions = {
	infrastructure_building_slot = {

		icon = generic_construction

        allowed = {
            always = yes
        }

        cost = 100
        fire_only_once = no

        days_re_enable = 30

        available = {
            any_state = {
            	NOT = { has_state_flag = infrastructure_building_slot_flag }
            	is_fully_controlled_by = ROOT
            	is_owned_by = ROOT
				free_building_slots = {
					building = infrastructure
					size < 1
				}
            }
        }

        visible = {
			any_state = {
            	NOT = { has_state_flag = infrastructure_building_slot_flag }
            	is_fully_controlled_by = ROOT
            	is_owned_by = ROOT
				free_building_slots = {
					building = infrastructure
					size < 1
				}
            }
		}

        complete_effect = {
			random_owned_state = {
				limit = {
					is_fully_controlled_by = ROOT
					is_owned_by = ROOT
            		free_building_slots = {
						building = industrial_complex
						size > 1
						include_locked = yes
					}
					free_building_slots = {
						building = infrastructure
						size < 1
					}
					NOT = { has_state_flag = infrastructure_building_slot_flag }
				}
				add_extra_state_shared_building_slots = 1
				set_state_flag = infrastructure_building_slot_flag
			}
		}
		ai_will_do = {
			factor = 1
			modifier = {
				factor = 10
				any_owned_state = { free_building_slots = { building = industrial_complex size < 1 include_locked = no } }
			}
		}
    }

    war_building_slot = {

    	icon = generic_construction

        allowed = {
            always = yes
        }

        cost = 50
        fire_only_once = no

        available = {
            any_state = {
            	NOT = { has_state_flag = war_building_slot_flag }
            	is_fully_controlled_by = ROOT
            	is_owned_by = ROOT
            }
            has_war = yes
        }

        visible = {
        	any_state = {
            	NOT = { has_state_flag = war_building_slot_flag }
            	is_fully_controlled_by = ROOT
            	is_owned_by = ROOT
            }
            has_war = yes
		}

        complete_effect = {
        	add_war_support = -0.025
			add_stability = -0.025
			random_owned_state = {
				limit = {
					is_fully_controlled_by = ROOT
					is_owned_by = ROOT
            		free_building_slots = {
						building = industrial_complex
						size > 1
						include_locked = yes
					}
					NOT = { has_state_flag = infrastructure_building_slot_flag }
				}
				add_extra_state_shared_building_slots = 1
				set_state_flag = war_building_slot_flag
			}
		}
		ai_will_do = {
			factor = 1
			modifier = {
				factor = 10
				any_owned_state = { free_building_slots = { building = industrial_complex size < 1 include_locked = no } }
			}
		}
    }
}

