#########################################################################
#  Republican Spain Civil War Decisions
#########################################################################
SPR_politics_of_the_right_category = {
	
	SPR_issue_of_land_reform_decision = {
			
		icon = generic_army_support
		
		visible = {
			#has_completed_focus =SPR_Issue_of_Land_Reform
		}
		
		cost = 25
		
		fire_only_once = yes
		
		ai_will_do = {
			factor = 1
		}
			
		complete_effect = {
			country_event = { hours = 2 id = Spain.201 }
		}
	}
	SPR_eight_hour_workday_decision = {
			
		icon = generic_army_support
		
		visible = {
			#has_completed_focus =SPR_The_Eight_Hour_Work_Day
		}
		
		cost = 25
		
		fire_only_once = yes
		
		ai_will_do = {
			factor = 1
		}
			
		complete_effect = {
			country_event = { hours = 2 id = Spain.202 }
		}
	}
	SPR_church_and_the_republic_decision = {
			
		icon = generic_army_support
		
		visible = {
			#has_completed_focus =SPR_The_Church_and_the_Republic
		}
		
		cost = 25
		
		fire_only_once = yes
		
		ai_will_do = {
			factor = 1
		}
			
		complete_effect = {
			country_event = { hours = 2 id = Spain.203 }
		}
	}
}

SPR_foreign_support_category = {
	
	SPR_international_support = {
			
		icon = generic_army_support
		
		visible = {
			has_war_with = SPA
		}
		
		cost = 20
		
		fire_only_once = yes
		
		ai_will_do = {
			factor = 1
		}
			
		complete_effect = {
			country_event = { hours = 2 id = SPR_CW.1 }
		}
	}
	SPR_influence_british_legislation = {
		
		icon = generic_army_support
		
		visible = {
			has_war_with = SPA
			has_opinion_modifier = SPR_USA_sent_volunteers
		}
		
		cost = 20
		
		fire_only_once = yes
		
		ai_will_do = {
			factor = 1
		}
		
		complete_effect = {
			add_popularity = { ideology = democratic popularity = 0.05 }
			ENG = { country_event = { hours = 2 id = SPR_CW.8 } }
		}
	}
	SPR_illegal_british_volunteers = {
		
		icon = generic_army_support
		
		visible = {
			has_war_with = SPA
			has_opinion_modifier = SPR_SOV_sent_rifles
		}
		
		cost = 20
		
		fire_only_once = yes
		
		ai_will_do = {
			factor = 1
		}
		
		complete_effect = {
			ENG = { country_event = { hours = 2 id = SPR_CW.9 } }
		}
	}
	SPR_mexican_brigades = {
		
		icon = generic_army_support
		
		visible = {
			has_war_with = SPA
		}
		
		cost = 20
		
		fire_only_once = yes
		
		ai_will_do = {
			factor = 1
		}
		
		complete_effect = {
			add_political_power = 100
			MEX = { country_event = { hours = 2 id = SPR_CW.10 } }
		}
	}
	SPR_second_mexican_brigades = {
		
		icon = generic_army_support
		
		visible = {
			has_war_with = SPA
			has_opinion_modifier = SPR_MEX_sent_volunteers
		}
		
		cost = 20
		
		fire_only_once = yes
		
		ai_will_do = {
			factor = 1
		}
		
		complete_effect = {
			add_political_power = 100
			MEX = { country_event = { hours = 2 id = SPR_CW.11 } }
		}
	}
	SPR_request_soviet_shipments = {
		
		icon = generic_army_support
		
		visible = {
			has_war_with = SPA
		}
		
		cost = 20
		
		fire_only_once = yes
		
		ai_will_do = {
			factor = 1
		}
		
		complete_effect = {
			add_popularity = { ideology = communist popularity = 0.05 }
			SOV = { country_event = { hours = 2 id = SPR_CW.4 } }
		}
	}
	SPR_request_heavy_weapons_shipments = {
		
		icon = generic_army_support
		
		visible = {
			has_war_with = SPA
		}
		
		cost = 20
		
		fire_only_once = yes
		
		ai_will_do = {
			factor = 1
		}
		
		complete_effect = {
			add_popularity = { ideology = communist popularity = 0.05 }
			SOV = { country_event = { hours = 2 id = SPR_CW.5 } }
		}
	}
	SPR_soviet_miliary_command = {
		
		icon = generic_army_support
		
		visible = {
			has_war_with = SPA
		}
		
		cost = 20
		
		fire_only_once = yes
		
		ai_will_do = {
			factor = 1
		}
		
		complete_effect = {
			add_popularity = { ideology = communist popularity = 0.05 }
			SOV = { country_event = { hours = 2 id = SPR_CW.6 } }
		}
	}
	SPR_soviet_political_support = {
		
		icon = generic_army_support
		
		visible = {
			has_war_with = SPA
		}
		
		cost = 20
		
		fire_only_once = yes
		
		ai_will_do = {
			factor = 1
		}
		
		complete_effect = {
			add_popularity = { ideology = communist popularity = 0.05 }
			SOV = { country_event = { hours = 2 id = SPR_CW.7 } }
		}
	}
}
SPR_defense_of_madrid = {
	SPR_madrid_fort_1 = {
		
		icon = generic_army_support
		
		visible = {
			has_war_with = SPA
			41 = {
				is_controlled_by = SPR
			}
			#has_completed_focus =SPR_No_Parasan
		}
		
		cost = 50
		
		fire_only_once = yes
		
		ai_will_do = {
			factor = 1
		}
		
		remove_effect = {
			41 = {
					add_building_construction = {
					type = bunker
					level = 1
					province = 3938
					instant_build = yes
				}
			}
		}
		days_remove = 10
	}
	SPR_madrid_fort_2 = {
		
		icon = generic_army_support
		
		visible = {
			has_war_with = SPA
			41 = {
				is_controlled_by = SPR
			}
			#has_completed_focus =SPR_No_Parasan
		}
		
		cost = 50
		
		fire_only_once = yes
		
		ai_will_do = {
			factor = 1
		}
		
		remove_effect = {
			41 = {
					add_building_construction = {
					type = bunker
					level = 1
					province = 3938
					instant_build = yes
				}
			}
		}
		days_remove = 10
	}
	SPR_madrid_fort_3 = {
		
		icon = generic_army_support
		
		visible = {
			has_war_with = SPA
			41 = {
				is_controlled_by = SPR
			}
			#has_completed_focus =SPR_No_Parasan
		}
		
		cost = 50
		
		fire_only_once = yes
		
		ai_will_do = {
			factor = 1
		}
		
		remove_effect = {
			41 = {
					add_building_construction = {
					type = bunker
					level = 1
					province = 3938
					instant_build = yes
				}
			}
		}
		days_remove = 10
	}
	SPR_mobilize_unions_decision = {
		
		icon = generic_army_support
		
		visible = {
			has_war_with = SPA
			41 = {
				is_controlled_by = SPR
			}
			#has_completed_focus =SPR_No_Parasan
		}
		
		cost = 50
		
		fire_only_once = yes
		
		ai_will_do = {
			factor = 1
		}
		
		remove_effect = {
			41 = {
					add_building_construction = {
					type = arms_factory
					level = 1
					instant_build = yes
				}
			}
		}
		days_remove = 10
	}
SPR_International_Support_2 = {
		
		icon = generic_army_support
		
		visible = {
			has_war_with = SPA
			41 = {
				is_controlled_by = SPR
			}
			#has_completed_focus =SPR_No_Parasan
		}
		
		cost = 50
		
		fire_only_once = yes
		
		ai_will_do = {
			factor = 1
		}
		
		remove_effect = {
			add_offsite_building = { type = arms_factory level = 1 }
		}
		
		days_remove = 10
	}	
}