﻿version="0.1 “The Road to War”"
name="Darkest Hour"
tags={
	"Alternative History"
	"Balance"
	"Events"
	"Gameplay"
	"Graphics"
	"Historical"
	"Ideologies"
	"Map"
	"Military"
	"National Focuses"
	"Technologies"
}
replace_path="common/abilities"
replace_path="common/aces"
replace_path="common/ai_equipment"
replace_path="common/ai_focuses"
replace_path="common/ai_peace"
replace_path="common/ai_strategy"
replace_path="common/ai_strategy_plans"
replace_path="common/ai_templates"
replace_path="common/autonomous_states"
replace_path="common/bookmarks"
replace_path="common/countries"
replace_path="common/country_tags"
replace_path="common/decisions"
replace_path="common/decisions/categories"
replace_path="common/state_category"
replace_path="common/ideas"
replace_path="common/ideologies"
replace_path="common/modifiers"
replace_path="common/national_focus"
replace_path="common/on_actions"
replace_path="common/scripted_effects"
replace_path="common/scripted_localisation"
replace_path="common/scripted_triggers"
replace_path="common/technologies"
replace_path="common/technology_sharing"
replace_path="common/units"
replace_path="common/units/equipment"
replace_path="common/units/names"
replace_path="common/units/names_divisions"
replace_path="common/units/names_ships"
replace_path="events"
replace_path="gfx/flags"
replace_path="gfx/flags/medium"
replace_path="gfx/flags/small"
replace_path="gfx/loadingscreens"
replace_path="history/countries"
replace_path="history/states"
replace_path="history/units"
replace_path="map/strategicregions"
replace_path="map/supplyareas"
replace_path="portraits"
supported_version="1.10.*"
path="mod/Darkest-Hour-HOI4/"
remote_file_id="1319090515"
