ABK: 0 TO 999
ACE: 1000 TO 1999
ADG: 2000 TO 2999
ADJ: 3000 TO 3999
AFG: 4000 TO 4999
AGU: 5000 TO 5999
AJC: 6000 TO 6999
AKA: 7000 TO 7999
ALB: 8000 TO 8999
ALG: 9000 TO 9999
ALN: 10000 TO 10999
AND: 11000 TO 11999
ANG: 12000 TO 12999
ANT: 13000 TO 13999
ARG: 14000 TO 14999
ARM: 15000 TO 15999
ARU: 16000 TO 16999
AST: 17000 TO 17999
ASY: 18000 TO 18999
AUS: 19000 TO 19999
AZR: 20000 TO 20999
AZW: 21000 TO 21999
BAH: 22000 TO 22999
BAL: 23000 TO 23999
BAN: 24000 TO 24999
BAV: 25000 TO 25999
BEL: 26000 TO 26999
BEN: 27000 TO 27999
BGV: 28000 TO 28999
BHR: 29000 TO 29999
BHU: 30000 TO 30999
BLR: 31000 TO 31999
BLZ: 32000 TO 32999
BOH: 33000 TO 33999
BOL: 34000 TO 34999
BOS: 35000 TO 35999
BOT: 36000 TO 36999
BRA: 37000 TO 37999
BRB: 38000 TO 38999
BRD: 39000 TO 39999
BRM: 40000 TO 40999
BRT: 41000 TO 41999
BRU: 42000 TO 42999
BSQ: 43000 TO 43999
BUL: 44000 TO 44999
CAL: 45000 TO 45999
CAM: 46000 TO 46999
CAN: 47000 TO 47999
CAR: 48000 TO 48999
CAS: 49000 TO 49999
CAT: 50000 TO 50999
CAY: 51000 TO 51999
CHA: 52000 TO 52999
CHE: 53000 TO 53999
CHI: 54000 TO 54999
CHL: 55000 TO 55999
CHT: 56000 TO 56999
CKI: 57000 TO 57999
CMR: 58000 TO 58999
COG: 59000 TO 59999
COL: 60000 TO 60999
COM: 61000 TO 61999
COS: 62000 TO 62999
CPU: 63000 TO 63999
CRC: 64000 TO 64999
CRM: 65000 TO 65999
CRN: 66000 TO 66999
CRO: 67000 TO 67999
CSA: 68000 TO 68999
CSM: 69000 TO 69999
CUB: 70000 TO 70999
CVE: 71000 TO 71999
CYP: 72000 TO 72999
CZE: 73000 TO 73999
DAG: 74000 TO 74999
DDR: 75000 TO 75999
DEN: 76000 TO 76999
DJI: 77000 TO 77999
DMN: 78000 TO 78999
DNZ: 79000 TO 79999
DOM: 80000 TO 80999
ECU: 81000 TO 81999
EGL: 82000 TO 82999
EGY: 83000 TO 83999
EHB: 84000 TO 84999
ELS: 85000 TO 85999
ENG: 86000 TO 86999
EQG: 87000 TO 87999
ERI: 88000 TO 88999
EST: 89000 TO 89999
ETH: 90000 TO 90999
ETS: 91000 TO 91999
FAR: 92000 TO 92999
FIJ: 93000 TO 93999
FIN: 94000 TO 94999
FLA: 95000 TO 95999
FRA: 96000 TO 96999
FRG: 97000 TO 97999
FUJ: 98000 TO 98999
GAB: 99000 TO 99999
GAG: 100000 TO 100999
GAM: 101000 TO 101999
GAN: 102000 TO 102999
GEO: 103000 TO 103999
GER: 104000 TO 104999
GGP: 105000 TO 105999
GHA: 106000 TO 106999
GNA: 107000 TO 107999
GNB: 108000 TO 108999
GND: 109000 TO 109999
GRE: 110000 TO 110999
GRL: 111000 TO 111999
GRN: 112000 TO 112999
GUA: 113000 TO 113999
GUM: 114000 TO 114999
GUY: 115000 TO 115999
GUZ: 116000 TO 116999
GWS: 117000 TO 117999
GXC: 118000 TO 118999
HAI: 119000 TO 119999
HAT: 120000 TO 120999
HCP: 121000 TO 121999
HDA: 122000 TO 122999
HNN: 123000 TO 123999
HOL: 124000 TO 124999
HON: 125000 TO 125999
HUN: 126000 TO 126999
HWI: 127000 TO 127999
ICE: 128000 TO 128999
ING: 129000 TO 129999
INS: 130000 TO 130999
IRE: 131000 TO 131999
IRQ: 132000 TO 132999
ISR: 133000 TO 133999
ITA: 134000 TO 134999
ITE: 135000 TO 135999
IVO: 136000 TO 136999
JAM: 137000 TO 137999
JAN: 138000 TO 138999
JAP: 139000 TO 139999
JOR: 140000 TO 140999
KAT: 141000 TO 141999
KAW: 142000 TO 142999
KAZ: 143000 TO 143999
KBA: 144000 TO 144999
KBY: 145000 TO 145999
KEN: 146000 TO 146999
KHK: 147000 TO 147999
KIR: 148000 TO 148999
KMK: 149000 TO 149999
KOR: 150000 TO 150999
KOS: 151000 TO 151999
KPK: 152000 TO 152999
KRC: 153000 TO 153999
KUR: 154000 TO 154999
KUW: 155000 TO 155999
KYR: 156000 TO 156999
LAO: 157000 TO 157999
LAT: 158000 TO 158999
LBA: 159000 TO 159999
LEB: 160000 TO 160999
LES: 161000 TO 161999
LIB: 162000 TO 162999
LIT: 163000 TO 163999
LUX: 164000 TO 164999
MAC: 165000 TO 165999
MAD: 166000 TO 166999
MAH: 167000 TO 167999
MAL: 168000 TO 168999
MAN: 169000 TO 169999
MAR: 170000 TO 170999
MAU: 171000 TO 171999
MEN: 172000 TO 172999
MEX: 173000 TO 173999
MIC: 174000 TO 174999
MLD: 175000 TO 175999
MLI: 176000 TO 176999
MLT: 177000 TO 177999
MLW: 178000 TO 178999
MNP: 179000 TO 179999
MNT: 180000 TO 180999
MOL: 181000 TO 181999
MON: 182000 TO 182999
MOR: 183000 TO 183999
MRQ: 184000 TO 184999
MRT: 185000 TO 185999
MTA: 186000 TO 186999
MTN: 187000 TO 187999
MZB: 188000 TO 188999
NAM: 189000 TO 189999
NAU: 190000 TO 190999
NEA: 191000 TO 191999
NEP: 192000 TO 192999
NFL: 193000 TO 193999
NGA: 194000 TO 194999
NGK: 195000 TO 195999
NGR: 196000 TO 196999
NIC: 197000 TO 197999
NIU: 198000 TO 198999
NMI: 199000 TO 199999
NOR: 200000 TO 200999
NOS: 201000 TO 201999
NZL: 202000 TO 202999
OMA: 203000 TO 203999
PAK: 204000 TO 204999
PAL: 205000 TO 205999
PAN: 206000 TO 206999
PAR: 207000 TO 207999
PER: 208000 TO 208999
PHI: 209000 TO 209999
PLU: 210000 TO 210999
PMR: 211000 TO 211999
PNG: 212000 TO 212999
POL: 213000 TO 213999
POR: 214000 TO 214999
PRC: 215000 TO 215999
PRK: 216000 TO 216999
PRT: 217000 TO 217999
PRU: 218000 TO 218999
PRY: 219000 TO 219999
QAT: 220000 TO 220999
QUE: 221000 TO 221999
RAJ: 222000 TO 222999
RCG: 223000 TO 223999
RHD: 224000 TO 224999
RHI: 225000 TO 225999
RIF: 226000 TO 226999
RKA: 227000 TO 227999
RMO: 228000 TO 228999
RNG: 229000 TO 229999
ROM: 230000 TO 230999
ROS: 231000 TO 231999
RSB: 232000 TO 232999
RSI: 233000 TO 233999
RTU: 234000 TO 234999
RUK: 235000 TO 235999
RUR: 236000 TO 236999
RWA: 237000 TO 237999
SAF: 238000 TO 238999
SAH: 239000 TO 239999
SAM: 240000 TO 240999
SAR: 241000 TO 241999
SAU: 242000 TO 242999
SAX: 243000 TO 243999
SCA: 244000 TO 244999
SCO: 245000 TO 245999
SEN: 246000 TO 246999
SER: 247000 TO 247999
SEU: 248000 TO 248999
SEY: 249000 TO 249999
SHD: 250000 TO 250999
SHX: 251000 TO 251999
SIA: 252000 TO 252999
SIC: 253000 TO 253999
SIE: 254000 TO 254999
SIK: 255000 TO 255999
SKK: 256000 TO 256999
SKN: 257000 TO 257999
SKS: 258000 TO 258999
SLI: 259000 TO 259999
SLO: 260000 TO 260999
SLV: 261000 TO 261999
SMK: 262000 TO 262999
SOL: 263000 TO 263999
SOM: 264000 TO 264999
SOS: 265000 TO 265999
SOV: 266000 TO 266999
SPA: 267000 TO 267999
SPR: 268000 TO 268999
SSB: 269000 TO 269999
SSD: 270000 TO 270999
SSP: 271000 TO 271999
STL: 272000 TO 272999
STP: 273000 TO 273999
SUD: 274000 TO 274999
SUR: 275000 TO 275999
SVG: 276000 TO 276999
SWE: 277000 TO 277999
SWI: 278000 TO 278999
SWK: 279000 TO 279999
SWZ: 280000 TO 280999
SYR: 281000 TO 281999
TAJ: 282000 TO 282999
TAN: 283000 TO 283999
TEL: 284000 TO 284999
TEX: 285000 TO 285999
TGA: 286000 TO 286999
TIB: 287000 TO 287999
TIZ: 288000 TO 288999
TLE: 289000 TO 289999
TMS: 290000 TO 290999
TNG: 291000 TO 291999
TOG: 292000 TO 292999
TOK: 293000 TO 293999
TRP: 294000 TO 294999
TRS: 295000 TO 295999
TRT: 296000 TO 296999
TUN: 297000 TO 297999
TUR: 298000 TO 298999
TUV: 299000 TO 299999
TZN: 300000 TO 300999
UAE: 301000 TO 301999
UGA: 302000 TO 302999
UKR: 303000 TO 303999
URG: 304000 TO 304999
USA: 305000 TO 305999
UZB: 306000 TO 306999
VAN: 307000 TO 307999
VEN: 308000 TO 308999
VIC: 309000 TO 309999
VIE: 310000 TO 310999
VIN: 311000 TO 311999
VOL: 312000 TO 312999
WAL: 313000 TO 313999
WLN: 314000 TO 314999
WPA: 315000 TO 315999
XIK: 316000 TO 316999
XSM: 317000 TO 317999
YEM: 318000 TO 318999
YUG: 319000 TO 319999
YUL: 320000 TO 320999
YUN: 321000 TO 321999
ZAM: 322000 TO 322999
ZIM: 323000 TO 323999
ZNB: 324000 TO 324999
MNN: 325000 TO 325999
SGP: 326000 TO 326999
BAD: 327000 TO 327999
WUR: 328000 TO 328999
