ideas = {
#################################################
### Head of Government
#################################################
	Head_of_Government = {
	# Misael Galleguillos
		CHL_HoG_Misael_Galleguillos = {
			picture = Misael_Galleguillos
			allowed = { tag = CHL }
			available = {
				date > 1938.1.1
				date < 1964.1.1
				F_Minister_Allowed = yes
				NOT = { has_country_flag = Misael_Galleguillos_unavailable }
			}
			
			
			traits = { ideology_F HoG_Ambitious_Union_Boss }
		}
	# Luis Altamirano Talavera
		CHL_HoG_Luis_Altamirano_Talavera = {
			picture = Luis_Altamirano_Talavera
			allowed = { tag = CHL }
			available = {
				date > 1924.1.1
				date < 1925.1.1
				A_Minister_Allowed = yes
				NOT = { has_country_flag = Luis_Altamirano_Talavera_unavailable }
			}
			
			
			traits = { ideology_A HoG_Old_General }
		}
	# Carlos Ibanez del Campo
		CHL_HoG_Carlos_Ibanez_del_Campo = {
			picture = Carlos_Ibanez_del_Campo
			allowed = { tag = CHL }
			available = {
				date > 1942.1.1
				date < 1964.1.1
				A_Minister_Allowed = yes
				NOT = { has_country_flag = Carlos_Ibanez_del_Campo_unavailable }
			}
			
			
			traits = { ideology_A HoG_Old_General }
		}
	# Augusto Pinochet Ugarte
		CHL_HoG_Augusto_Pinochet_Ugarte = {
			picture = Augusto_Pinochet_Ugarte
			allowed = { tag = CHL }
			available = {
				date > 1973.1.1
				date < 2007.1.1
				A_Minister_Allowed = yes
				NOT = { has_country_flag = Augusto_Pinochet_Ugarte_unavailable }
			}
			
			
			traits = { ideology_A HoG_Old_Admiral }
		}
	# Gustavo Ross Santa Maria
		CHL_HoG_Gustavo_Ross_Santa_Maria_2 = {
			picture = Gustavo_Ross_Santa_Maria_2
			allowed = { tag = CHL }
			available = {
				date > 1938.1.1
				date < 1964.1.1
				D_Minister_Allowed = yes
				NOT = { has_country_flag = Gustavo_Ross_Santa_Maria_unavailable }
			}
			
			
			traits = { ideology_D HoG_Naive_Optimist }
		}
	# Alberto Cabera Diaz
		CHL_HoG_Alberto_Cabera_Diaz = {
			picture = Alberto_Cabera_Diaz
			allowed = { tag = CHL }
			available = {
				date > 1930.1.1
				date < 1960.1.1
				D_Minister_Allowed = yes
				NOT = { has_country_flag = Alberto_Cabera_Diaz_unavailable }
			}
			
			
			traits = { ideology_D HoG_Naive_Optimist POSITION_Senate_President }
		}
	# Ignacio Urrutia Manzanio
		CHL_HoG_Ignacio_Urrutia_Manzanio = {
			picture = Ignacio_Urrutia_Manzanio
			allowed = { tag = CHL }
			available = {
				date > 1930.1.1
				date < 1960.1.1
				D_Minister_Allowed = yes
				NOT = { has_country_flag = Ignacio_Urrutia_Manzanio_unavailable }
			}
			
			
			traits = { ideology_D HoG_Naive_Optimist POSITION_Senate_President }
		}
	# Manuel Mora Miranda
		CHL_HoG_Manuel_Mora_Miranda = {
			picture = Manuel_Mora_Miranda
			allowed = { tag = CHL }
			available = {
				date > 1942.1.1
				date < 1964.1.1
				D_Minister_Allowed = yes
				NOT = { has_country_flag = Manuel_Mora_Miranda_unavailable }
			}
			
			
			traits = { ideology_D HoG_Happy_Amateur }
		}
	# Carlos Ibanez del Campo
		CHL_HoG_Carlos_Ibanez_del_Campo_2 = {
			picture = Carlos_Ibanez_del_Campo_2
			allowed = { tag = CHL }
			available = {
				date > 1946.1.1
				date < 1964.1.1
				D_Minister_Allowed = yes
				NOT = { has_country_flag = Carlos_Ibanez_del_Campo_unavailable }
			}
			
			
			traits = { ideology_D HoG_Old_General }
		}
	# Jorge Alessandri Rodriguez
		CHL_HoG_Jorge_Alessandri_Rodriguez = {
			picture = Jorge_Alessandri_Rodriguez
			allowed = { tag = CHL }
			available = {
				date > 1952.1.1
				date < 1964.1.1
				D_Minister_Allowed = yes
				NOT = { has_country_flag = Jorge_Alessandri_Rodriguez_unavailable }
			}
			
			
			traits = { ideology_D HoG_Corporate_Suit }
		}
	# Eduardo Frei Montalva
		CHL_HoG_Eduardo_Frei_Montalva = {
			picture = Eduardo_Frei_Montalva
			allowed = { tag = CHL }
			available = {
				date > 1964.1.1
				date < 1983.1.1
				D_Minister_Allowed = yes
				NOT = { has_country_flag = Eduardo_Frei_Montalva_unavailable }
			}
			
			
			traits = { ideology_D HoG_Corporate_Suit }
		}
	# Hernan Büchi Buc
		CHL_HoG_Hernan_Buchi_Buc = {
			picture = Hernan_Buchi_Buc
			allowed = { tag = CHL }
			available = {
				date > 1990.1.1
				date < 2020.1.1
				D_Minister_Allowed = yes
				NOT = { has_country_flag = Hernan_Buchi_Buc_unavailable }
			}
			
			
			traits = { ideology_D HoG_Flamboyant_Tough_Guy }
		}
	# Pedro Montt Montt
		CHL_HoG_Pedro_Montt_Montt = {
			picture = Pedro_Montt_Montt
			allowed = { tag = CHL }
			available = {
				date > 1906.1.1
				date < 1910.1.1
				D_Minister_Allowed = yes
				NOT = { has_country_flag = Pedro_Montt_Montt_unavailable }
			}
			
			
			traits = { ideology_D HoG_Political_Protege }
		}
	# Ramón Barros Luco
		CHL_HoG_Ramon_Barros_Luco = {
			picture = Ramon_Barros_Luco
			allowed = { tag = CHL }
			available = {
				date > 1910.1.1
				date < 1915.1.1
				D_Minister_Allowed = yes
				NOT = { has_country_flag = Ramon_Barros_Luco_unavailable }
			}
			
			
			traits = { ideology_D HoG_Smiling_Oilman }
		}
	# Juan Luis Sanfuentes
		CHL_HoG_Juan_Luis_Sanfuentes = {
			picture = Juan_Luis_Sanfuentes
			allowed = { tag = CHL }
			available = {
				date > 1915.1.1
				date < 1920.1.1
				D_Minister_Allowed = yes
				NOT = { has_country_flag = Juan_Luis_Sanfuentes_unavailable }
			}
			
			
			traits = { ideology_D HoG_Happy_Amateur }
		}
	# Arturo Alessandri Palma
		CHL_HoG_Arturo_Alessandri_Palma_2 = {
			picture = Arturo_Alessandri_Palma_2
			allowed = { tag = CHL }
			available = {
				date > 1920.1.1
				date < 1924.1.1
				D_Minister_Allowed = yes
				NOT = { has_country_flag = Arturo_Alessandri_Palma_unavailable }
			}
			
			
			traits = { ideology_D HoG_Naive_Optimist }
		}
	# Eduardo Cruz-Coke Lassabe
		CHL_HoG_Eduardo_CruzCoke_Lassabe = {
			picture = Eduardo_CruzCoke_Lassabe
			allowed = { tag = CHL }
			available = {
				date > 1946.1.1
				date < 1975.1.1
				D_Minister_Allowed = yes
				NOT = { has_country_flag = Eduardo_CruzCoke_Lassabe_unavailable }
			}
			
			
			traits = { ideology_D HoG_Naive_Optimist }
		}
	# Patricio Aylwin Azócar
		CHL_HoG_Patricio_Aylwin_Azocar = {
			picture = Patricio_Aylwin_Azocar
			allowed = { tag = CHL }
			available = {
				date > 1990.1.1
				date < 2020.1.1
				D_Minister_Allowed = yes
				NOT = { has_country_flag = Patricio_Aylwin_Azocar_unavailable }
			}
			
			
			traits = { ideology_D HoG_Ambitious_Union_Boss }
		}
	# Gustavo Ross Santa Maria
		CHL_HoG_Gustavo_Ross_Santa_Maria = {
			picture = Gustavo_Ross_Santa_Maria
			allowed = { tag = CHL }
			available = {
				date > 1933.1.1
				date < 1964.1.1
				D_Minister_Allowed = yes
				NOT = { has_country_flag = Gustavo_Ross_Santa_Maria_unavailable }
			}
			
			
			traits = { ideology_D HoG_Naive_Optimist }
		}
	# Arturo Alessandri Palma
		CHL_HoG_Arturo_Alessandri_Palma = {
			picture = Arturo_Alessandri_Palma
			allowed = { tag = CHL }
			available = {
				date > 1937.1.1
				date < 1964.1.1
				D_Minister_Allowed = yes
				NOT = { has_country_flag = Arturo_Alessandri_Palma_unavailable }
			}
			
			
			traits = { ideology_D HoG_Smiling_Oilman }
		}
	# Miguel Cruchaga Tacomal
		CHL_HoG_Miguel_Cruchaga_Tacomal = {
			picture = Miguel_Cruchaga_Tacomal
			allowed = { tag = CHL }
			available = {
				date > 1938.1.1
				date < 1964.1.1
				D_Minister_Allowed = yes
				NOT = { has_country_flag = Miguel_Cruchaga_Tacomal_unavailable }
			}
			
			
			traits = { ideology_D HoG_Naive_Optimist }
		}
	# Pedro Aguirre Cerda
		CHL_HoG_Pedro_Aguirre_Cerda = {
			picture = Pedro_Aguirre_Cerda
			allowed = { tag = CHL }
			available = {
				date > 1938.1.1
				date < 1964.1.1
				D_Minister_Allowed = yes
				NOT = { has_country_flag = Pedro_Aguirre_Cerda_unavailable }
			}
			
			
			traits = { ideology_D HoG_Political_Protege }
		}
	# Jeronimo Mendez Arancíbia
		CHL_HoG_Jeronimo_Mendez_Arancibia = {
			picture = Jeronimo_Mendez_Arancibia
			allowed = { tag = CHL }
			available = {
				date > 1941.1.1
				date < 1964.1.1
				D_Minister_Allowed = yes
				NOT = { has_country_flag = Jeronimo_Mendez_Arancibia_unavailable }
			}
			
			
			traits = { ideology_D HoG_Silent_Workhorse }
		}
	# Antonio J. Rios Morales
		CHL_HoG_Antonio_J_Rios_Morales = {
			picture = Antonio_J_Rios_Morales
			allowed = { tag = CHL }
			available = {
				date > 1942.1.1
				date < 1964.1.1
				D_Minister_Allowed = yes
				NOT = { has_country_flag = Antonio_J_Rios_Morales_unavailable }
			}
			
			
			traits = { ideology_D HoG_Flamboyant_Tough_Guy }
		}
	# Gabriel Gonzalez Videla
		CHL_HoG_Gabriel_Gonzalez_Videla = {
			picture = Gabriel_Gonzalez_Videla
			allowed = { tag = CHL }
			available = {
				date > 1946.1.1
				date < 1964.1.1
				D_Minister_Allowed = yes
				NOT = { has_country_flag = Gabriel_Gonzalez_Videla_unavailable }
			}
			
			
			traits = { ideology_D HoG_Backroom_Backstabber }
		}
	# Alfredo Duhalde Vasquez
		CHL_HoG_Alfredo_Duhalde_Vasquez = {
			picture = Alfredo_Duhalde_Vasquez
			allowed = { tag = CHL }
			available = {
				date > 1946.1.1
				date < 1964.1.1
				D_Minister_Allowed = yes
				NOT = { has_country_flag = Alfredo_Duhalde_Vasquez_unavailable }
			}
			
			
			traits = { ideology_D HoG_Naive_Optimist }
		}
	# Salvador Allende
		CHL_HoG_Salvador_Allende = {
			picture = Salvador_Allende
			allowed = { tag = CHL }
			available = {
				date > 1945.1.1
				date < 1964.1.1
				S_Minister_Allowed = yes
				NOT = { has_country_flag = Salvador_Allende_unavailable }
			}
			
			
			traits = { ideology_S HoG_Naive_Optimist }
		}
	# C.L. Blest Riffo
		CHL_HoG_CL_Blest_Riffo = {
			picture = CL_Blest_Riffo
			allowed = { tag = CHL }
			available = {
				date > 1938.1.1
				date < 1964.1.1
				C_Minister_Allowed = yes
				NOT = { has_country_flag = CL_Blest_Riffo_unavailable }
			}
			
			
			traits = { ideology_C HoG_Old_Admiral }
		}
	# Marmaduke Grove
		CHL_HoG_Marmaduke_Grove = {
			picture = Marmaduke_Grove
			allowed = { tag = CHL }
			available = {
				date > 1942.1.1
				date < 1964.1.1
				C_Minister_Allowed = yes
				NOT = { has_country_flag = Marmaduke_Grove_unavailable }
			}
			
			
			traits = { ideology_C HoG_Old_Airmarshal }
		}
}
#################################################
### Foreign Minister
#################################################
	Foreign_Minister = {
	# J.G. von Mareés
		CHL_FM_JG_von_Marees = {
			picture = JG_von_Marees
			allowed = { tag = CHL }
			available = {
				date > 1938.1.1
				date < 1964.1.1
				F_Minister_Allowed = yes
				NOT = { has_country_flag = JG_von_Marees_unavailable }
			}
			
			
			traits = { ideology_F FM_Ideological_Crusader }
		}
	# Miguel Cruchaga Tacomal
		CHL_FM_Miguel_Cruchaga_Tacomal_2 = {
			picture = Miguel_Cruchaga_Tacomal_2
			allowed = { tag = CHL }
			available = {
				date > 1942.1.1
				date < 1964.1.1
				A_Minister_Allowed = yes
				NOT = { has_country_flag = Miguel_Cruchaga_Tacomal_unavailable }
			}
			
			
			traits = { ideology_A FM_Iron_Fisted_Brute }
		}
	# Alejandro Lira Lira
		CHL_FM_Alejandro_Lira_Lira = {
			picture = Alejandro_Lira_Lira
			allowed = { tag = CHL }
			available = {
				date > 1912.1.1
				date < 1916.1.1
				D_Minister_Allowed = yes
				NOT = { has_country_flag = Alejandro_Lira_Lira_unavailable }
			}
			
			
			traits = { ideology_D FM_Ideological_Crusader }
		}
	# Ramón Subercaseaux Vicuña
		CHL_FM_Ramon_Subercaseaux_Vicuna = {
			picture = Ramon_Subercaseaux_Vicuna
			allowed = { tag = CHL }
			available = {
				date > 1913.1.1
				date < 1918.1.1
				D_Minister_Allowed = yes
				NOT = { has_country_flag = Ramon_Subercaseaux_Vicuna_unavailable }
			}
			
			
			traits = { ideology_D FM_Apologetic_Clerk }
		}
	# Silvestre Ochagavía Echaurren
		CHL_FM_Silvestre_Ochagavia_Echaurren = {
			picture = Silvestre_Ochagavia_Echaurren
			allowed = { tag = CHL }
			available = {
				date > 1914.1.1
				date < 1918.1.1
				D_Minister_Allowed = yes
				NOT = { has_country_flag = Silvestre_Ochagavia_Echaurren_unavailable }
			}
			
			
			traits = { ideology_D FM_Biased_Intellectual }
		}
	# Juan Enrique Tocornal Doursther
		CHL_FM_Juan_Enrique_Tocornal_Doursther = {
			picture = Juan_Enrique_Tocornal_Doursther
			allowed = { tag = CHL }
			available = {
				date > 1914.1.1
				date < 1918.1.1
				D_Minister_Allowed = yes
				NOT = { has_country_flag = Juan_Enrique_Tocornal_Doursther_unavailable }
			}
			
			
			traits = { ideology_D FM_The_Cloak_N_Dagger_Schemer }
		}
	# Alamiro Huidobro Valdés
		CHL_FM_Alamiro_Huidobro_Valdes = {
			picture = Alamiro_Huidobro_Valdes
			allowed = { tag = CHL }
			available = {
				date > 1914.1.1
				date < 1922.1.1
				D_Minister_Allowed = yes
				NOT = { has_country_flag = Alamiro_Huidobro_Valdes_unavailable }
			}
			
			
			traits = { ideology_D FM_Iron_Fisted_Brute }
		}
	# Guillermo Pereira Iñiguez
		CHL_FM_Guillermo_Pereira_Iniguez = {
			picture = Guillermo_Pereira_Iniguez
			allowed = { tag = CHL }
			available = {
				date > 1916.1.1
				date < 1920.1.1
				D_Minister_Allowed = yes
				NOT = { has_country_flag = Guillermo_Pereira_Iniguez_unavailable }
			}
			
			
			traits = { ideology_D FM_Great_Compromiser }
		}
	# Carlos Aldunate Solar
		CHL_FM_Carlos_Aldunate_Solar = {
			picture = Carlos_Aldunate_Solar
			allowed = { tag = CHL }
			available = {
				date > 1920.1.1
				date < 1927.1.1
				D_Minister_Allowed = yes
				NOT = { has_country_flag = Carlos_Aldunate_Solar_unavailable }
			}
			
			
			traits = { ideology_D FM_Apologetic_Clerk }
		}
	# Francisco ORyan Orrego
		CHL_FM_Francisco_ORyan_Orrego = {
			picture = Francisco_ORyan_Orrego
			allowed = { tag = CHL }
			available = {
				date > 1942.1.1
				date < 1964.1.1
				D_Minister_Allowed = yes
				NOT = { has_country_flag = Francisco_ORyan_Orrego_unavailable }
			}
			
			
			traits = { ideology_D FM_General_Staffer }
		}
	# Carlos D. Soto
		CHL_FM_Carlos_D_Soto = {
			picture = Carlos_D_Soto
			allowed = { tag = CHL }
			available = {
				date > 1943.1.1
				date < 1964.1.1
				D_Minister_Allowed = yes
				NOT = { has_country_flag = Carlos_D_Soto_unavailable }
			}
			
			
			traits = { ideology_D FM_The_Cloak_N_Dagger_Schemer }
		}
	# Luis Renard Valenzuela
		CHL_FM_Luis_Renard_Valenzuela = {
			picture = Luis_Renard_Valenzuela
			allowed = { tag = CHL }
			available = {
				date > 1946.1.1
				date < 1964.1.1
				D_Minister_Allowed = yes
				NOT = { has_country_flag = Luis_Renard_Valenzuela_unavailable }
			}
			
			
			traits = { ideology_D FM_Apologetic_Clerk }
		}
	# José Rafael Balmaceda Fernández
		CHL_FM_Jose_Rafael_Balmaceda_Fernandez = {
			picture = Jose_Rafael_Balmaceda_Fernandez
			allowed = { tag = CHL }
			available = {
				date > 1906.1.1
				date < 1910.1.1
				D_Minister_Allowed = yes
				NOT = { has_country_flag = Jose_Rafael_Balmaceda_Fernandez_unavailable }
			}
			
			
			traits = { ideology_D FM_Iron_Fisted_Brute }
		}
	# Agustín Edwards Mac-Clure
		CHL_FM_Agustin_Edwards_MacClure = {
			picture = Agustin_Edwards_MacClure
			allowed = { tag = CHL }
			available = {
				date > 1907.1.1
				date < 1911.1.1
				D_Minister_Allowed = yes
				NOT = { has_country_flag = Agustin_Edwards_MacClure_unavailable }
			}
			
			
			traits = { ideology_D FM_General_Staffer }
		}
	# Luis Izquierdo Fredes
		CHL_FM_Luis_Izquierdo_Fredes = {
			picture = Luis_Izquierdo_Fredes
			allowed = { tag = CHL }
			available = {
				date > 1908.1.1
				date < 1925.1.1
				D_Minister_Allowed = yes
				NOT = { has_country_flag = Luis_Izquierdo_Fredes_unavailable }
			}
			
			
			traits = { ideology_D FM_Ideological_Crusader }
		}
	# Rafael Orrego González
		CHL_FM_Rafael_Orrego_Gonzalez = {
			picture = Rafael_Orrego_Gonzalez
			allowed = { tag = CHL }
			available = {
				date > 1908.1.1
				date < 1917.1.1
				D_Minister_Allowed = yes
				NOT = { has_country_flag = Rafael_Orrego_Gonzalez_unavailable }
			}
			
			
			traits = { ideology_D FM_Great_Compromiser }
		}
	# Enrique A. Rodríguez Carmona
		CHL_FM_Enrique_A_Rodriguez_Carmona = {
			picture = Enrique_A_Rodriguez_Carmona
			allowed = { tag = CHL }
			available = {
				date > 1909.1.1
				date < 1913.1.1
				D_Minister_Allowed = yes
				NOT = { has_country_flag = Enrique_A_Rodriguez_Carmona_unavailable }
			}
			
			
			traits = { ideology_D FM_Apologetic_Clerk }
		}
	# Joaquín Figueroa Larraín
		CHL_FM_Joaquin_Figueroa_Larrain = {
			picture = Joaquin_Figueroa_Larrain
			allowed = { tag = CHL }
			available = {
				date > 1910.1.1
				date < 1914.1.1
				D_Minister_Allowed = yes
				NOT = { has_country_flag = Joaquin_Figueroa_Larrain_unavailable }
			}
			
			
			traits = { ideology_D FM_Biased_Intellectual }
		}
	# Antonio Huneeus Gana
		CHL_FM_Antonio_Huneeus_Gana = {
			picture = Antonio_Huneeus_Gana
			allowed = { tag = CHL }
			available = {
				date > 1910.1.1
				date < 1922.1.1
				D_Minister_Allowed = yes
				NOT = { has_country_flag = Antonio_Huneeus_Gana_unavailable }
			}
			
			
			traits = { ideology_D FM_The_Cloak_N_Dagger_Schemer }
		}
	# Renato Sánchez García de la Huerta
		CHL_FM_Renato_Sanchez_Garcia_de_la_Huerta = {
			picture = Renato_Sanchez_Garcia_de_la_Huerta
			allowed = { tag = CHL }
			available = {
				date > 1910.1.1
				date < 1914.1.1
				D_Minister_Allowed = yes
				NOT = { has_country_flag = Renato_Sanchez_Garcia_de_la_Huerta_unavailable }
			}
			
			
			traits = { ideology_D FM_Iron_Fisted_Brute }
		}
	# Enrique Villegas Echiburú
		CHL_FM_Enrique_Villegas_Echiburu = {
			picture = Enrique_Villegas_Echiburu
			allowed = { tag = CHL }
			available = {
				date > 1911.1.1
				date < 1915.1.1
				D_Minister_Allowed = yes
				NOT = { has_country_flag = Enrique_Villegas_Echiburu_unavailable }
			}
			
			
			traits = { ideology_D FM_General_Staffer }
		}
	# Manuel Salinas González
		CHL_FM_Manuel_Salinas_Gonzalez = {
			picture = Manuel_Salinas_Gonzalez
			allowed = { tag = CHL }
			available = {
				date > 1912.1.1
				date < 1916.1.1
				D_Minister_Allowed = yes
				NOT = { has_country_flag = Manuel_Salinas_Gonzalez_unavailable }
			}
			
			
			traits = { ideology_D FM_Great_Compromiser }
		}
	# Arturo Besa Navarro
		CHL_FM_Arturo_Besa_Navarro = {
			picture = Arturo_Besa_Navarro
			allowed = { tag = CHL }
			available = {
				date > 1915.1.1
				date < 1919.1.1
				D_Minister_Allowed = yes
				NOT = { has_country_flag = Arturo_Besa_Navarro_unavailable }
			}
			
			
			traits = { ideology_D FM_General_Staffer }
		}
	# Luis Barros Borgoño
		CHL_FM_Luis_Barros_Borgono = {
			picture = Luis_Barros_Borgono
			allowed = { tag = CHL }
			available = {
				date > 1916.1.1
				date < 1921.1.1
				D_Minister_Allowed = yes
				NOT = { has_country_flag = Luis_Barros_Borgono_unavailable }
			}
			
			
			traits = { ideology_D FM_The_Cloak_N_Dagger_Schemer }
		}
	# Luis Aldunate Echeverría
		CHL_FM_Luis_Aldunate_Echeverria = {
			picture = Luis_Aldunate_Echeverria
			allowed = { tag = CHL }
			available = {
				date > 1918.1.1
				date < 1922.1.1
				D_Minister_Allowed = yes
				NOT = { has_country_flag = Luis_Aldunate_Echeverria_unavailable }
			}
			
			
			traits = { ideology_D FM_Iron_Fisted_Brute }
		}
	# Jorge Matte Gormaz
		CHL_FM_Jorge_Matte_Gormaz = {
			picture = Jorge_Matte_Gormaz
			allowed = { tag = CHL }
			available = {
				date > 1918.1.1
				date < 1923.1.1
				D_Minister_Allowed = yes
				NOT = { has_country_flag = Jorge_Matte_Gormaz_unavailable }
			}
			
			
			traits = { ideology_D FM_General_Staffer }
		}
	# Ernesto Barros Jarpa
		CHL_FM_Ernesto_Barros_Jarpa = {
			picture = Ernesto_Barros_Jarpa
			allowed = { tag = CHL }
			available = {
				date > 1919.1.1
				date < 1924.1.1
				D_Minister_Allowed = yes
				NOT = { has_country_flag = Ernesto_Barros_Jarpa_unavailable }
			}
			
			
			traits = { ideology_D FM_Ideological_Crusader }
		}
	# Samuel Claro Lastarria
		CHL_FM_Samuel_Claro_Lastarria = {
			picture = Samuel_Claro_Lastarria
			allowed = { tag = CHL }
			available = {
				date > 1920.1.1
				date < 1924.1.1
				D_Minister_Allowed = yes
				NOT = { has_country_flag = Samuel_Claro_Lastarria_unavailable }
			}
			
			
			traits = { ideology_D FM_Great_Compromiser }
		}
	# Emilio Bello Codecido
		CHL_FM_Emilio_Bello_Codecido = {
			picture = Emilio_Bello_Codecido
			allowed = { tag = CHL }
			available = {
				date > 1921.1.1
				date < 1926.1.1
				D_Minister_Allowed = yes
				NOT = { has_country_flag = Emilio_Bello_Codecido_unavailable }
			}
			
			
			traits = { ideology_D FM_The_Cloak_N_Dagger_Schemer }
		}
	# Armando Jaramillo Valderrama
		CHL_FM_Armando_Jaramillo_Valderrama = {
			picture = Armando_Jaramillo_Valderrama
			allowed = { tag = CHL }
			available = {
				date > 1922.1.1
				date < 1926.1.1
				D_Minister_Allowed = yes
				NOT = { has_country_flag = Armando_Jaramillo_Valderrama_unavailable }
			}
			
			
			traits = { ideology_D FM_Iron_Fisted_Brute }
		}
	# Roberto Sánchez García de la Huerta
		CHL_FM_Roberto_Sanchez_Garcia_de_la_Huerta = {
			picture = Roberto_Sanchez_Garcia_de_la_Huerta
			allowed = { tag = CHL }
			available = {
				date > 1922.1.1
				date < 1926.1.1
				D_Minister_Allowed = yes
				NOT = { has_country_flag = Roberto_Sanchez_Garcia_de_la_Huerta_unavailable }
			}
			
			
			traits = { ideology_D FM_General_Staffer }
		}
	# Eduardo Suárez Mujica
		CHL_FM_Eduardo_Suarez_Mujica = {
			picture = Eduardo_Suarez_Mujica
			allowed = { tag = CHL }
			available = {
				date > 1915.1.1
				date < 1920.1.1
				D_Minister_Allowed = yes
				NOT = { has_country_flag = Eduardo_Suarez_Mujica_unavailable }
			}
			
			
			traits = { ideology_D FM_Ideological_Crusader }
		}
	# Daniel Feliú Manterola
		CHL_FM_Daniel_Feliu_Manterola = {
			picture = Daniel_Feliu_Manterola
			allowed = { tag = CHL }
			available = {
				date > 1916.1.1
				date < 1920.1.1
				D_Minister_Allowed = yes
				NOT = { has_country_flag = Daniel_Feliu_Manterola_unavailable }
			}
			
			
			traits = { ideology_D FM_Apologetic_Clerk }
		}
	# Ruperto A. Bahamonde Rivera
		CHL_FM_Ruperto_A_Bahamonde_Rivera = {
			picture = Ruperto_A_Bahamonde_Rivera
			allowed = { tag = CHL }
			available = {
				date > 1916.1.1
				date < 1920.1.1
				D_Minister_Allowed = yes
				NOT = { has_country_flag = Ruperto_A_Bahamonde_Rivera_unavailable }
			}
			
			
			traits = { ideology_D FM_Biased_Intellectual }
		}
	# Pedro María Rivas Vicuña
		CHL_FM_Pedro_Maria_Rivas_Vicuna = {
			picture = Pedro_Maria_Rivas_Vicuna
			allowed = { tag = CHL }
			available = {
				date > 1921.1.1
				date < 1925.1.1
				D_Minister_Allowed = yes
				NOT = { has_country_flag = Pedro_Maria_Rivas_Vicuna_unavailable }
			}
			
			
			traits = { ideology_D FM_Biased_Intellectual }
		}
	# Galvarino Gallardo Nieto
		CHL_FM_Galvarino_Gallardo_Nieto = {
			picture = Galvarino_Gallardo_Nieto
			allowed = { tag = CHL }
			available = {
				date > 1922.1.1
				date < 1926.1.1
				D_Minister_Allowed = yes
				NOT = { has_country_flag = Galvarino_Gallardo_Nieto_unavailable }
			}
			
			
			traits = { ideology_D FM_Ideological_Crusader }
		}
	# Ramón Briones Luco
		CHL_FM_Ramon_Briones_Luco = {
			picture = Ramon_Briones_Luco
			allowed = { tag = CHL }
			available = {
				date > 1922.1.1
				date < 1926.1.1
				D_Minister_Allowed = yes
				NOT = { has_country_flag = Ramon_Briones_Luco_unavailable }
			}
			
			
			traits = { ideology_D FM_Great_Compromiser }
		}
	# Miguel Cruchaga Tacomal
		CHL_FM_Miguel_Cruchaga_Tacomal = {
			picture = Miguel_Cruchaga_Tacomal
			allowed = { tag = CHL }
			available = {
				date > 1933.1.1
				date < 1964.1.1
				D_Minister_Allowed = yes
				NOT = { has_country_flag = Miguel_Cruchaga_Tacomal_unavailable }
			}
			
			
			traits = { ideology_D FM_Iron_Fisted_Brute }
		}
	# J.R.Guiterréz Allende
		CHL_FM_JRGuiterrez_Allende = {
			picture = JRGuiterrez_Allende
			allowed = { tag = CHL }
			available = {
				date > 1938.1.1
				date < 1964.1.1
				D_Minister_Allowed = yes
				NOT = { has_country_flag = JRGuiterrez_Allende_unavailable }
			}
			
			
			traits = { ideology_D FM_Biased_Intellectual }
		}
	# Luis Arteaga Garcia
		CHL_FM_Luis_Arteaga_Garcia = {
			picture = Luis_Arteaga_Garcia
			allowed = { tag = CHL }
			available = {
				date > 1938.1.1
				date < 1964.1.1
				D_Minister_Allowed = yes
				NOT = { has_country_flag = Luis_Arteaga_Garcia_unavailable }
			}
			
			
			traits = { ideology_D FM_The_Cloak_N_Dagger_Schemer }
		}
	# Abraham Ortega Aguayo
		CHL_FM_Abraham_Ortega_Aguayo = {
			picture = Abraham_Ortega_Aguayo
			allowed = { tag = CHL }
			available = {
				date > 1938.1.1
				date < 1964.1.1
				D_Minister_Allowed = yes
				NOT = { has_country_flag = Abraham_Ortega_Aguayo_unavailable }
			}
			
			
			traits = { ideology_D FM_Iron_Fisted_Brute }
		}
	# Cristobál Saénz Cerda
		CHL_FM_Cristobal_Saenz_Cerda = {
			picture = Cristobal_Saenz_Cerda
			allowed = { tag = CHL }
			available = {
				date > 1940.1.1
				date < 1964.1.1
				D_Minister_Allowed = yes
				NOT = { has_country_flag = Cristobal_Saenz_Cerda_unavailable }
			}
			
			
			traits = { ideology_D FM_Apologetic_Clerk }
		}
	# Manuel Mora Miranda
		CHL_FM_Manuel_Mora_Miranda = {
			picture = Manuel_Mora_Miranda
			allowed = { tag = CHL }
			available = {
				date > 1940.1.1
				date < 1964.1.1
				D_Minister_Allowed = yes
				NOT = { has_country_flag = Manuel_Mora_Miranda_unavailable }
			}
			
			
			traits = { ideology_D FM_Great_Compromiser }
		}
	# Manuel Bianchi Gúndian
		CHL_FM_Manuel_Bianchi_Gundian = {
			picture = Manuel_Bianchi_Gundian
			allowed = { tag = CHL }
			available = {
				date > 1940.1.1
				date < 1964.1.1
				D_Minister_Allowed = yes
				NOT = { has_country_flag = Manuel_Bianchi_Gundian_unavailable }
			}
			
			
			traits = { ideology_D FM_Iron_Fisted_Brute }
		}
	# Luis Alamos Barros
		CHL_FM_Luis_Alamos_Barros = {
			picture = Luis_Alamos_Barros
			allowed = { tag = CHL }
			available = {
				date > 1941.1.1
				date < 1964.1.1
				D_Minister_Allowed = yes
				NOT = { has_country_flag = Luis_Alamos_Barros_unavailable }
			}
			
			
			traits = { ideology_D FM_Ideological_Crusader }
		}
	# Ernesto Barras Jarpa
		CHL_FM_Ernesto_Barras_Jarpa = {
			picture = Ernesto_Barras_Jarpa
			allowed = { tag = CHL }
			available = {
				date > 1942.1.1
				date < 1964.1.1
				D_Minister_Allowed = yes
				NOT = { has_country_flag = Ernesto_Barras_Jarpa_unavailable }
			}
			
			
			traits = { ideology_D FM_General_Staffer }
		}
	# J. Fernandez y Fernandéz
		CHL_FM_J_Fernandez_y_Fernandez = {
			picture = J_Fernandez_y_Fernandez
			allowed = { tag = CHL }
			available = {
				date > 1942.1.1
				date < 1964.1.1
				D_Minister_Allowed = yes
				NOT = { has_country_flag = J_Fernandez_y_Fernandez_unavailable }
			}
			
			
			traits = { ideology_D FM_The_Cloak_N_Dagger_Schemer }
		}
	# Raúl Juliet Gómez
		CHL_FM_Raul_Juliet_Gomez = {
			picture = Raul_Juliet_Gomez
			allowed = { tag = CHL }
			available = {
				date > 1945.1.1
				date < 1964.1.1
				D_Minister_Allowed = yes
				NOT = { has_country_flag = Raul_Juliet_Gomez_unavailable }
			}
			
			
			traits = { ideology_D FM_Apologetic_Clerk }
		}
	# Fernando Brown Morales
		CHL_FM_Fernando_Brown_Morales = {
			picture = Fernando_Brown_Morales
			allowed = { tag = CHL }
			available = {
				date > 1946.1.1
				date < 1964.1.1
				S_Minister_Allowed = yes
				NOT = { has_country_flag = Fernando_Brown_Morales_unavailable }
			}
			
			
			traits = { ideology_S FM_Apologetic_Clerk }
		}
	# Luis Arteaga Garcia
		CHL_FM_Luis_Arteaga_Garcia_2 = {
			picture = Luis_Arteaga_Garcia_2
			allowed = { tag = CHL }
			available = {
				date > 1938.1.1
				date < 1964.1.1
				C_Minister_Allowed = yes
				NOT = { has_country_flag = Luis_Arteaga_Garcia_unavailable }
			}
			
			
			traits = { ideology_C FM_The_Cloak_N_Dagger_Schemer }
		}
}
#################################################
### Minister of Security
#################################################
	Minister_of_Security = {
	# Carlos Keller
		CHL_MoS_Carlos_Keller = {
			picture = Carlos_Keller
			allowed = { tag = CHL }
			available = {
				date > 1938.1.1
				date < 1964.1.1
				F_Minister_Allowed = yes
				NOT = { has_country_flag = Carlos_Keller_unavailable }
			}
			
			
			traits = { ideology_F MoS_Back_Stabber }
		}
	# Luis Altamirano Talavera
		CHL_MoS_Luis_Altamirano_Talavera = {
			picture = Luis_Altamirano_Talavera
			allowed = { tag = CHL }
			available = {
				date > 1922.1.1
				date < 1926.1.1
				A_Minister_Allowed = yes
				NOT = { has_country_flag = Luis_Altamirano_Talavera_unavailable }
			}
			
			
			traits = { ideology_A MoS_Silent_Lawyer }
		}
	# Carlos Ibanez del Campo
		CHL_MoS_Carlos_Ibanez_del_Campo = {
			picture = Carlos_Ibanez_del_Campo
			allowed = { tag = CHL }
			available = {
				date > 1939.1.1
				date < 1964.1.1
				A_Minister_Allowed = yes
				NOT = { has_country_flag = Carlos_Ibanez_del_Campo_unavailable }
			}
			
			
			traits = { ideology_A MoS_Man_Of_The_People }
		}
	# Vicente Merino Bielich
		CHL_MoS_Vicente_Merino_Bielich = {
			picture = Vicente_Merino_Bielich
			allowed = { tag = CHL }
			available = {
				date > 1942.1.1
				date < 1964.1.1
				A_Minister_Allowed = yes
				NOT = { has_country_flag = Vicente_Merino_Bielich_unavailable }
			}
			
			
			traits = { ideology_A MoS_Prince_Of_Terror }
		}
	# Eduardo Charme Fernández
		CHL_MoS_Eduardo_Charme_Fernandez = {
			picture = Eduardo_Charme_Fernandez
			allowed = { tag = CHL }
			available = {
				date > 1907.1.1
				date < 1916.1.1
				D_Minister_Allowed = yes
				NOT = { has_country_flag = Eduardo_Charme_Fernandez_unavailable }
			}
			
			
			traits = { ideology_D MoS_Prince_Of_Terror }
		}
	# Abraham Ovalle
		CHL_MoS_Abraham_Ovalle = {
			picture = Abraham_Ovalle
			allowed = { tag = CHL }
			available = {
				date > 1910.1.1
				date < 1914.1.1
				D_Minister_Allowed = yes
				NOT = { has_country_flag = Abraham_Ovalle_unavailable }
			}
			
			
			traits = { ideology_D MoS_Silent_Lawyer }
		}
	# J.R.Guiterréz Allende
		CHL_MoS_JRGuiterrez_Allende = {
			picture = JRGuiterrez_Allende
			allowed = { tag = CHL }
			available = {
				date > 1942.1.1
				date < 1964.1.1
				D_Minister_Allowed = yes
				NOT = { has_country_flag = JRGuiterrez_Allende_unavailable }
			}
			
			
			traits = { ideology_D MoS_Crime_Fighter }
		}
	# Manuel Rivas Vicuña
		CHL_MoS_Manuel_Rivas_Vicuna = {
			picture = Manuel_Rivas_Vicuna
			allowed = { tag = CHL }
			available = {
				date > 1943.1.1
				date < 1964.1.1
				D_Minister_Allowed = yes
				NOT = { has_country_flag = Manuel_Rivas_Vicuna_unavailable }
			}
			
			
			traits = { ideology_D MoS_Prince_Of_Terror }
		}
	# Ernesto Barras Jarpa
		CHL_MoS_Ernesto_Barras_Jarpa = {
			picture = Ernesto_Barras_Jarpa
			allowed = { tag = CHL }
			available = {
				date > 1946.1.1
				date < 1964.1.1
				D_Minister_Allowed = yes
				NOT = { has_country_flag = Ernesto_Barras_Jarpa_unavailable }
			}
			
			
			traits = { ideology_D MoS_Crooked_Kleptocrat }
		}
	# Javier Angel Figueroa Larraín
		CHL_MoS_Javier_Angel_Figueroa_Larrain = {
			picture = Javier_Angel_Figueroa_Larrain
			allowed = { tag = CHL }
			available = {
				date > 1906.1.1
				date < 1911.1.1
				D_Minister_Allowed = yes
				NOT = { has_country_flag = Javier_Angel_Figueroa_Larrain_unavailable }
			}
			
			
			traits = { ideology_D MoS_Man_Of_The_People }
		}
	# Enrique Rodríguez Carmona
		CHL_MoS_Enrique_Rodriguez_Carmona = {
			picture = Enrique_Rodriguez_Carmona
			allowed = { tag = CHL }
			available = {
				date > 1907.1.1
				date < 1917.1.1
				D_Minister_Allowed = yes
				NOT = { has_country_flag = Enrique_Rodriguez_Carmona_unavailable }
			}
			
			
			traits = { ideology_D MoS_Crime_Fighter }
		}
	# Agustín Edwards Mac-Clure
		CHL_MoS_Agustin_Edwards_MacClure = {
			picture = Agustin_Edwards_MacClure
			allowed = { tag = CHL }
			available = {
				date > 1908.1.1
				date < 1912.1.1
				D_Minister_Allowed = yes
				NOT = { has_country_flag = Agustin_Edwards_MacClure_unavailable }
			}
			
			
			traits = { ideology_D MoS_Back_Stabber }
		}
	# Elías Fernández Albano
		CHL_MoS_Elias_Fernandez_Albano = {
			picture = Elias_Fernandez_Albano
			allowed = { tag = CHL }
			available = {
				date > 1908.1.1
				date < 1912.1.1
				D_Minister_Allowed = yes
				NOT = { has_country_flag = Elias_Fernandez_Albano_unavailable }
			}
			
			
			traits = { ideology_D MoS_Efficient_Sociopath }
		}
	# Luis Izquierdo Fredes
		CHL_MoS_Luis_Izquierdo_Fredes = {
			picture = Luis_Izquierdo_Fredes
			allowed = { tag = CHL }
			available = {
				date > 1908.1.1
				date < 1924.1.1
				D_Minister_Allowed = yes
				NOT = { has_country_flag = Luis_Izquierdo_Fredes_unavailable }
			}
			
			
			traits = { ideology_D MoS_Compassionate_Gentleman }
		}
	# Maximiliano Ibáñez Ibáñez
		CHL_MoS_Maximiliano_Ibanez_Ibanez = {
			picture = Maximiliano_Ibanez_Ibanez
			allowed = { tag = CHL }
			available = {
				date > 1908.1.1
				date < 1916.1.1
				D_Minister_Allowed = yes
				NOT = { has_country_flag = Maximiliano_Ibanez_Ibanez_unavailable }
			}
			
			
			traits = { ideology_D MoS_Man_Of_The_People }
		}
	# Rafael Orrego González
		CHL_MoS_Rafael_Orrego_Gonzalez = {
			picture = Rafael_Orrego_Gonzalez
			allowed = { tag = CHL }
			available = {
				date > 1909.1.1
				date < 1916.1.1
				D_Minister_Allowed = yes
				NOT = { has_country_flag = Rafael_Orrego_Gonzalez_unavailable }
			}
			
			
			traits = { ideology_D MoS_Prince_Of_Terror }
		}
	# José Ramón Gutiérrez
		CHL_MoS_Jose_Ramon_Gutierrez = {
			picture = Jose_Ramon_Gutierrez
			allowed = { tag = CHL }
			available = {
				date > 1909.1.1
				date < 1914.1.1
				D_Minister_Allowed = yes
				NOT = { has_country_flag = Jose_Ramon_Gutierrez_unavailable }
			}
			
			
			traits = { ideology_D MoS_Crime_Fighter }
		}
	# Guillero Rivera
		CHL_MoS_Guillero_Rivera = {
			picture = Guillero_Rivera
			allowed = { tag = CHL }
			available = {
				date > 1910.1.1
				date < 1914.1.1
				D_Minister_Allowed = yes
				NOT = { has_country_flag = Guillero_Rivera_unavailable }
			}
			
			
			traits = { ideology_D MoS_Back_Stabber }
		}
	# Guillermo Barros Jara
		CHL_MoS_Guillermo_Barros_Jara = {
			picture = Guillermo_Barros_Jara
			allowed = { tag = CHL }
			available = {
				date > 1910.1.1
				date < 1917.1.1
				D_Minister_Allowed = yes
				NOT = { has_country_flag = Guillermo_Barros_Jara_unavailable }
			}
			
			
			traits = { ideology_D MoS_Efficient_Sociopath }
		}
	# Manuel Rivas
		CHL_MoS_Manuel_Rivas_2 = {
			picture = Manuel_Rivas_2
			allowed = { tag = CHL }
			available = {
				date > 1911.1.1
				date < 1915.1.1
				D_Minister_Allowed = yes
				NOT = { has_country_flag = Manuel_Rivas_unavailable }
			}
			
			
			traits = { ideology_D MoS_Compassionate_Gentleman }
		}
	# Pedro Nicolás Montenegro Onel
		CHL_MoS_Pedro_Nicolas_Montenegro_Onel = {
			picture = Pedro_Nicolas_Montenegro_Onel
			allowed = { tag = CHL }
			available = {
				date > 1912.1.1
				date < 1922.1.1
				D_Minister_Allowed = yes
				NOT = { has_country_flag = Pedro_Nicolas_Montenegro_Onel_unavailable }
			}
			
			
			traits = { ideology_D MoS_Man_Of_The_People }
		}
	# Enrique Villegas Echiburú
		CHL_MoS_Enrique_Villegas_Echiburu = {
			picture = Enrique_Villegas_Echiburu
			allowed = { tag = CHL }
			available = {
				date > 1913.1.1
				date < 1917.1.1
				D_Minister_Allowed = yes
				NOT = { has_country_flag = Enrique_Villegas_Echiburu_unavailable }
			}
			
			
			traits = { ideology_D MoS_Prince_Of_Terror }
		}
	# José Elías Balmaceda Fernández
		CHL_MoS_Jose_Elias_Balmaceda_Fernandez = {
			picture = Jose_Elias_Balmaceda_Fernandez
			allowed = { tag = CHL }
			available = {
				date > 1913.1.1
				date < 1917.1.1
				D_Minister_Allowed = yes
				NOT = { has_country_flag = Jose_Elias_Balmaceda_Fernandez_unavailable }
			}
			
			
			traits = { ideology_D MoS_Crime_Fighter }
		}
	# Enrique Zañartu Prieto
		CHL_MoS_Enrique_Zanartu_Prieto = {
			picture = Enrique_Zanartu_Prieto
			allowed = { tag = CHL }
			available = {
				date > 1914.1.1
				date < 1918.1.1
				D_Minister_Allowed = yes
				NOT = { has_country_flag = Enrique_Zanartu_Prieto_unavailable }
			}
			
			
			traits = { ideology_D MoS_Silent_Lawyer }
		}
	# Eliodoro Yáñez Ponce de León
		CHL_MoS_Eliodoro_Yanez_Ponce_de_Leon = {
			picture = Eliodoro_Yanez_Ponce_de_Leon
			allowed = { tag = CHL }
			available = {
				date > 1915.1.1
				date < 1919.1.1
				D_Minister_Allowed = yes
				NOT = { has_country_flag = Eliodoro_Yanez_Ponce_de_Leon_unavailable }
			}
			
			
			traits = { ideology_D MoS_Back_Stabber }
		}
	# Domingo Amunátegui Solar
		CHL_MoS_Domingo_Amunategui_Solar = {
			picture = Domingo_Amunategui_Solar
			allowed = { tag = CHL }
			available = {
				date > 1916.1.1
				date < 1925.1.1
				D_Minister_Allowed = yes
				NOT = { has_country_flag = Domingo_Amunategui_Solar_unavailable }
			}
			
			
			traits = { ideology_D MoS_Efficient_Sociopath }
		}
	# Arturo Alessandri Palma
		CHL_MoS_Arturo_Alessandri_Palma_2 = {
			picture = Arturo_Alessandri_Palma_2
			allowed = { tag = CHL }
			available = {
				date > 1916.1.1
				date < 1920.1.1
				D_Minister_Allowed = yes
				NOT = { has_country_flag = Arturo_Alessandri_Palma_unavailable }
			}
			
			
			traits = { ideology_D MoS_Compassionate_Gentleman }
		}
	# Pedro García de la Huerta Izquierdo
		CHL_MoS_Pedro_Garcia_de_la_Huerta_Izquierdo = {
			picture = Pedro_Garcia_de_la_Huerta_Izquierdo
			allowed = { tag = CHL }
			available = {
				date > 1916.1.1
				date < 1922.1.1
				D_Minister_Allowed = yes
				NOT = { has_country_flag = Pedro_Garcia_de_la_Huerta_Izquierdo_unavailable }
			}
			
			
			traits = { ideology_D MoS_Man_Of_The_People }
		}
	# Enrique Bermúdez de la Paz
		CHL_MoS_Enrique_Bermudez_de_la_Paz = {
			picture = Enrique_Bermudez_de_la_Paz
			allowed = { tag = CHL }
			available = {
				date > 1917.1.1
				date < 1921.1.1
				D_Minister_Allowed = yes
				NOT = { has_country_flag = Enrique_Bermudez_de_la_Paz_unavailable }
			}
			
			
			traits = { ideology_D MoS_Back_Stabber }
		}
	# José Florencio Valdés Cuevas
		CHL_MoS_Jose_Florencio_Valdes_Cuevas = {
			picture = Jose_Florencio_Valdes_Cuevas
			allowed = { tag = CHL }
			available = {
				date > 1917.1.1
				date < 1921.1.1
				D_Minister_Allowed = yes
				NOT = { has_country_flag = Jose_Florencio_Valdes_Cuevas_unavailable }
			}
			
			
			traits = { ideology_D MoS_Efficient_Sociopath }
		}
	# Jorge Matte Gormaz
		CHL_MoS_Jorge_Matte_Gormaz = {
			picture = Jorge_Matte_Gormaz
			allowed = { tag = CHL }
			available = {
				date > 1920.1.1
				date < 1924.1.1
				D_Minister_Allowed = yes
				NOT = { has_country_flag = Jorge_Matte_Gormaz_unavailable }
			}
			
			
			traits = { ideology_D MoS_Crime_Fighter }
		}
	# Armando Jaramillo Valderrama
		CHL_MoS_Armando_Jaramillo_Valderrama = {
			picture = Armando_Jaramillo_Valderrama
			allowed = { tag = CHL }
			available = {
				date > 1920.1.1
				date < 1924.1.1
				D_Minister_Allowed = yes
				NOT = { has_country_flag = Armando_Jaramillo_Valderrama_unavailable }
			}
			
			
			traits = { ideology_D MoS_Silent_Lawyer }
		}
	# Antonio Huneeus Gana
		CHL_MoS_Antonio_Huneeus_Gana = {
			picture = Antonio_Huneeus_Gana
			allowed = { tag = CHL }
			available = {
				date > 1920.1.1
				date < 1924.1.1
				D_Minister_Allowed = yes
				NOT = { has_country_flag = Antonio_Huneeus_Gana_unavailable }
			}
			
			
			traits = { ideology_D MoS_Back_Stabber }
		}
	# Manuel Rivas Vicuña
		CHL_MoS_Manuel_Rivas_Vicuna_2 = {
			picture = Manuel_Rivas_Vicuna_2
			allowed = { tag = CHL }
			available = {
				date > 1920.1.1
				date < 1924.1.1
				D_Minister_Allowed = yes
				NOT = { has_country_flag = Manuel_Rivas_Vicuna_unavailable }
			}
			
			
			traits = { ideology_D MoS_Efficient_Sociopath }
		}
	# Francisco Garcés Gana
		CHL_MoS_Francisco_Garces_Gana = {
			picture = Francisco_Garces_Gana
			allowed = { tag = CHL }
			available = {
				date > 1921.1.1
				date < 1925.1.1
				D_Minister_Allowed = yes
				NOT = { has_country_flag = Francisco_Garces_Gana_unavailable }
			}
			
			
			traits = { ideology_D MoS_Compassionate_Gentleman }
		}
	# Cornelio Saavedra Montt
		CHL_MoS_Cornelio_Saavedra_Montt = {
			picture = Cornelio_Saavedra_Montt
			allowed = { tag = CHL }
			available = {
				date > 1921.1.1
				date < 1926.1.1
				D_Minister_Allowed = yes
				NOT = { has_country_flag = Cornelio_Saavedra_Montt_unavailable }
			}
			
			
			traits = { ideology_D MoS_Man_Of_The_People }
		}
	# José Maza Fernández
		CHL_MoS_Jose_Maza_Fernandez = {
			picture = Jose_Maza_Fernandez
			allowed = { tag = CHL }
			available = {
				date > 1922.1.1
				date < 1926.1.1
				D_Minister_Allowed = yes
				NOT = { has_country_flag = Jose_Maza_Fernandez_unavailable }
			}
			
			
			traits = { ideology_D MoS_Crime_Fighter }
		}
	# Alcibíades Roldán Álvarez
		CHL_MoS_Alcibiades_Roldan_Alvarez = {
			picture = Alcibiades_Roldan_Alvarez
			allowed = { tag = CHL }
			available = {
				date > 1922.1.1
				date < 1926.1.1
				D_Minister_Allowed = yes
				NOT = { has_country_flag = Alcibiades_Roldan_Alvarez_unavailable }
			}
			
			
			traits = { ideology_D MoS_Back_Stabber }
		}
	# Rafael Luis Barahona San Martín
		CHL_MoS_Rafael_Luis_Barahona_San_Martin = {
			picture = Rafael_Luis_Barahona_San_Martin
			allowed = { tag = CHL }
			available = {
				date > 1922.1.1
				date < 1926.1.1
				D_Minister_Allowed = yes
				NOT = { has_country_flag = Rafael_Luis_Barahona_San_Martin_unavailable }
			}
			
			
			traits = { ideology_D MoS_Efficient_Sociopath }
		}
	# Rafael Sotomayor Gaete
		CHL_MoS_Rafael_Sotomayor_Gaete = {
			picture = Rafael_Sotomayor_Gaete
			allowed = { tag = CHL }
			available = {
				date > 1905.1.1
				date < 1910.1.1
				D_Minister_Allowed = yes
				NOT = { has_country_flag = Rafael_Sotomayor_Gaete_unavailable }
			}
			
			
			traits = { ideology_D MoS_Compassionate_Gentleman }
		}
	# Ismael Tocornal Tocornal
		CHL_MoS_Ismael_Tocornal_Tocornal = {
			picture = Ismael_Tocornal_Tocornal
			allowed = { tag = CHL }
			available = {
				date > 1907.1.1
				date < 1923.1.1
				D_Minister_Allowed = yes
				NOT = { has_country_flag = Ismael_Tocornal_Tocornal_unavailable }
			}
			
			
			traits = { ideology_D MoS_Silent_Lawyer }
		}
	# Armando Quezada Acharán
		CHL_MoS_Armando_Quezada_Acharan = {
			picture = Armando_Quezada_Acharan
			allowed = { tag = CHL }
			available = {
				date > 1916.1.1
				date < 1920.1.1
				D_Minister_Allowed = yes
				NOT = { has_country_flag = Armando_Quezada_Acharan_unavailable }
			}
			
			
			traits = { ideology_D MoS_Prince_Of_Terror }
		}
	# Anselmo Hevia Requelme
		CHL_MoS_Anselmo_Hevia_Requelme = {
			picture = Anselmo_Hevia_Requelme
			allowed = { tag = CHL }
			available = {
				date > 1917.1.1
				date < 1921.1.1
				D_Minister_Allowed = yes
				NOT = { has_country_flag = Anselmo_Hevia_Requelme_unavailable }
			}
			
			
			traits = { ideology_D MoS_Crime_Fighter }
		}
	# Luis Serrano Arrieta
		CHL_MoS_Luis_Serrano_Arrieta = {
			picture = Luis_Serrano_Arrieta
			allowed = { tag = CHL }
			available = {
				date > 1917.1.1
				date < 1921.1.1
				D_Minister_Allowed = yes
				NOT = { has_country_flag = Luis_Serrano_Arrieta_unavailable }
			}
			
			
			traits = { ideology_D MoS_Silent_Lawyer }
		}
	# Federico Puga Borne
		CHL_MoS_Federico_Puga_Borne = {
			picture = Federico_Puga_Borne
			allowed = { tag = CHL }
			available = {
				date > 1918.1.1
				date < 1922.1.1
				D_Minister_Allowed = yes
				NOT = { has_country_flag = Federico_Puga_Borne_unavailable }
			}
			
			
			traits = { ideology_D MoS_Compassionate_Gentleman }
		}
	# Pedro Aguirre Cerda
		CHL_MoS_Pedro_Aguirre_Cerda = {
			picture = Pedro_Aguirre_Cerda
			allowed = { tag = CHL }
			available = {
				date > 1918.1.1
				date < 1926.1.1
				D_Minister_Allowed = yes
				NOT = { has_country_flag = Pedro_Aguirre_Cerda_unavailable }
			}
			
			
			traits = { ideology_D MoS_Man_Of_The_People }
		}
	# Héctor Arancibia Laso
		CHL_MoS_Hector_Arancibia_Laso = {
			picture = Hector_Arancibia_Laso
			allowed = { tag = CHL }
			available = {
				date > 1919.1.1
				date < 1923.1.1
				D_Minister_Allowed = yes
				NOT = { has_country_flag = Hector_Arancibia_Laso_unavailable }
			}
			
			
			traits = { ideology_D MoS_Prince_Of_Terror }
		}
	# Carlos Alberto Ruiz Bahamonde
		CHL_MoS_Carlos_Alberto_Ruiz_Bahamonde = {
			picture = Carlos_Alberto_Ruiz_Bahamonde
			allowed = { tag = CHL }
			available = {
				date > 1921.1.1
				date < 1925.1.1
				D_Minister_Allowed = yes
				NOT = { has_country_flag = Carlos_Alberto_Ruiz_Bahamonde_unavailable }
			}
			
			
			traits = { ideology_D MoS_Prince_Of_Terror }
		}
	# Arturo Alessandri Palma
		CHL_MoS_Arturo_Alessandri_Palma = {
			picture = Arturo_Alessandri_Palma
			allowed = { tag = CHL }
			available = {
				date > 1933.1.1
				date < 1964.1.1
				D_Minister_Allowed = yes
				NOT = { has_country_flag = Arturo_Alessandri_Palma_unavailable }
			}
			
			
			traits = { ideology_D MoS_Compassionate_Gentleman }
		}
	# Antonio Huneeus
		CHL_MoS_Antonio_Huneeus = {
			picture = Antonio_Huneeus
			allowed = { tag = CHL }
			available = {
				date > 1937.1.1
				date < 1964.1.1
				D_Minister_Allowed = yes
				NOT = { has_country_flag = Antonio_Huneeus_unavailable }
			}
			
			
			traits = { ideology_D MoS_Man_Of_The_People }
		}
	# Miguel Gonzalez Rios
		CHL_MoS_Miguel_Gonzalez_Rios = {
			picture = Miguel_Gonzalez_Rios
			allowed = { tag = CHL }
			available = {
				date > 1938.1.1
				date < 1964.1.1
				D_Minister_Allowed = yes
				NOT = { has_country_flag = Miguel_Gonzalez_Rios_unavailable }
			}
			
			
			traits = { ideology_D MoS_Crooked_Kleptocrat }
		}
	# Abraham Ortega Aguayo
		CHL_MoS_Abraham_Ortega_Aguayo = {
			picture = Abraham_Ortega_Aguayo
			allowed = { tag = CHL }
			available = {
				date > 1938.1.1
				date < 1964.1.1
				D_Minister_Allowed = yes
				NOT = { has_country_flag = Abraham_Ortega_Aguayo_unavailable }
			}
			
			
			traits = { ideology_D MoS_Crime_Fighter }
		}
	# Manuel Salinas
		CHL_MoS_Manuel_Salinas = {
			picture = Manuel_Salinas
			allowed = { tag = CHL }
			available = {
				date > 1938.1.1
				date < 1964.1.1
				D_Minister_Allowed = yes
				NOT = { has_country_flag = Manuel_Salinas_unavailable }
			}
			
			
			traits = { ideology_D MoS_Silent_Lawyer }
		}
	# Manuel Mora Miranda
		CHL_MoS_Manuel_Mora_Miranda = {
			picture = Manuel_Mora_Miranda
			allowed = { tag = CHL }
			available = {
				date > 1941.1.1
				date < 1964.1.1
				D_Minister_Allowed = yes
				NOT = { has_country_flag = Manuel_Mora_Miranda_unavailable }
			}
			
			
			traits = { ideology_D MoS_Back_Stabber }
		}
	# Dario Mujica Gamboa
		CHL_MoS_Dario_Mujica_Gamboa = {
			picture = Dario_Mujica_Gamboa
			allowed = { tag = CHL }
			available = {
				date > 1942.1.1
				date < 1964.1.1
				D_Minister_Allowed = yes
				NOT = { has_country_flag = Dario_Mujica_Gamboa_unavailable }
			}
			
			
			traits = { ideology_D MoS_Efficient_Sociopath }
		}
	# Antonio J. Rios
		CHL_MoS_Antonio_J_Rios = {
			picture = Antonio_J_Rios
			allowed = { tag = CHL }
			available = {
				date > 1945.1.1
				date < 1964.1.1
				D_Minister_Allowed = yes
				NOT = { has_country_flag = Antonio_J_Rios_unavailable }
			}
			
			
			traits = { ideology_D MoS_Prince_Of_Terror }
		}
	# Cristobál Saénz Cerda
		CHL_MoS_Cristobal_Saenz_Cerda = {
			picture = Cristobal_Saenz_Cerda
			allowed = { tag = CHL }
			available = {
				date > 1945.1.1
				date < 1964.1.1
				S_Minister_Allowed = yes
				NOT = { has_country_flag = Cristobal_Saenz_Cerda_unavailable }
			}
			
			
			traits = { ideology_S MoS_Prince_Of_Terror }
		}
	# Marmaduke Grove
		CHL_MoS_Marmaduke_Grove = {
			picture = Marmaduke_Grove
			allowed = { tag = CHL }
			available = {
				date > 1938.1.1
				date < 1964.1.1
				C_Minister_Allowed = yes
				NOT = { has_country_flag = Marmaduke_Grove_unavailable }
			}
			
			
			traits = { ideology_C MoS_Man_Of_The_People }
		}
}
#################################################
### Armaments Minister
#################################################
	Armaments_Minister = {
	# Ramón Callís
		CHL_AM_Ramon_Callis = {
			picture = Ramon_Callis
			allowed = { tag = CHL }
			available = {
				date > 1938.1.1
				date < 1964.1.1
				F_Minister_Allowed = yes
				NOT = { has_country_flag = Ramon_Callis_unavailable }
			}
			
			
			traits = { ideology_F AM_Infantry_Proponent }
		}
	# Carlos Puga Monsalve
		CHL_AM_Carlos_Puga_Monsalve = {
			picture = Carlos_Puga_Monsalve
			allowed = { tag = CHL }
			available = {
				date > 1944.1.1
				date < 1964.1.1
				F_Minister_Allowed = yes
				NOT = { has_country_flag = Carlos_Puga_Monsalve_unavailable }
			}
			
			
			traits = { ideology_F AM_Air_To_Sea_Proponent }
		}
	# Arístides Pinto Concha
		CHL_AM_Aristides_Pinto_Concha = {
			picture = Aristides_Pinto_Concha
			allowed = { tag = CHL }
			available = {
				date > 1908.1.1
				date < 1913.1.1
				A_Minister_Allowed = yes
				NOT = { has_country_flag = Aristides_Pinto_Concha_unavailable }
			}
			
			
			traits = { ideology_A AM_Laissez-faire_Capitalist }
		}
	# Guillermo Soublette Garín
		CHL_AM_Guillermo_Soublette_Garin = {
			picture = Guillermo_Soublette_Garin
			allowed = { tag = CHL }
			available = {
				date > 1913.1.1
				date < 1917.1.1
				A_Minister_Allowed = yes
				NOT = { has_country_flag = Guillermo_Soublette_Garin_unavailable }
			}
			
			
			traits = { ideology_A AM_Battle_Fleet_Proponent }
		}
	# Salvador Vergara Álvarez
		CHL_AM_Salvador_Vergara_Alvarez = {
			picture = Salvador_Vergara_Alvarez
			allowed = { tag = CHL }
			available = {
				date > 1913.1.1
				date < 1918.1.1
				A_Minister_Allowed = yes
				NOT = { has_country_flag = Salvador_Vergara_Alvarez_unavailable }
			}
			
			
			traits = { ideology_A AM_Corrupt_Kleptocrat }
		}
	# Jorge Boonen Rivera
		CHL_AM_Jorge_Boonen_Rivera = {
			picture = Jorge_Boonen_Rivera
			allowed = { tag = CHL }
			available = {
				date > 1914.1.1
				date < 1918.1.1
				A_Minister_Allowed = yes
				NOT = { has_country_flag = Jorge_Boonen_Rivera_unavailable }
			}
			
			
			traits = { ideology_A AM_Administrative_Genius }
		}
	# Luis Altamirano Talavera
		CHL_AM_Luis_Altamirano_Talavera = {
			picture = Luis_Altamirano_Talavera
			allowed = { tag = CHL }
			available = {
				date > 1921.1.1
				date < 1926.1.1
				A_Minister_Allowed = yes
				NOT = { has_country_flag = Luis_Altamirano_Talavera_unavailable }
			}
			
			
			traits = { ideology_A AM_Corrupt_Kleptocrat }
		}
	# Alfredo Ewing
		CHL_AM_Alfredo_Ewing = {
			picture = Alfredo_Ewing
			allowed = { tag = CHL }
			available = {
				date > 1922.1.1
				date < 1926.1.1
				A_Minister_Allowed = yes
				NOT = { has_country_flag = Alfredo_Ewing_unavailable }
			}
			
			
			traits = { ideology_A AM_Resource_Industrialist }
		}
	# Luis Brieba
		CHL_AM_Luis_Brieba = {
			picture = Luis_Brieba
			allowed = { tag = CHL }
			available = {
				date > 1922.1.1
				date < 1926.1.1
				A_Minister_Allowed = yes
				NOT = { has_country_flag = Luis_Brieba_unavailable }
			}
			
			
			traits = { ideology_A AM_Administrative_Genius }
		}
	# Juan Pablo Bennett
		CHL_AM_Juan_Pablo_Bennett = {
			picture = Juan_Pablo_Bennett
			allowed = { tag = CHL }
			available = {
				date > 1922.1.1
				date < 1926.1.1
				A_Minister_Allowed = yes
				NOT = { has_country_flag = Juan_Pablo_Bennett_unavailable }
			}
			
			
			traits = { ideology_A AM_Corrupt_Kleptocrat }
		}
	# Luis Gómez Carreño
		CHL_AM_Luis_Gomez_Carreno = {
			picture = Luis_Gomez_Carreno
			allowed = { tag = CHL }
			available = {
				date > 1922.1.1
				date < 1926.1.1
				A_Minister_Allowed = yes
				NOT = { has_country_flag = Luis_Gomez_Carreno_unavailable }
			}
			
			
			traits = { ideology_A AM_Battle_Fleet_Proponent }
		}
	# Juan Ortiz Vega
		CHL_AM_Juan_Ortiz_Vega = {
			picture = Juan_Ortiz_Vega
			allowed = { tag = CHL }
			available = {
				date > 1922.1.1
				date < 1927.1.1
				A_Minister_Allowed = yes
				NOT = { has_country_flag = Juan_Ortiz_Vega_unavailable }
			}
			
			
			traits = { ideology_A AM_Tank_Proponent }
		}
	# Ernesto Barras Jarpa
		CHL_AM_Ernesto_Barras_Jarpa = {
			picture = Ernesto_Barras_Jarpa
			allowed = { tag = CHL }
			available = {
				date > 1942.1.1
				date < 1964.1.1
				A_Minister_Allowed = yes
				NOT = { has_country_flag = Ernesto_Barras_Jarpa_unavailable }
			}
			
			
			traits = { ideology_A AM_Corrupt_Kleptocrat }
		}
	# Manuel Bianchi Gúndian
		CHL_AM_Manuel_Bianchi_Gundian = {
			picture = Manuel_Bianchi_Gundian
			allowed = { tag = CHL }
			available = {
				date > 1942.1.1
				date < 1964.1.1
				A_Minister_Allowed = yes
				NOT = { has_country_flag = Manuel_Bianchi_Gundian_unavailable }
			}
			
			
			traits = { ideology_A AM_Infantry_Proponent }
		}
	# Alejandro Hunneus
		CHL_AM_Alejandro_Hunneus = {
			picture = Alejandro_Hunneus
			allowed = { tag = CHL }
			available = {
				date > 1909.1.1
				date < 1914.1.1
				D_Minister_Allowed = yes
				NOT = { has_country_flag = Alejandro_Hunneus_unavailable }
			}
			
			
			traits = { ideology_D AM_Administrative_Genius }
		}
	# Alfredo Barros Errázuriz
		CHL_AM_Alfredo_Barros_Errazuriz = {
			picture = Alfredo_Barros_Errazuriz
			allowed = { tag = CHL }
			available = {
				date > 1912.1.1
				date < 1916.1.1
				D_Minister_Allowed = yes
				NOT = { has_country_flag = Alfredo_Barros_Errazuriz_unavailable }
			}
			
			
			traits = { ideology_D AM_Administrative_Genius }
		}
	# Ricardo Cox Méndez
		CHL_AM_Ricardo_Cox_Mendez = {
			picture = Ricardo_Cox_Mendez
			allowed = { tag = CHL }
			available = {
				date > 1912.1.1
				date < 1917.1.1
				D_Minister_Allowed = yes
				NOT = { has_country_flag = Ricardo_Cox_Mendez_unavailable }
			}
			
			
			traits = { ideology_D AM_Military_Entrepreneur }
		}
	# Enrique Villegas
		CHL_AM_Enrique_Villegas = {
			picture = Enrique_Villegas
			allowed = { tag = CHL }
			available = {
				date > 1938.1.1
				date < 1964.1.1
				D_Minister_Allowed = yes
				NOT = { has_country_flag = Enrique_Villegas_unavailable }
			}
			
			
			traits = { ideology_D AM_Laissez-faire_Capitalist }
		}
	# Victor Larens Quijada
		CHL_AM_Victor_Larens_Quijada = {
			picture = Victor_Larens_Quijada
			allowed = { tag = CHL }
			available = {
				date > 1939.1.1
				date < 1964.1.1
				D_Minister_Allowed = yes
				NOT = { has_country_flag = Victor_Larens_Quijada_unavailable }
			}
			
			
			traits = { ideology_D AM_Submarine_Proponent }
		}
	# Francisco ORyan Orrego
		CHL_AM_Francisco_ORyan_Orrego = {
			picture = Francisco_ORyan_Orrego
			allowed = { tag = CHL }
			available = {
				date > 1943.1.1
				date < 1964.1.1
				D_Minister_Allowed = yes
				NOT = { has_country_flag = Francisco_ORyan_Orrego_unavailable }
			}
			
			
			traits = { ideology_D AM_Battle_Fleet_Proponent }
		}
	# Misael Galleguillos
		CHL_AM_Misael_Galleguillos = {
			picture = Misael_Galleguillos
			allowed = { tag = CHL }
			available = {
				date > 1946.1.1
				date < 1964.1.1
				D_Minister_Allowed = yes
				NOT = { has_country_flag = Misael_Galleguillos_unavailable }
			}
			
			
			traits = { ideology_D AM_Corrupt_Kleptocrat }
		}
	# Gustavo Ross Santa Maria
		CHL_AM_Gustavo_Ross_Santa_Maria = {
			picture = Gustavo_Ross_Santa_Maria
			allowed = { tag = CHL }
			available = {
				date > 1946.1.1
				date < 1964.1.1
				D_Minister_Allowed = yes
				NOT = { has_country_flag = Gustavo_Ross_Santa_Maria_unavailable }
			}
			
			
			traits = { ideology_D AM_Administrative_Genius }
		}
	# Belisario Prats Bello
		CHL_AM_Belisario_Prats_Bello = {
			picture = Belisario_Prats_Bello
			allowed = { tag = CHL }
			available = {
				date > 1905.1.1
				date < 1910.1.1
				D_Minister_Allowed = yes
				NOT = { has_country_flag = Belisario_Prats_Bello_unavailable }
			}
			
			
			traits = { ideology_D AM_Laissez-faire_Capitalist }
		}
	# Aníbal Rodríguez
		CHL_AM_Anibal_Rodriguez = {
			picture = Anibal_Rodriguez
			allowed = { tag = CHL }
			available = {
				date > 1906.1.1
				date < 1921.1.1
				D_Minister_Allowed = yes
				NOT = { has_country_flag = Anibal_Rodriguez_unavailable }
			}
			
			
			traits = { ideology_D AM_Administrative_Genius }
		}
	# Darío Zañartu
		CHL_AM_Dario_Zanartu = {
			picture = Dario_Zanartu
			allowed = { tag = CHL }
			available = {
				date > 1907.1.1
				date < 1911.1.1
				D_Minister_Allowed = yes
				NOT = { has_country_flag = Dario_Zanartu_unavailable }
			}
			
			
			traits = { ideology_D AM_Resource_Industrialist }
		}
	# Roberto Hunneus Gana
		CHL_AM_Roberto_Hunneus_Gana = {
			picture = Roberto_Hunneus_Gana
			allowed = { tag = CHL }
			available = {
				date > 1907.1.1
				date < 1911.1.1
				D_Minister_Allowed = yes
				NOT = { has_country_flag = Roberto_Hunneus_Gana_unavailable }
			}
			
			
			traits = { ideology_D AM_Corrupt_Kleptocrat }
		}
	# Carlos Larraín Claro
		CHL_AM_Carlos_Larrain_Claro = {
			picture = Carlos_Larrain_Claro
			allowed = { tag = CHL }
			available = {
				date > 1908.1.1
				date < 1912.1.1
				D_Minister_Allowed = yes
				NOT = { has_country_flag = Carlos_Larrain_Claro_unavailable }
			}
			
			
			traits = { ideology_D AM_Theoretical_Scientist }
		}
	# Ramón León Luco
		CHL_AM_Ramon_Leon_Luco = {
			picture = Ramon_Leon_Luco
			allowed = { tag = CHL }
			available = {
				date > 1909.1.1
				date < 1913.1.1
				D_Minister_Allowed = yes
				NOT = { has_country_flag = Ramon_Leon_Luco_unavailable }
			}
			
			
			traits = { ideology_D AM_Strategic_Air_Proponent }
		}
	# Luis Devoto
		CHL_AM_Luis_Devoto = {
			picture = Luis_Devoto
			allowed = { tag = CHL }
			available = {
				date > 1910.1.1
				date < 1914.1.1
				D_Minister_Allowed = yes
				NOT = { has_country_flag = Luis_Devoto_unavailable }
			}
			
			
			traits = { ideology_D AM_Corrupt_Kleptocrat }
		}
	# Claudio Vicuña Subercaseaux
		CHL_AM_Claudio_Vicuna_Subercaseaux = {
			picture = Claudio_Vicuna_Subercaseaux
			allowed = { tag = CHL }
			available = {
				date > 1910.1.1
				date < 1915.1.1
				D_Minister_Allowed = yes
				NOT = { has_country_flag = Claudio_Vicuna_Subercaseaux_unavailable }
			}
			
			
			traits = { ideology_D AM_Laissez-faire_Capitalist }
		}
	# Jorge Matte Gormaz
		CHL_AM_Jorge_Matte_Gormaz = {
			picture = Jorge_Matte_Gormaz
			allowed = { tag = CHL }
			available = {
				date > 1911.1.1
				date < 1915.1.1
				D_Minister_Allowed = yes
				NOT = { has_country_flag = Jorge_Matte_Gormaz_unavailable }
			}
			
			
			traits = { ideology_D AM_Resource_Industrialist }
		}
	# Cornelio Saavedra Montt
		CHL_AM_Cornelio_Saavedra_Montt = {
			picture = Cornelio_Saavedra_Montt
			allowed = { tag = CHL }
			available = {
				date > 1914.1.1
				date < 1918.1.1
				D_Minister_Allowed = yes
				NOT = { has_country_flag = Cornelio_Saavedra_Montt_unavailable }
			}
			
			
			traits = { ideology_D AM_Theoretical_Scientist }
		}
	# Oscar Urzúa Jaramillo
		CHL_AM_Oscar_Urzua_Jaramillo = {
			picture = Oscar_Urzua_Jaramillo
			allowed = { tag = CHL }
			available = {
				date > 1914.1.1
				date < 1919.1.1
				D_Minister_Allowed = yes
				NOT = { has_country_flag = Oscar_Urzua_Jaramillo_unavailable }
			}
			
			
			traits = { ideology_D AM_Resource_Industrialist }
		}
	# Pedro Nicolás Montenegro Onel
		CHL_AM_Pedro_Nicolas_Montenegro_Onel = {
			picture = Pedro_Nicolas_Montenegro_Onel
			allowed = { tag = CHL }
			available = {
				date > 1915.1.1
				date < 1919.1.1
				D_Minister_Allowed = yes
				NOT = { has_country_flag = Pedro_Nicolas_Montenegro_Onel_unavailable }
			}
			
			
			traits = { ideology_D AM_Air_To_Ground_Proponent }
		}
	# Óscar Viel Cavero
		CHL_AM_Oscar_Viel_Cavero = {
			picture = Oscar_Viel_Cavero
			allowed = { tag = CHL }
			available = {
				date > 1915.1.1
				date < 1920.1.1
				D_Minister_Allowed = yes
				NOT = { has_country_flag = Oscar_Viel_Cavero_unavailable }
			}
			
			
			traits = { ideology_D AM_Air_Superiority_Proponent }
		}
	# Luis Vicuña Cifuentes
		CHL_AM_Luis_Vicuna_Cifuentes = {
			picture = Luis_Vicuna_Cifuentes
			allowed = { tag = CHL }
			available = {
				date > 1916.1.1
				date < 1920.1.1
				D_Minister_Allowed = yes
				NOT = { has_country_flag = Luis_Vicuna_Cifuentes_unavailable }
			}
			
			
			traits = { ideology_D AM_Administrative_Genius }
		}
	# Jorge Valdivieso Blanco
		CHL_AM_Jorge_Valdivieso_Blanco = {
			picture = Jorge_Valdivieso_Blanco
			allowed = { tag = CHL }
			available = {
				date > 1916.1.1
				date < 1920.1.1
				D_Minister_Allowed = yes
				NOT = { has_country_flag = Jorge_Valdivieso_Blanco_unavailable }
			}
			
			
			traits = { ideology_D AM_Strategic_Air_Proponent }
		}
	# Enrique Bermúdez de la Paz
		CHL_AM_Enrique_Bermudez_de_la_Paz = {
			picture = Enrique_Bermudez_de_la_Paz
			allowed = { tag = CHL }
			available = {
				date > 1916.1.1
				date < 1921.1.1
				D_Minister_Allowed = yes
				NOT = { has_country_flag = Enrique_Bermudez_de_la_Paz_unavailable }
			}
			
			
			traits = { ideology_D AM_Theoretical_Scientist }
		}
	# Germán Riesco Errázuriz
		CHL_AM_German_Riesco_Errazuriz = {
			picture = German_Riesco_Errazuriz
			allowed = { tag = CHL }
			available = {
				date > 1917.1.1
				date < 1922.1.1
				D_Minister_Allowed = yes
				NOT = { has_country_flag = German_Riesco_Errazuriz_unavailable }
			}
			
			
			traits = { ideology_D AM_Corrupt_Kleptocrat }
		}
	# Regulo Valenzuela
		CHL_AM_Regulo_Valenzuela = {
			picture = Regulo_Valenzuela
			allowed = { tag = CHL }
			available = {
				date > 1918.1.1
				date < 1922.1.1
				D_Minister_Allowed = yes
				NOT = { has_country_flag = Regulo_Valenzuela_unavailable }
			}
			
			
			traits = { ideology_D AM_Resource_Industrialist }
		}
	# Pedro Opaso Letelier
		CHL_AM_Pedro_Opaso_Letelier = {
			picture = Pedro_Opaso_Letelier
			allowed = { tag = CHL }
			available = {
				date > 1918.1.1
				date < 1922.1.1
				D_Minister_Allowed = yes
				NOT = { has_country_flag = Pedro_Opaso_Letelier_unavailable }
			}
			
			
			traits = { ideology_D AM_Infantry_Proponent }
		}
	# Ladislao Errázuriz Lazcano
		CHL_AM_Ladislao_Errazuriz_Lazcano = {
			picture = Ladislao_Errazuriz_Lazcano
			allowed = { tag = CHL }
			available = {
				date > 1918.1.1
				date < 1922.1.1
				D_Minister_Allowed = yes
				NOT = { has_country_flag = Ladislao_Errazuriz_Lazcano_unavailable }
			}
			
			
			traits = { ideology_D AM_Administrative_Genius }
		}
	# Carlos Silva Cruz
		CHL_AM_Carlos_Silva_Cruz = {
			picture = Carlos_Silva_Cruz
			allowed = { tag = CHL }
			available = {
				date > 1918.1.1
				date < 1923.1.1
				D_Minister_Allowed = yes
				NOT = { has_country_flag = Carlos_Silva_Cruz_unavailable }
			}
			
			
			traits = { ideology_D AM_Air_To_Ground_Proponent }
		}
	# Enrique Balmaceda Toro
		CHL_AM_Enrique_Balmaceda_Toro = {
			picture = Enrique_Balmaceda_Toro
			allowed = { tag = CHL }
			available = {
				date > 1919.1.1
				date < 1923.1.1
				D_Minister_Allowed = yes
				NOT = { has_country_flag = Enrique_Balmaceda_Toro_unavailable }
			}
			
			
			traits = { ideology_D AM_Corrupt_Kleptocrat }
		}
	# Samuel Claro Lastarria
		CHL_AM_Samuel_Claro_Lastarria = {
			picture = Samuel_Claro_Lastarria
			allowed = { tag = CHL }
			available = {
				date > 1919.1.1
				date < 1924.1.1
				D_Minister_Allowed = yes
				NOT = { has_country_flag = Samuel_Claro_Lastarria_unavailable }
			}
			
			
			traits = { ideology_D AM_Theoretical_Scientist }
		}
	# Ignacio Marchant Scott
		CHL_AM_Ignacio_Marchant_Scott = {
			picture = Ignacio_Marchant_Scott
			allowed = { tag = CHL }
			available = {
				date > 1920.1.1
				date < 1924.1.1
				D_Minister_Allowed = yes
				NOT = { has_country_flag = Ignacio_Marchant_Scott_unavailable }
			}
			
			
			traits = { ideology_D AM_Administrative_Genius }
		}
	# Roberto Sánchez García de la Huerta
		CHL_AM_Roberto_Sanchez_Garcia_de_la_Huerta = {
			picture = Roberto_Sanchez_Garcia_de_la_Huerta
			allowed = { tag = CHL }
			available = {
				date > 1920.1.1
				date < 1924.1.1
				D_Minister_Allowed = yes
				NOT = { has_country_flag = Roberto_Sanchez_Garcia_de_la_Huerta_unavailable }
			}
			
			
			traits = { ideology_D AM_Air_Superiority_Proponent }
		}
	# Hernán Correa Roberts
		CHL_AM_Hernan_Correa_Roberts = {
			picture = Hernan_Correa_Roberts
			allowed = { tag = CHL }
			available = {
				date > 1920.1.1
				date < 1924.1.1
				D_Minister_Allowed = yes
				NOT = { has_country_flag = Hernan_Correa_Roberts_unavailable }
			}
			
			
			traits = { ideology_D AM_Military_Entrepreneur }
		}
	# Onofre Bunster
		CHL_AM_Onofre_Bunster = {
			picture = Onofre_Bunster
			allowed = { tag = CHL }
			available = {
				date > 1920.1.1
				date < 1924.1.1
				D_Minister_Allowed = yes
				NOT = { has_country_flag = Onofre_Bunster_unavailable }
			}
			
			
			traits = { ideology_D AM_Laissez-faire_Capitalist }
		}
	# Jorge Andrés Guerra Toledo
		CHL_AM_Jorge_Andres_Guerra_Toledo = {
			picture = Jorge_Andres_Guerra_Toledo
			allowed = { tag = CHL }
			available = {
				date > 1921.1.1
				date < 1925.1.1
				D_Minister_Allowed = yes
				NOT = { has_country_flag = Jorge_Andres_Guerra_Toledo_unavailable }
			}
			
			
			traits = { ideology_D AM_Infantry_Proponent }
		}
	# Gaspar Mora Sotomayor
		CHL_AM_Gaspar_Mora_Sotomayor = {
			picture = Gaspar_Mora_Sotomayor
			allowed = { tag = CHL }
			available = {
				date > 1922.1.1
				date < 1926.1.1
				D_Minister_Allowed = yes
				NOT = { has_country_flag = Gaspar_Mora_Sotomayor_unavailable }
			}
			
			
			traits = { ideology_D AM_Theoretical_Scientist }
		}
	# Alejandro Rosellot
		CHL_AM_Alejandro_Rosellot = {
			picture = Alejandro_Rosellot
			allowed = { tag = CHL }
			available = {
				date > 1910.1.1
				date < 1914.1.1
				D_Minister_Allowed = yes
				NOT = { has_country_flag = Alejandro_Rosellot_unavailable }
			}
			
			
			traits = { ideology_D AM_Theoretical_Scientist }
		}
	# Ramón Corbalán Melgarejo
		CHL_AM_Ramon_Corbalan_Melgarejo = {
			picture = Ramon_Corbalan_Melgarejo
			allowed = { tag = CHL }
			available = {
				date > 1911.1.1
				date < 1916.1.1
				D_Minister_Allowed = yes
				NOT = { has_country_flag = Ramon_Corbalan_Melgarejo_unavailable }
			}
			
			
			traits = { ideology_D AM_Infantry_Proponent }
		}
	# Víctor Vicente Robles Valenzuela
		CHL_AM_Victor_Vicente_Robles_Valenzuela = {
			picture = Victor_Vicente_Robles_Valenzuela
			allowed = { tag = CHL }
			available = {
				date > 1916.1.1
				date < 1920.1.1
				D_Minister_Allowed = yes
				NOT = { has_country_flag = Victor_Vicente_Robles_Valenzuela_unavailable }
			}
			
			
			traits = { ideology_D AM_Laissez-faire_Capitalist }
		}
	# Remigio Medina Neira
		CHL_AM_Remigio_Medina_Neira = {
			picture = Remigio_Medina_Neira
			allowed = { tag = CHL }
			available = {
				date > 1919.1.1
				date < 1923.1.1
				D_Minister_Allowed = yes
				NOT = { has_country_flag = Remigio_Medina_Neira_unavailable }
			}
			
			
			traits = { ideology_D AM_Resource_Industrialist }
		}
	# Gustavo Silva Campos
		CHL_AM_Gustavo_Silva_Campos = {
			picture = Gustavo_Silva_Campos
			allowed = { tag = CHL }
			available = {
				date > 1921.1.1
				date < 1925.1.1
				D_Minister_Allowed = yes
				NOT = { has_country_flag = Gustavo_Silva_Campos_unavailable }
			}
			
			
			traits = { ideology_D AM_Resource_Industrialist }
		}
	# Eduardo Hillman
		CHL_AM_Eduardo_Hillman = {
			picture = Eduardo_Hillman
			allowed = { tag = CHL }
			available = {
				date > 1933.1.1
				date < 1964.1.1
				D_Minister_Allowed = yes
				NOT = { has_country_flag = Eduardo_Hillman_unavailable }
			}
			
			
			traits = { ideology_D AM_Resource_Industrialist }
		}
	# José Luis Sánchez Besa
		CHL_AM_Jose_Luis_Sanchez_Besa = {
			picture = Jose_Luis_Sanchez_Besa
			allowed = { tag = CHL }
			available = {
				date > 1937.1.1
				date < 1964.1.1
				D_Minister_Allowed = yes
				NOT = { has_country_flag = Jose_Luis_Sanchez_Besa_unavailable }
			}
			
			
			traits = { ideology_D AM_Air_To_Ground_Proponent }
		}
	# Cristobál Saénz Cerda
		CHL_AM_Cristobal_Saenz_Cerda = {
			picture = Cristobal_Saenz_Cerda
			allowed = { tag = CHL }
			available = {
				date > 1938.1.1
				date < 1964.1.1
				D_Minister_Allowed = yes
				NOT = { has_country_flag = Cristobal_Saenz_Cerda_unavailable }
			}
			
			
			traits = { ideology_D AM_Administrative_Genius }
		}
	# Carlos Garcia Palacios
		CHL_AM_Carlos_Garcia_Palacios = {
			picture = Carlos_Garcia_Palacios
			allowed = { tag = CHL }
			available = {
				date > 1938.1.1
				date < 1964.1.1
				D_Minister_Allowed = yes
				NOT = { has_country_flag = Carlos_Garcia_Palacios_unavailable }
			}
			
			
			traits = { ideology_D AM_Theoretical_Scientist }
		}
	# Juan Rios Morales
		CHL_AM_Juan_Rios_Morales = {
			picture = Juan_Rios_Morales
			allowed = { tag = CHL }
			available = {
				date > 1938.1.1
				date < 1964.1.1
				D_Minister_Allowed = yes
				NOT = { has_country_flag = Juan_Rios_Morales_unavailable }
			}
			
			
			traits = { ideology_D AM_Resource_Industrialist }
		}
	# Luis Alamos Barros
		CHL_AM_Luis_Alamos_Barros = {
			picture = Luis_Alamos_Barros
			allowed = { tag = CHL }
			available = {
				date > 1939.1.1
				date < 1964.1.1
				D_Minister_Allowed = yes
				NOT = { has_country_flag = Luis_Alamos_Barros_unavailable }
			}
			
			
			traits = { ideology_D AM_Infantry_Proponent }
		}
	# Pedro Aguirre Cerda
		CHL_AM_Pedro_Aguirre_Cerda = {
			picture = Pedro_Aguirre_Cerda
			allowed = { tag = CHL }
			available = {
				date > 1940.1.1
				date < 1964.1.1
				D_Minister_Allowed = yes
				NOT = { has_country_flag = Pedro_Aguirre_Cerda_unavailable }
			}
			
			
			traits = { ideology_D AM_Laissez-faire_Capitalist }
		}
	# Carlos Fuentes Rabe
		CHL_AM_Carlos_Fuentes_Rabe = {
			picture = Carlos_Fuentes_Rabe
			allowed = { tag = CHL }
			available = {
				date > 1941.1.1
				date < 1964.1.1
				D_Minister_Allowed = yes
				NOT = { has_country_flag = Carlos_Fuentes_Rabe_unavailable }
			}
			
			
			traits = { ideology_D AM_Military_Entrepreneur }
		}
	# Francisco Walker Linares
		CHL_AM_Francisco_Walker_Linares = {
			picture = Francisco_Walker_Linares
			allowed = { tag = CHL }
			available = {
				date > 1942.1.1
				date < 1964.1.1
				D_Minister_Allowed = yes
				NOT = { has_country_flag = Francisco_Walker_Linares_unavailable }
			}
			
			
			traits = { ideology_D AM_Tank_Proponent }
		}
	# Dario Mujica Gamboa
		CHL_AM_Dario_Mujica_Gamboa = {
			picture = Dario_Mujica_Gamboa
			allowed = { tag = CHL }
			available = {
				date > 1944.1.1
				date < 1964.1.1
				D_Minister_Allowed = yes
				NOT = { has_country_flag = Dario_Mujica_Gamboa_unavailable }
			}
			
			
			traits = { ideology_D AM_Air_Superiority_Proponent }
		}
	# Manuel C. Pereira
		CHL_AM_Manuel_C_Pereira = {
			picture = Manuel_C_Pereira
			allowed = { tag = CHL }
			available = {
				date > 1946.1.1
				date < 1964.1.1
				D_Minister_Allowed = yes
				NOT = { has_country_flag = Manuel_C_Pereira_unavailable }
			}
			
			
			traits = { ideology_D AM_Resource_Industrialist }
		}
	# Aurelio Celedon Palma
		CHL_AM_Aurelio_Celedon_Palma = {
			picture = Aurelio_Celedon_Palma
			allowed = { tag = CHL }
			available = {
				date > 1946.1.1
				date < 1964.1.1
				S_Minister_Allowed = yes
				NOT = { has_country_flag = Aurelio_Celedon_Palma_unavailable }
			}
			
			
			traits = { ideology_S AM_Strategic_Air_Proponent }
		}
	# C.L. Blest Riffo
		CHL_AM_CL_Blest_Riffo = {
			picture = CL_Blest_Riffo
			allowed = { tag = CHL }
			available = {
				date > 1938.1.1
				date < 1964.1.1
				C_Minister_Allowed = yes
				NOT = { has_country_flag = CL_Blest_Riffo_unavailable }
			}
			
			
			traits = { ideology_C AM_Theoretical_Scientist }
		}
	# Augustin Edwards
		CHL_AM_Augustin_Edwards = {
			picture = Augustin_Edwards
			allowed = { tag = CHL }
			available = {
				date > 1942.1.1
				date < 1964.1.1
				C_Minister_Allowed = yes
				NOT = { has_country_flag = Augustin_Edwards_unavailable }
			}
			
			
			traits = { ideology_C AM_Air_Superiority_Proponent }
		}
}
#################################################
### Head of Intelligence
#################################################
	Head_of_Intelligence = {
	# Ariosto Herrera
		CHL_HoI_Ariosto_Herrera = {
			picture = Ariosto_Herrera
			allowed = { tag = CHL }
			available = {
				date > 1938.1.1
				date < 1964.1.1
				F_Minister_Allowed = yes
				NOT = { has_country_flag = Ariosto_Herrera_unavailable }
			}
			
			
			traits = { ideology_F HoI_Logistics_Specialist }
		}
	# Luis Altamirano Talavera
		CHL_HoI_Luis_Altamirano_Talavera = {
			picture = Luis_Altamirano_Talavera
			allowed = { tag = CHL }
			available = {
				date > 1920.1.1
				date < 1926.1.1
				A_Minister_Allowed = yes
				NOT = { has_country_flag = Luis_Altamirano_Talavera_unavailable }
			}
			
			
			traits = { ideology_A HoI_Technical_Specialist }
		}
	# Pietro Campos Valenzana
		CHL_HoI_Pietro_Campos_Valenzana = {
			picture = Pietro_Campos_Valenzana
			allowed = { tag = CHL }
			available = {
				date > 1944.1.1
				date < 1964.1.1
				A_Minister_Allowed = yes
				NOT = { has_country_flag = Pietro_Campos_Valenzana_unavailable }
			}
			
			
			traits = { ideology_A HoI_Industrial_Specialist }
		}
	# Jorge Boonen Rivera
		CHL_HoI_Jorge_Boonen_Rivera = {
			picture = Jorge_Boonen_Rivera
			allowed = { tag = CHL }
			available = {
				date > 1908.1.1
				date < 1923.1.1
				D_Minister_Allowed = yes
				NOT = { has_country_flag = Jorge_Boonen_Rivera_unavailable }
			}
			
			
			traits = { ideology_D HoI_Industrial_Specialist }
		}
	# Victor Larens Quijada
		CHL_HoI_Victor_Larens_Quijada = {
			picture = Victor_Larens_Quijada
			allowed = { tag = CHL }
			available = {
				date > 1942.1.1
				date < 1964.1.1
				D_Minister_Allowed = yes
				NOT = { has_country_flag = Victor_Larens_Quijada_unavailable }
			}
			
			
			traits = { ideology_D HoI_Naval_Intelligence_Specialist }
		}
	# Dario Cellejas Rojas
		CHL_HoI_Dario_Cellejas_Rojas = {
			picture = Dario_Cellejas_Rojas
			allowed = { tag = CHL }
			available = {
				date > 1946.1.1
				date < 1964.1.1
				D_Minister_Allowed = yes
				NOT = { has_country_flag = Dario_Cellejas_Rojas_unavailable }
			}
			
			
			traits = { ideology_D HoI_Logistics_Specialist }
		}
	# Julio Allard Pinto
		CHL_HoI_Julio_Allard_Pinto = {
			picture = Julio_Allard_Pinto
			allowed = { tag = CHL }
			available = {
				date > 1933.1.1
				date < 1964.1.1
				D_Minister_Allowed = yes
				NOT = { has_country_flag = Julio_Allard_Pinto_unavailable }
			}
			
			
			traits = { ideology_D HoI_Naval_Intelligence_Specialist }
		}
	# Carlos Fuentes Rabe
		CHL_HoI_Carlos_Fuentes_Rabe = {
			picture = Carlos_Fuentes_Rabe
			allowed = { tag = CHL }
			available = {
				date > 1938.1.1
				date < 1964.1.1
				D_Minister_Allowed = yes
				NOT = { has_country_flag = Carlos_Fuentes_Rabe_unavailable }
			}
			
			
			traits = { ideology_D HoI_Industrial_Specialist }
		}
	# Carlos Puga Monsalve
		CHL_HoI_Carlos_Puga_Monsalve = {
			picture = Carlos_Puga_Monsalve
			allowed = { tag = CHL }
			available = {
				date > 1940.1.1
				date < 1964.1.1
				D_Minister_Allowed = yes
				NOT = { has_country_flag = Carlos_Puga_Monsalve_unavailable }
			}
			
			
			traits = { ideology_D HoI_Technical_Specialist }
		}
	# Federico Claude
		CHL_HoI_Federico_Claude = {
			picture = Federico_Claude
			allowed = { tag = CHL }
			available = {
				date > 1943.1.1
				date < 1964.1.1
				D_Minister_Allowed = yes
				NOT = { has_country_flag = Federico_Claude_unavailable }
			}
			
			
			traits = { ideology_D HoI_Industrial_Specialist }
		}
	# Federico Escamante
		CHL_HoI_Federico_Escamante = {
			picture = Federico_Escamante
			allowed = { tag = CHL }
			available = {
				date > 1938.1.1
				date < 1964.1.1
				D_Minister_Allowed = yes
				NOT = { has_country_flag = Federico_Escamante_unavailable }
			}
			
			
			traits = { ideology_D HoI_Logistics_Specialist }
		}
	# Juan Rios Morales
		CHL_HoI_Juan_Rios_Morales = {
			picture = Juan_Rios_Morales
			allowed = { tag = CHL }
			available = {
				date > 1941.1.1
				date < 1964.1.1
				D_Minister_Allowed = yes
				NOT = { has_country_flag = Juan_Rios_Morales_unavailable }
			}
			
			
			traits = { ideology_D HoI_Dismal_Enigma }
		}
	# Eduardo Hillman
		CHL_HoI_Eduardo_Hillman = {
			picture = Eduardo_Hillman
			allowed = { tag = CHL }
			available = {
				date > 1942.1.1
				date < 1964.1.1
				D_Minister_Allowed = yes
				NOT = { has_country_flag = Eduardo_Hillman_unavailable }
			}
			
			
			traits = { ideology_D HoI_Naval_Intelligence_Specialist }
		}
	# Salvador Allende
		CHL_HoI_Salvador_Allende = {
			picture = Salvador_Allende
			allowed = { tag = CHL }
			available = {
				date > 1943.1.1
				date < 1964.1.1
				D_Minister_Allowed = yes
				NOT = { has_country_flag = Salvador_Allende_unavailable }
			}
			
			
			traits = { ideology_D HoI_Industrial_Specialist }
		}
	# Dario Mujica Gamboa
		CHL_HoI_Dario_Mujica_Gamboa = {
			picture = Dario_Mujica_Gamboa
			allowed = { tag = CHL }
			available = {
				date > 1946.1.1
				date < 1964.1.1
				D_Minister_Allowed = yes
				NOT = { has_country_flag = Dario_Mujica_Gamboa_unavailable }
			}
			
			
			traits = { ideology_D HoI_Technical_Specialist }
		}
	# Julio Allard Pinto
		CHL_HoI_Julio_Allard_Pinto_2 = {
			picture = Julio_Allard_Pinto_2
			allowed = { tag = CHL }
			available = {
				date > 1938.1.1
				date < 1964.1.1
				C_Minister_Allowed = yes
				NOT = { has_country_flag = Julio_Allard_Pinto_unavailable }
			}
			
			
			traits = { ideology_C HoI_Political_Specialist }
		}
}
#################################################
### Chief of Staff
#################################################
	Chief_of_Staff = {
	# Diaz Valderrama
		CHL_CoStaff_Diaz_Valderrama = {
			picture = Diaz_Valderrama
			allowed = { tag = CHL }
			available = {
				date > 1938.1.1
				date < 1964.1.1
				F_Minister_Allowed = yes
				NOT = { has_country_flag = Diaz_Valderrama_unavailable }
			}
			
			
			traits = { ideology_F CoStaff_School_Of_Defence }
		}
	# Luis Altamirano Talavera
		CHL_CoStaff_Luis_Altamirano_Talavera = {
			picture = Luis_Altamirano_Talavera
			allowed = { tag = CHL }
			available = {
				date > 1920.1.1
				date < 1926.1.1
				A_Minister_Allowed = yes
				NOT = { has_country_flag = Luis_Altamirano_Talavera_unavailable }
			}
			
			
			traits = { ideology_A CoStaff_School_Of_Psychology }
		}
	# Pedro Pablo Dartnell
		CHL_CoStaff_Pedro_Pablo_Dartnell = {
			picture = Pedro_Pablo_Dartnell
			allowed = { tag = CHL }
			available = {
				date > 1922.1.1
				date < 1927.1.1
				A_Minister_Allowed = yes
				NOT = { has_country_flag = Pedro_Pablo_Dartnell_unavailable }
			}
			
			
			traits = { ideology_A CoStaff_School_Of_Mass_Combat }
		}
	# E. Novoa Fuentes
		CHL_CoStaff_E_Novoa_Fuentes = {
			picture = E_Novoa_Fuentes
			allowed = { tag = CHL }
			available = {
				date > 1942.1.1
				date < 1964.1.1
				A_Minister_Allowed = yes
				NOT = { has_country_flag = E_Novoa_Fuentes_unavailable }
			}
			
			
			traits = { ideology_A CoStaff_School_Of_Defence }
		}
	# Emilio Körner Henze
		CHL_CoStaff_Emilio_Korner_Henze = {
			picture = Emilio_Korner_Henze
			allowed = { tag = CHL }
			available = {
				date > 1900.1.1
				date < 1910.1.1
				D_Minister_Allowed = yes
				NOT = { has_country_flag = Emilio_Korner_Henze_unavailable }
			}
			
			
			traits = { ideology_D CoStaff_School_Of_Fire_Support }
		}
	# Jorge Boonen Rivera
		CHL_CoStaff_Jorge_Boonen_Rivera = {
			picture = Jorge_Boonen_Rivera
			allowed = { tag = CHL }
			available = {
				date > 1908.1.1
				date < 1923.1.1
				D_Minister_Allowed = yes
				NOT = { has_country_flag = Jorge_Boonen_Rivera_unavailable }
			}
			
			
			traits = { ideology_D CoStaff_School_Of_Manoeuvre }
		}
	# Arístides Pinto Concha
		CHL_CoStaff_Aristides_Pinto_Concha = {
			picture = Aristides_Pinto_Concha
			allowed = { tag = CHL }
			available = {
				date > 1918.1.1
				date < 1922.1.1
				D_Minister_Allowed = yes
				NOT = { has_country_flag = Aristides_Pinto_Concha_unavailable }
			}
			
			
			traits = { ideology_D CoStaff_School_Of_Defence }
		}
	# Dario Cellejas Rojas
		CHL_CoStaff_Dario_Cellejas_Rojas = {
			picture = Dario_Cellejas_Rojas
			allowed = { tag = CHL }
			available = {
				date > 1942.1.1
				date < 1964.1.1
				D_Minister_Allowed = yes
				NOT = { has_country_flag = Dario_Cellejas_Rojas_unavailable }
			}
			
			
			traits = { ideology_D CoStaff_School_Of_Psychology }
		}
	# Raul Array Stiglich
		CHL_CoStaff_Raul_Array_Stiglich = {
			picture = Raul_Array_Stiglich
			allowed = { tag = CHL }
			available = {
				date > 1944.1.1
				date < 1964.1.1
				D_Minister_Allowed = yes
				NOT = { has_country_flag = Raul_Array_Stiglich_unavailable }
			}
			
			
			traits = { ideology_D CoStaff_School_Of_Manoeuvre }
		}
	# Arturo Espinoza Mujica
		CHL_CoStaff_Arturo_Espinoza_Mujica = {
			picture = Arturo_Espinoza_Mujica
			allowed = { tag = CHL }
			available = {
				date > 1945.1.1
				date < 1964.1.1
				D_Minister_Allowed = yes
				NOT = { has_country_flag = Arturo_Espinoza_Mujica_unavailable }
			}
			
			
			traits = { ideology_D CoStaff_School_Of_Fire_Support }
		}
	# Luis Vidal Vargas
		CHL_CoStaff_Luis_Vidal_Vargas = {
			picture = Luis_Vidal_Vargas
			allowed = { tag = CHL }
			available = {
				date > 1946.1.1
				date < 1964.1.1
				D_Minister_Allowed = yes
				NOT = { has_country_flag = Luis_Vidal_Vargas_unavailable }
			}
			
			
			traits = { ideology_D CoStaff_School_Of_Fire_Support }
		}
	# Carlos Jouanne de la Motte
		CHL_CoStaff_Carlos_Jouanne_de_la_Motte = {
			picture = Carlos_Jouanne_de_la_Motte
			allowed = { tag = CHL }
			available = {
				date > 1927.1.1
				date < 1946.1.1
				D_Minister_Allowed = yes
				NOT = { has_country_flag = Carlos_Jouanne_de_la_Motte_unavailable }
			}
			
			
			traits = { ideology_D CoStaff_School_Of_Fire_Support }
		}
	# Carlos Puga Monsalve
		CHL_CoStaff_Carlos_Puga_Monsalve = {
			picture = Carlos_Puga_Monsalve
			allowed = { tag = CHL }
			available = {
				date > 1938.1.1
				date < 1964.1.1
				D_Minister_Allowed = yes
				NOT = { has_country_flag = Carlos_Puga_Monsalve_unavailable }
			}
			
			
			traits = { ideology_D CoStaff_School_Of_Mass_Combat }
		}
	# Ernesto M. Orlando
		CHL_CoStaff_Ernesto_M_Orlando = {
			picture = Ernesto_M_Orlando
			allowed = { tag = CHL }
			available = {
				date > 1938.1.1
				date < 1964.1.1
				D_Minister_Allowed = yes
				NOT = { has_country_flag = Ernesto_M_Orlando_unavailable }
			}
			
			
			traits = { ideology_D CoStaff_School_Of_Mass_Combat }
		}
	# Gustavo Silva
		CHL_CoStaff_Gustavo_Silva = {
			picture = Gustavo_Silva
			allowed = { tag = CHL }
			available = {
				date > 1938.1.1
				date < 1964.1.1
				C_Minister_Allowed = yes
				NOT = { has_country_flag = Gustavo_Silva_unavailable }
			}
			
			
			traits = { ideology_C CoStaff_School_Of_Manoeuvre }
		}
}
#################################################
### Chief of Army
#################################################
	Chief_of_Army = {
	# Diaz Valderrama
		CHL_CoArmy_Diaz_Valderrama = {
			picture = Diaz_Valderrama
			allowed = { tag = CHL }
			available = {
				date > 1938.1.1
				date < 1964.1.1
				F_Minister_Allowed = yes
				NOT = { has_country_flag = Diaz_Valderrama_unavailable }
			}
			
			
			traits = { ideology_F CoArmy_Static_Defence_Doctrine }
		}
	# Luis Altamirano Talavera
		CHL_CoArmy_Luis_Altamirano_Talavera = {
			picture = Luis_Altamirano_Talavera
			allowed = { tag = CHL }
			available = {
				date > 1920.1.1
				date < 1926.1.1
				A_Minister_Allowed = yes
				NOT = { has_country_flag = Luis_Altamirano_Talavera_unavailable }
			}
			
			
			traits = { ideology_A CoArmy_Static_Defence_Doctrine }
		}
	# Pedro Pablo Dartnell
		CHL_CoArmy_Pedro_Pablo_Dartnell = {
			picture = Pedro_Pablo_Dartnell
			allowed = { tag = CHL }
			available = {
				date > 1922.1.1
				date < 1927.1.1
				A_Minister_Allowed = yes
				NOT = { has_country_flag = Pedro_Pablo_Dartnell_unavailable }
			}
			
			
			traits = { ideology_A CoArmy_Elastic_Defence_Doctrine }
		}
	# Rafael Fernandez Reyes
		CHL_CoArmy_Rafael_Fernandez_Reyes = {
			picture = Rafael_Fernandez_Reyes
			allowed = { tag = CHL }
			available = {
				date > 1942.1.1
				date < 1964.1.1
				A_Minister_Allowed = yes
				NOT = { has_country_flag = Rafael_Fernandez_Reyes_unavailable }
			}
			
			
			traits = { ideology_A CoArmy_Elastic_Defence_Doctrine }
		}
	# Emilio Körner Henze
		CHL_CoArmy_Emilio_Korner_Henze = {
			picture = Emilio_Korner_Henze
			allowed = { tag = CHL }
			available = {
				date > 1898.1.1
				date < 1910.1.1
				D_Minister_Allowed = yes
				NOT = { has_country_flag = Emilio_Korner_Henze_unavailable }
			}
			
			
			traits = { ideology_D CoArmy_Guns_And_Butter_Doctrine }
		}
	# Jorge Boonen Rivera
		CHL_CoArmy_Jorge_Boonen_Rivera = {
			picture = Jorge_Boonen_Rivera
			allowed = { tag = CHL }
			available = {
				date > 1908.1.1
				date < 1923.1.1
				D_Minister_Allowed = yes
				NOT = { has_country_flag = Jorge_Boonen_Rivera_unavailable }
			}
			
			
			traits = { ideology_D CoArmy_Armoured_Spearhead_Doctrine }
		}
	# Arístides Pinto Concha
		CHL_CoArmy_Aristides_Pinto_Concha = {
			picture = Aristides_Pinto_Concha
			allowed = { tag = CHL }
			available = {
				date > 1919.1.1
				date < 1922.1.1
				D_Minister_Allowed = yes
				NOT = { has_country_flag = Aristides_Pinto_Concha_unavailable }
			}
			
			
			traits = { ideology_D CoArmy_Decisive_Battle_Doctrine }
		}
	# Arturo Espinoza Mujica
		CHL_CoArmy_Arturo_Espinoza_Mujica = {
			picture = Arturo_Espinoza_Mujica
			allowed = { tag = CHL }
			available = {
				date > 1943.1.1
				date < 1964.1.1
				D_Minister_Allowed = yes
				NOT = { has_country_flag = Arturo_Espinoza_Mujica_unavailable }
			}
			
			
			traits = { ideology_D CoArmy_Static_Defence_Doctrine }
		}
	# Oscar Izurieta Molina
		CHL_CoArmy_Oscar_Izurieta_Molina = {
			picture = Oscar_Izurieta_Molina
			allowed = { tag = CHL }
			available = {
				date > 1946.1.1
				date < 1964.1.1
				D_Minister_Allowed = yes
				NOT = { has_country_flag = Oscar_Izurieta_Molina_unavailable }
			}
			
			
			traits = { ideology_D CoArmy_Guns_And_Butter_Doctrine }
		}
	# E. Novoa Fuentes
		CHL_CoArmy_E_Novoa_Fuentes = {
			picture = E_Novoa_Fuentes
			allowed = { tag = CHL }
			available = {
				date > 1933.1.1
				date < 1964.1.1
				D_Minister_Allowed = yes
				NOT = { has_country_flag = E_Novoa_Fuentes_unavailable }
			}
			
			
			traits = { ideology_D CoArmy_Static_Defence_Doctrine }
		}
	# Carlos Fuentes Rabe
		CHL_CoArmy_Carlos_Fuentes_Rabe = {
			picture = Carlos_Fuentes_Rabe
			allowed = { tag = CHL }
			available = {
				date > 1938.1.1
				date < 1964.1.1
				D_Minister_Allowed = yes
				NOT = { has_country_flag = Carlos_Fuentes_Rabe_unavailable }
			}
			
			
			traits = { ideology_D CoArmy_Decisive_Battle_Doctrine }
		}
	# Luis Otero Mujica
		CHL_CoArmy_Luis_Otero_Mujica = {
			picture = Luis_Otero_Mujica
			allowed = { tag = CHL }
			available = {
				date > 1938.1.1
				date < 1964.1.1
				D_Minister_Allowed = yes
				NOT = { has_country_flag = Luis_Otero_Mujica_unavailable }
			}
			
			
			traits = { ideology_D CoArmy_Armoured_Spearhead_Doctrine }
		}
	# Salvador Arron Galvéz
		CHL_CoArmy_Salvador_Arron_Galvez = {
			picture = Salvador_Arron_Galvez
			allowed = { tag = CHL }
			available = {
				date > 1944.1.1
				date < 1964.1.1
				D_Minister_Allowed = yes
				NOT = { has_country_flag = Salvador_Arron_Galvez_unavailable }
			}
			
			
			traits = { ideology_D CoArmy_Guns_And_Butter_Doctrine }
		}
	# Julio Allard Pinto
		CHL_CoArmy_Julio_Allard_Pinto = {
			picture = Julio_Allard_Pinto
			allowed = { tag = CHL }
			available = {
				date > 1938.1.1
				date < 1964.1.1
				C_Minister_Allowed = yes
				NOT = { has_country_flag = Julio_Allard_Pinto_unavailable }
			}
			
			
			traits = { ideology_C CoArmy_Elastic_Defence_Doctrine }
		}
}
#################################################
### Chief of Navy
#################################################
	Chief_of_Navy = {
	# Hernan Sarratea
		CHL_CoNavy_Hernan_Sarratea = {
			picture = Hernan_Sarratea
			allowed = { tag = CHL }
			available = {
				date > 1938.1.1
				date < 1964.1.1
				F_Minister_Allowed = yes
				NOT = { has_country_flag = Hernan_Sarratea_unavailable }
			}
			
			
			traits = { ideology_F CoNavy_Decisive_Naval_Battle_Doctrine }
		}
	# Salustio Valdés Cortés
		CHL_CoNavy_Salustio_Valdes_Cortes = {
			picture = Salustio_Valdes_Cortes
			allowed = { tag = CHL }
			available = {
				date > 1922.1.1
				date < 1927.1.1
				A_Minister_Allowed = yes
				NOT = { has_country_flag = Salustio_Valdes_Cortes_unavailable }
			}
			
			
			traits = { ideology_A CoNavy_Open_Seas_Doctrine }
		}
	# Jorge Montt Álvarez
		CHL_CoNavy_Jorge_Montt_Alvarez = {
			picture = Jorge_Montt_Alvarez
			allowed = { tag = CHL }
			available = {
				date > 1895.1.1
				date < 1915.1.1
				D_Minister_Allowed = yes
				NOT = { has_country_flag = Jorge_Montt_Alvarez_unavailable }
			}
			
			
			traits = { ideology_D CoNavy_Base_Control_Doctrine }
		}
	# Luis Alberto Goñi Simpson
		CHL_CoNavy_Luis_Alberto_Goni_Simpson = {
			picture = Luis_Alberto_Goni_Simpson
			allowed = { tag = CHL }
			available = {
				date > 1911.1.1
				date < 1918.1.1
				D_Minister_Allowed = yes
				NOT = { has_country_flag = Luis_Alberto_Goni_Simpson_unavailable }
			}
			
			
			traits = { ideology_D CoNavy_Open_Seas_Doctrine }
		}
	# Lindor Pérez Gacitúa
		CHL_CoNavy_Lindor_Perez_Gacitua = {
			picture = Lindor_Perez_Gacitua
			allowed = { tag = CHL }
			available = {
				date > 1914.1.1
				date < 1918.1.1
				D_Minister_Allowed = yes
				NOT = { has_country_flag = Lindor_Perez_Gacitua_unavailable }
			}
			
			
			traits = { ideology_D CoNavy_Decisive_Naval_Battle_Doctrine }
		}
	# Joaquín Muñoz Hurtado
		CHL_CoNavy_Joaquin_Munoz_Hurtado = {
			picture = Joaquin_Munoz_Hurtado
			allowed = { tag = CHL }
			available = {
				date > 1914.1.1
				date < 1924.1.1
				D_Minister_Allowed = yes
				NOT = { has_country_flag = Joaquin_Munoz_Hurtado_unavailable }
			}
			
			
			traits = { ideology_D CoNavy_Power_Projection_Doctrine }
		}
	# Guillermo Soublette Garín
		CHL_CoNavy_Guillermo_Soublette_Garin = {
			picture = Guillermo_Soublette_Garin
			allowed = { tag = CHL }
			available = {
				date > 1920.1.1
				date < 1924.1.1
				D_Minister_Allowed = yes
				NOT = { has_country_flag = Guillermo_Soublette_Garin_unavailable }
			}
			
			
			traits = { ideology_D CoNavy_Indirect_Approach_Doctrine }
		}
	# Francisco Nef Jara
		CHL_CoNavy_Francisco_Nef_Jara = {
			picture = Francisco_Nef_Jara
			allowed = { tag = CHL }
			available = {
				date > 1920.1.1
				date < 1926.1.1
				D_Minister_Allowed = yes
				NOT = { has_country_flag = Francisco_Nef_Jara_unavailable }
			}
			
			
			traits = { ideology_D CoNavy_Base_Control_Doctrine }
		}
	# Gaston Kulzcewski Garcia
		CHL_CoNavy_Gaston_Kulzcewski_Garcia = {
			picture = Gaston_Kulzcewski_Garcia
			allowed = { tag = CHL }
			available = {
				date > 1946.1.1
				date < 1964.1.1
				D_Minister_Allowed = yes
				NOT = { has_country_flag = Gaston_Kulzcewski_Garcia_unavailable }
			}
			
			
			traits = { ideology_D CoNavy_Base_Control_Doctrine }
		}
	# Carlos Jouanne de la Motte
		CHL_CoNavy_Carlos_Jouanne_de_la_Motte = {
			picture = Carlos_Jouanne_de_la_Motte
			allowed = { tag = CHL }
			available = {
				date > 1927.1.1
				date < 1946.1.1
				D_Minister_Allowed = yes
				NOT = { has_country_flag = Carlos_Jouanne_de_la_Motte_unavailable }
			}
			
			
			traits = { ideology_D CoNavy_Open_Seas_Doctrine }
		}
	# Francisco ORyan Orrego
		CHL_CoNavy_Francisco_ORyan_Orrego = {
			picture = Francisco_ORyan_Orrego
			allowed = { tag = CHL }
			available = {
				date > 1938.1.1
				date < 1964.1.1
				D_Minister_Allowed = yes
				NOT = { has_country_flag = Francisco_ORyan_Orrego_unavailable }
			}
			
			
			traits = { ideology_D CoNavy_Decisive_Naval_Battle_Doctrine }
		}
	# Juan Rodriguez
		CHL_CoNavy_Juan_Rodriguez = {
			picture = Juan_Rodriguez
			allowed = { tag = CHL }
			available = {
				date > 1938.1.1
				date < 1964.1.1
				D_Minister_Allowed = yes
				NOT = { has_country_flag = Juan_Rodriguez_unavailable }
			}
			
			
			traits = { ideology_D CoNavy_Open_Seas_Doctrine }
		}
	# Julio Gerken Mahn
		CHL_CoNavy_Julio_Gerken_Mahn = {
			picture = Julio_Gerken_Mahn
			allowed = { tag = CHL }
			available = {
				date > 1944.1.1
				date < 1964.1.1
				D_Minister_Allowed = yes
				NOT = { has_country_flag = Julio_Gerken_Mahn_unavailable }
			}
			
			
			traits = { ideology_D CoNavy_Power_Projection_Doctrine }
		}
	# Gustavo Silva
		CHL_CoNavy_Gustavo_Silva = {
			picture = Gustavo_Silva
			allowed = { tag = CHL }
			available = {
				date > 1938.1.1
				date < 1964.1.1
				C_Minister_Allowed = yes
				NOT = { has_country_flag = Gustavo_Silva_unavailable }
			}
			
			
			traits = { ideology_C CoNavy_Indirect_Approach_Doctrine }
		}
}
#################################################
### Chief of Airforce
#################################################
	Chief_of_Airforce = {
	# Ariosto Herrera
		CHL_CoAir_Ariosto_Herrera = {
			picture = Ariosto_Herrera
			allowed = { tag = CHL }
			available = {
				date > 1938.1.1
				date < 1964.1.1
				F_Minister_Allowed = yes
				NOT = { has_country_flag = Ariosto_Herrera_unavailable }
			}
			
			
			traits = { ideology_F CoAir_Air_Superiority_Doctrine }
		}
	# Pedro Pablo Dartnell
		CHL_CoAir_Pedro_Pablo_Dartnell = {
			picture = Pedro_Pablo_Dartnell
			allowed = { tag = CHL }
			available = {
				date > 1913.1.1
				date < 1927.1.1
				A_Minister_Allowed = yes
				NOT = { has_country_flag = Pedro_Pablo_Dartnell_unavailable }
			}
			
			
			traits = { ideology_A CoAir_Air_Superiority_Doctrine }
		}
	# Arístides Pinto Concha
		CHL_CoAir_Aristides_Pinto_Concha = {
			picture = Aristides_Pinto_Concha
			allowed = { tag = CHL }
			available = {
				date > 1913.1.1
				date < 1922.1.1
				D_Minister_Allowed = yes
				NOT = { has_country_flag = Aristides_Pinto_Concha_unavailable }
			}
			
			
			traits = { ideology_D CoAir_Army_Aviation_Doctrine }
		}
	# Juan Ortiz Vega
		CHL_CoAir_Juan_Ortiz_Vega = {
			picture = Juan_Ortiz_Vega
			allowed = { tag = CHL }
			available = {
				date > 1923.1.1
				date < 1925.1.1
				D_Minister_Allowed = yes
				NOT = { has_country_flag = Juan_Ortiz_Vega_unavailable }
			}
			
			
			traits = { ideology_D CoAir_Carpet_Bombing_Doctrine }
		}
	# Ismael Sarazua Teran
		CHL_CoAir_Ismael_Sarazua_Teran = {
			picture = Ismael_Sarazua_Teran
			allowed = { tag = CHL }
			available = {
				date > 1942.1.1
				date < 1964.1.1
				D_Minister_Allowed = yes
				NOT = { has_country_flag = Ismael_Sarazua_Teran_unavailable }
			}
			
			
			traits = { ideology_D CoAir_Vertical_Envelopment_Doctrine }
		}
	# Manuel Tovarias
		CHL_CoAir_Manuel_Tovarias = {
			picture = Manuel_Tovarias
			allowed = { tag = CHL }
			available = {
				date > 1946.1.1
				date < 1964.1.1
				D_Minister_Allowed = yes
				NOT = { has_country_flag = Manuel_Tovarias_unavailable }
			}
			
			
			traits = { ideology_D CoAir_Army_Aviation_Doctrine }
		}
	# Dario Mujica Gamboa
		CHL_CoAir_Dario_Mujica_Gamboa = {
			picture = Dario_Mujica_Gamboa
			allowed = { tag = CHL }
			available = {
				date > 1933.1.1
				date < 1964.1.1
				D_Minister_Allowed = yes
				NOT = { has_country_flag = Dario_Mujica_Gamboa_unavailable }
			}
			
			
			traits = { ideology_D CoAir_Air_Superiority_Doctrine }
		}
	# José Luis Sánchez Besa
		CHL_CoAir_Jose_Luis_Sanchez_Besa = {
			picture = Jose_Luis_Sanchez_Besa
			allowed = { tag = CHL }
			available = {
				date > 1937.1.1
				date < 1964.1.1
				D_Minister_Allowed = yes
				NOT = { has_country_flag = Jose_Luis_Sanchez_Besa_unavailable }
			}
			
			
			traits = { ideology_D CoAir_Carpet_Bombing_Doctrine }
		}
	# Raúl Gonzalez Nolle
		CHL_CoAir_Raul_Gonzalez_Nolle = {
			picture = Raul_Gonzalez_Nolle
			allowed = { tag = CHL }
			available = {
				date > 1946.1.1
				date < 1964.1.1
				D_Minister_Allowed = yes
				NOT = { has_country_flag = Raul_Gonzalez_Nolle_unavailable }
			}
			
			
			traits = { ideology_D CoAir_Army_Aviation_Doctrine }
		}
	# Diego Aracena
		CHL_CoAir_Diego_Aracena = {
			picture = Diego_Aracena
			allowed = { tag = CHL }
			available = {
				date > 1938.1.1
				date < 1964.1.1
				D_Minister_Allowed = yes
				NOT = { has_country_flag = Diego_Aracena_unavailable }
			}
			
			
			traits = { ideology_D CoAir_Air_Superiority_Doctrine }
		}
	# Gustavo Silva
		CHL_CoAir_Gustavo_Silva = {
			picture = Gustavo_Silva
			allowed = { tag = CHL }
			available = {
				date > 1945.1.1
				date < 1964.1.1
				S_Minister_Allowed = yes
				NOT = { has_country_flag = Gustavo_Silva_unavailable }
			}
			
			
			traits = { ideology_S CoAir_Army_Aviation_Doctrine }
		}
	# Marmaduke Grove
		CHL_CoAir_Marmaduke_Grove = {
			picture = Marmaduke_Grove
			allowed = { tag = CHL }
			available = {
				date > 1938.1.1
				date < 1964.1.1
				C_Minister_Allowed = yes
				NOT = { has_country_flag = Marmaduke_Grove_unavailable }
			}
			
			
			traits = { ideology_C CoAir_Naval_Aviation_Doctrine }
		}
	}
}
