ideas = {
	#################################################
	### Head of Government
	#################################################
	Head_of_Government = {
		# Wang Jingwei
		FUJ_HoG_Cai_Tingkai = {
			picture = Cai_Tingkai
			allowed = { tag  = FUJ }
			visible = {
				date > 1905.1.1
				date < 1945.1.1
				S_Minister_Allowed = yes
				NOT = { has_country_flag = Cai_Tingkai_unavailable }
			}
			
			
			traits = { ideology_S POSITION_Military_Governor }
		}
	}
	#################################################
	### Foreign Minister
	#################################################
	Foreign_Minister = {
		# Chen Youren
		FUJ_FM_Chen_Youren = {
			picture = Chen_Youren
			allowed = { tag = FUJ }
			visible = {
				date > 1922.1.1
				date < 1935.1.1
				S_Minister_Allowed = yes
				NOT = { has_country_flag = Chen_Youren_unavailable }
			}
			
			
			traits = { ideology_S FM_Iron_Fisted_Brute }
		}
	}
	#################################################
	### Armaments Minister
	#################################################
	Armaments_Minister = {
		# Chen Guofu
		FUJ_AM_Jiang_Guangnai = {
			picture = Jiang_Guangnai
			allowed = { tag = FUJ }
			visible = {
				date > 1914.1.1
				date < 1952.1.1
				S_Minister_Allowed = yes
				NOT = { has_country_flag = Jiang_Guangnai_unavailable }
			}
			
			
			traits = { ideology_S }
		}
	}
	#################################################
	### Chief of Staff
	#################################################
	Chief_of_Staff = {
		# He Yingqin
		FUJ_CoStaff_Cai_Tingkai = {
			picture = Cai_Tingkai
			allowed = { tag = FUJ }
			visible = {
				date > 1911.1.1
				date < 1956.1.1
				S_Minister_Allowed = yes
				NOT = { has_country_flag = Cai_Tingkai_unavailable }
			}
			
			
			traits = { ideology_S }
		}
	}
}