ideas = {
#########################################################################
#  National Spirits
#########################################################################
	country = {
		#### Radical Pan-Germanism
		GER_Radical_Pan_Germanism_idea = {
			picture = GER_Pan_Germanism
			allowed = {
				always = no
			}
			removal_cost = -1
			modifier = {
				war_support_factor = 0.05
				army_core_defence_factor = 0.10
			}
		}
		#### Germany Identity
		GER_Ethnic_Nationalism_idea = {
			picture = GER_Pan_Germanism
			allowed = {
				always = no
			}
			removal_cost = -1
			modifier = {
				conscription_factor = 0.10
			}
		}
		#### Germany Identity 2
		GER_Collective_Values_idea = {
			picture = GER_Pan_Germanism
			allowed = {
				always = no
			}
			removal_cost = -1
			modifier = {
				conscription_factor = 0.10
				stability_factor = 0.05
				MONTHLY_POPULATION = 2
			}
		}
		#### A True Revolution
		GER_A_Workers_Revolution_idea = {
			picture = GER_True_Revolution
			allowed = {
				always = no
			}
			removal_cost = -1
			modifier = {
				consumer_goods_factor = -0.05
			}
		}
		#### A True Revolution
		GER_Socialist_Culture_idea = {
			picture = GER_True_Revolution
			allowed = {
				always = no
			}
			removal_cost = -1
			modifier = {
				consumer_goods_factor = -0.05
				industrial_capacity_factory = 0.05
			}
		}
		#### Abrupt Nationalization 1
		GER_Abrupt_Nationalization_1 = {
			picture = generic_intel_bonus
			allowed = {
				always = no
			}
			removal_cost = -1
			modifier = {
				consumer_goods_factor = 0.10
				stability_factor = -0.10
			}
		}
		#### Abrupt Nationalization 2
		GER_Abrupt_Nationalization_2 = {
			picture = generic_intel_bonus
			allowed = {
				always = no
			}
			removal_cost = -1
			modifier = {
				consumer_goods_factor = 0.10
				stability_factor = -0.10
				political_power_gain = 0.02
				production_speed_buildings_factor = 0.10
			}
		}
		#### Abrupt Nationalization 3
		GER_Abrupt_Nationalization_3 = {
			picture = generic_intel_bonus
			allowed = {
				always = no
			}
			removal_cost = -1
			modifier = {
				consumer_goods_factor = 0.05
				stability_factor = -0.10
				political_power_gain = 0.04
				production_speed_buildings_factor = 0.10
			}
		}
		#### Abrupt Nationalization 4
		GER_Abrupt_Nationalization_4 = {
			picture = generic_intel_bonus
			allowed = {
				always = no
			}
			removal_cost = -1
			modifier = {
				consumer_goods_factor = 0.05
				stability_factor = -0.10
				political_power_gain = 0.04
				production_speed_buildings_factor = 0.10
				research_speed_factor = -0.05
			}
		}
		#### Mass Unemployment 2
		GER_Dethrone_German_Elites_Mass_unemploymnet_idea = {
			picture = GER_Unemployment_Focus
			allowed = {
				always = no
			}
			removal_cost = -1
			modifier = {
				production_speed_buildings_factor = -0.15
				consumer_goods_factor = 0.05
			}
		}
		#### Labor Crisis
		GER_Convert_the_Arbeitsfront_idea = {
			picture = GER_DAF
			allowed = {
				always = no
			}
			removal_cost = -1
			modifier = {
				industrial_capacity_factory = -0.10
			}
		}
		#### Reichgenossenschaft
		GER_Construct_the_Reichgenossenschaft_idea = {
			picture = idea_generic_foreign_capital
			allowed = {
				always = no
			}
			removal_cost = -1
			modifier = {
				industrial_capacity_factory = 0.05
				production_speed_buildings_factor = 0.05
				stability_factor = 0.10
			}
		}
		#### The Great Depression 2
		GER_Eliminate_Capitalist_Organizations_idea = {
			picture = GER_Civil_Repression
			allowed = {
				always = no
			}
			removal_cost = -1
			modifier = {
				consumer_goods_factor = 0.2
			}
		}
		#### Strasserist Economics
		GER_A_Social_Revolution_idea = {
			picture = GER_Civil_Repression
			allowed = {
				always = no
			}
			removal_cost = -1
			modifier = {
				consumer_goods_factor = -0.05
				stability_factor = -0.10
				political_power_gain = -0.02
				production_speed_buildings_factor = 0.10
				research_speed_factor = -0.05
			}
		}
		#### Kreigwohlfahrt
		GER_Kreigwohlfahrt_idea = {
			picture = GER_Civil_Repression
			allowed = {
				always = no
			}
			removal_cost = -1
			modifier = {
				consumer_goods_factor = 0.08
			}
		}
		#### Local Combat Leagues
		GER_Formalize_Combat_Leagues_idea = {
			picture = GER_Civil_Repression
			allowed = {
				always = no
			}
			removal_cost = -1
			modifier = {
				industrial_capacity_factory = 0.05
				army_morale_factor = 0.10
			}
		}
		#### Energy Austerity
		GER_Institue_Energy_Austerity_idea = {
			picture = GER_Civil_Repression
			allowed = {
				always = no
			}
			removal_cost = -1
			modifier = {
				industrial_capacity_factory = 0.05
				army_morale_factor = 0.10
			}
		}
		#### Anti-Soviet Policy
		GER_Strasserist_anti_soviet_policy = {
			picture = GER_Civil_Repression
			allowed = {
				always = no
			}
			removal_cost = -1
			modifier = {
				communist_acceptance = -10
				war_support_factor = 0.05
			}
		}
	}
}
