ideas = {
#################################################
### Head of Government
#################################################
	Head_of_Government = {
	# Adolfo Díaz
		NIC_HoG_Adolfo_Diaz = {
			picture = Adolfo_Diaz
			allowed = { tag = NIC }
			available = {
				date > 1911.1.1
				date < 1933.1.1
				A_Minister_Allowed = yes
				NOT = { has_country_flag = Adolfo_Diaz_unavailable }
			}
			
			
			traits = { ideology_A HoG_Political_Protege }
		}
	# Emiliano Chamorro Vargas
		NIC_HoG_Emiliano_Chamorro_Vargas = {
			picture = Emiliano_Chamorro_Vargas
			allowed = { tag = NIC }
			available = {
				date > 1917.1.1
				date < 1933.1.1
				A_Minister_Allowed = yes
				NOT = { has_country_flag = Emiliano_Chamorro_Vargas_unavailable }
			}
			
			
			traits = { ideology_A HoG_Backroom_Backstabber }
		}
	# Diego Manuel Chamorro Bolaños
		NIC_HoG_Diego_Manuel_Chamorro_Bolanos = {
			picture = Diego_Manuel_Chamorro_Bolanos
			allowed = { tag = NIC }
			available = {
				date > 1921.1.1
				date < 1933.1.1
				A_Minister_Allowed = yes
				NOT = { has_country_flag = Diego_Manuel_Chamorro_Bolanos_unavailable }
			}
			
			
			traits = { ideology_A HoG_Flamboyant_Tough_Guy }
		}
	# Rosendo Chamorro Vargas
		NIC_HoG_Rosendo_Chamorro_Vargas = {
			picture = Rosendo_Chamorro_Vargas
			allowed = { tag = NIC }
			available = {
				date > 1923.1.1
				date < 1933.1.1
				A_Minister_Allowed = yes
				NOT = { has_country_flag = Rosendo_Chamorro_Vargas_unavailable }
			}
			
			
			traits = { ideology_A HoG_Happy_Amateur }
		}
	# Anastacio G. Somoza
		NIC_HoG_Anastacio_G_Somoza = {
			picture = Anastacio_G_Somoza
			allowed = { tag = NIC }
			available = {
				date > 1933.1.1
				date < 1964.1.1
				A_Minister_Allowed = yes
				NOT = { has_country_flag = Anastacio_G_Somoza_unavailable }
			}
			
			
			traits = { ideology_A HoG_Flamboyant_Tough_Guy }
		}
	# Anastacio G. Somoza
		NIC_HoG_Anastacio_G_Somoza_2 = {
			picture = Anastacio_G_Somoza_2
			allowed = { tag = NIC }
			available = {
				date > 1947.1.1
				date < 1964.1.1
				A_Minister_Allowed = yes
				NOT = { has_country_flag = Anastacio_G_Somoza_unavailable }
			}
			
			
			traits = { ideology_A HoG_Old_General }
		}
	# Luis Somoza Debayle
		NIC_HoG_Luis_Somoza_Debayle = {
			picture = Luis_Somoza_Debayle
			allowed = { tag = NIC }
			available = {
				date > 1956.1.1
				date < 1968.1.1
				A_Minister_Allowed = yes
				NOT = { has_country_flag = Luis_Somoza_Debayle_unavailable }
			}
			
			
			traits = { ideology_A HoG_Old_Admiral }
		}
	# Lorenzo Guerrero Gutiérrez
		NIC_HoG_Lorenzo_Guerrero_Gutierrez = {
			picture = Lorenzo_Guerrero_Gutierrez
			allowed = { tag = NIC }
			available = {
				date > 1963.1.1
				date < 1982.1.1
				A_Minister_Allowed = yes
				NOT = { has_country_flag = Lorenzo_Guerrero_Gutierrez_unavailable }
			}
			
			
			traits = { ideology_A HoG_Naive_Optimist }
		}
	# Francisco Urcuyo Malianos
		NIC_HoG_Francisco_Urcuyo_Malianos = {
			picture = Francisco_Urcuyo_Malianos
			allowed = { tag = NIC }
			available = {
				date > 1967.1.1
				date < 2002.1.1
				A_Minister_Allowed = yes
				NOT = { has_country_flag = Francisco_Urcuyo_Malianos_unavailable }
			}
			
			
			traits = { ideology_A HoG_Smiling_Oilman }
		}
	# Anastasio Somoza Debayle
		NIC_HoG_Anastasio_Somoza_Debayle = {
			picture = Anastasio_Somoza_Debayle
			allowed = { tag = NIC }
			available = {
				date > 1972.1.1
				date < 1980.1.1
				A_Minister_Allowed = yes
				NOT = { has_country_flag = Anastasio_Somoza_Debayle_unavailable }
			}
			
			
			traits = { ideology_A HoG_Backroom_Backstabber }
		}
	# Julían Irias Navarro
		NIC_HoG_Julian_Irias_Navarro = {
			picture = Julian_Irias_Navarro
			allowed = { tag = NIC }
			available = {
				date > 1933.1.1
				date < 1964.1.1
				D_Minister_Allowed = yes
				NOT = { has_country_flag = Julian_Irias_Navarro_unavailable }
			}
			
			
			traits = { ideology_D HoG_Happy_Amateur }
		}
	# Leon Cabrales
		NIC_HoG_Leon_Cabrales = {
			picture = Leon_Cabrales
			allowed = { tag = NIC }
			available = {
				date > 1933.1.1
				date < 1964.1.1
				D_Minister_Allowed = yes
				NOT = { has_country_flag = Leon_Cabrales_unavailable }
			}
			
			
			traits = { ideology_D HoG_Happy_Amateur }
		}
	# Vicente Morales
		NIC_HoG_Vicente_Morales = {
			picture = Vicente_Morales
			allowed = { tag = NIC }
			available = {
				date > 1937.1.1
				date < 1964.1.1
				D_Minister_Allowed = yes
				NOT = { has_country_flag = Vicente_Morales_unavailable }
			}
			
			
			traits = { ideology_D HoG_Naive_Optimist }
		}
	# Carlos A. Villanueva
		NIC_HoG_Carlos_A_Villanueva = {
			picture = Carlos_A_Villanueva
			allowed = { tag = NIC }
			available = {
				date > 1939.1.1
				date < 1964.1.1
				D_Minister_Allowed = yes
				NOT = { has_country_flag = Carlos_A_Villanueva_unavailable }
			}
			
			
			traits = { ideology_D HoG_Political_Protege }
		}
	# Alcacio Trelles Mendoza
		NIC_HoG_Alcacio_Trelles_Mendoza = {
			picture = Alcacio_Trelles_Mendoza
			allowed = { tag = NIC }
			available = {
				date > 1941.1.1
				date < 1964.1.1
				D_Minister_Allowed = yes
				NOT = { has_country_flag = Alcacio_Trelles_Mendoza_unavailable }
			}
			
			
			traits = { ideology_D HoG_Corporate_Suit }
		}
	# Carlos Brenes Jarquin
		NIC_HoG_Carlos_Brenes_Jarquin = {
			picture = Carlos_Brenes_Jarquin
			allowed = { tag = NIC }
			available = {
				date > 1944.1.1
				date < 1964.1.1
				D_Minister_Allowed = yes
				NOT = { has_country_flag = Carlos_Brenes_Jarquin_unavailable }
			}
			
			
			traits = { ideology_D HoG_Silent_Workhorse }
		}
	# Guillermo Cuadra
		NIC_HoG_Guillermo_Cuadra = {
			picture = Guillermo_Cuadra
			allowed = { tag = NIC }
			available = {
				date > 1947.1.1
				date < 1964.1.1
				D_Minister_Allowed = yes
				NOT = { has_country_flag = Guillermo_Cuadra_unavailable }
			}
			
			
			traits = { ideology_D HoG_Ambitious_Union_Boss }
		}
	# Mariano Arguello Vargas
		NIC_HoG_Mariano_Arguello_Vargas = {
			picture = Mariano_Arguello_Vargas
			allowed = { tag = NIC }
			available = {
				date > 1947.1.1
				date < 1965.1.1
				D_Minister_Allowed = yes
				NOT = { has_country_flag = Mariano_Arguello_Vargas_unavailable }
			}
			
			
			traits = { ideology_D HoG_Political_Protege }
		}
	# Francisco Urcuyo Malianos
		NIC_HoG_Francisco_Urcuyo_Malianos_2 = {
			picture = Francisco_Urcuyo_Malianos_2
			allowed = { tag = NIC }
			available = {
				date > 1967.1.1
				date < 2001.1.1
				D_Minister_Allowed = yes
				NOT = { has_country_flag = Francisco_Urcuyo_Malianos_unavailable }
			}
			
			
			traits = { ideology_D HoG_Political_Protege }
		}
	# Violeta Chamorro
		NIC_HoG_Violeta_Chamorro = {
			picture = Violeta_Chamorro
			allowed = { tag = NIC }
			available = {
				date > 1985.1.1
				date < 2020.1.1
				D_Minister_Allowed = yes
				NOT = { has_country_flag = Violeta_Chamorro_unavailable }
			}
			
			
			traits = { ideology_D HoG_Naive_Optimist }
		}
	# Virgilio Reyes Godoy
		NIC_HoG_Virgilio_Reyes_Godoy = {
			picture = Virgilio_Reyes_Godoy
			allowed = { tag = NIC }
			available = {
				date > 1990.1.1
				date < 2020.1.1
				D_Minister_Allowed = yes
				NOT = { has_country_flag = Virgilio_Reyes_Godoy_unavailable }
			}
			
			
			traits = { ideology_D HoG_Old_General }
		}
	# Guillermo Cuadra
		NIC_HoG_Guillermo_Cuadra_2 = {
			picture = Guillermo_Cuadra_2
			allowed = { tag = NIC }
			available = {
				date > 1933.1.1
				date < 1964.1.1
				D_Minister_Allowed = yes
				NOT = { has_country_flag = Guillermo_Cuadra_unavailable }
			}
			
			
			traits = { ideology_D HoG_Ambitious_Union_Boss }
		}
	# Sergio Ramirez Mercado
		NIC_HoG_Sergio_Ramirez_Mercado = {
			picture = Sergio_Ramirez_Mercado
			allowed = { tag = NIC }
			available = {
				date > 1985.1.1
				date < 2020.1.1
				S_Minister_Allowed = yes
				NOT = { has_country_flag = Sergio_Ramirez_Mercado_unavailable }
			}
			
			
			traits = { ideology_S HoG_Old_General }
		}
	# Luis Cardenal
		NIC_HoG_Luis_Cardenal = {
			picture = Luis_Cardenal
			allowed = { tag = NIC }
			available = {
				date > 1933.1.1
				date < 1964.1.1
				C_Minister_Allowed = yes
				NOT = { has_country_flag = Luis_Cardenal_unavailable }
			}
			
			
			traits = { ideology_C HoG_Flamboyant_Tough_Guy }
		}
	# Daniel Ortega
		NIC_HoG_Daniel_Ortega = {
			picture = Daniel_Ortega
			allowed = { tag = NIC }
			available = {
				date > 1979.1.1
				date < 2020.1.1
				C_Minister_Allowed = yes
				NOT = { has_country_flag = Daniel_Ortega_unavailable }
			}
			
			
			traits = { ideology_C HoG_Flamboyant_Tough_Guy }
		}
}
#################################################
### Foreign Minister
#################################################
	Foreign_Minister = {
	# Bartolomé Martínez González
		NIC_FM_Bartolome_Martinez_Gonzalez = {
			picture = Bartolome_Martinez_Gonzalez
			allowed = { tag = NIC }
			available = {
				date > 1914.1.1
				date < 1933.1.1
				A_Minister_Allowed = yes
				NOT = { has_country_flag = Bartolome_Martinez_Gonzalez_unavailable }
			}
			
			
			traits = { ideology_A FM_Iron_Fisted_Brute }
		}
	# Victor Roman y Reyes
		NIC_FM_Victor_Roman_y_Reyes = {
			picture = Victor_Roman_y_Reyes
			allowed = { tag = NIC }
			available = {
				date > 1944.1.1
				date < 1964.1.1
				A_Minister_Allowed = yes
				NOT = { has_country_flag = Victor_Roman_y_Reyes_unavailable }
			}
			
			
			traits = { ideology_A FM_General_Staffer }
		}
	# Anastacio G. Somoza
		NIC_FM_Anastacio_G_Somoza = {
			picture = Anastacio_G_Somoza
			allowed = { tag = NIC }
			available = {
				date > 1947.1.1
				date < 1964.1.1
				A_Minister_Allowed = yes
				NOT = { has_country_flag = Anastacio_G_Somoza_unavailable }
			}
			
			
			traits = { ideology_A FM_The_Cloak_N_Dagger_Schemer }
		}
	# Leonardo Argüello Vargas
		NIC_FM_Leonardo_Arguello_Vargas = {
			picture = Leonardo_Arguello_Vargas
			allowed = { tag = NIC }
			available = {
				date > 1933.1.1
				date < 1964.1.1
				D_Minister_Allowed = yes
				NOT = { has_country_flag = Leonardo_Arguello_Vargas_unavailable }
			}
			
			
			traits = { ideology_D FM_Iron_Fisted_Brute }
		}
	# Dario Darío y Debayle
		NIC_FM_Dario_Dario_y_Debayle = {
			picture = Dario_Dario_y_Debayle
			allowed = { tag = NIC }
			available = {
				date > 1933.1.1
				date < 1964.1.1
				D_Minister_Allowed = yes
				NOT = { has_country_flag = Dario_Dario_y_Debayle_unavailable }
			}
			
			
			traits = { ideology_D FM_General_Staffer }
		}
	# Manuel Cordero Reyes
		NIC_FM_Manuel_Cordero_Reyes = {
			picture = Manuel_Cordero_Reyes
			allowed = { tag = NIC }
			available = {
				date > 1937.1.1
				date < 1964.1.1
				D_Minister_Allowed = yes
				NOT = { has_country_flag = Manuel_Cordero_Reyes_unavailable }
			}
			
			
			traits = { ideology_D FM_Great_Compromiser }
		}
	# Mariano Argüello Vargas
		NIC_FM_Mariano_Arguello_Vargas = {
			picture = Mariano_Arguello_Vargas
			allowed = { tag = NIC }
			available = {
				date > 1939.1.1
				date < 1964.1.1
				D_Minister_Allowed = yes
				NOT = { has_country_flag = Mariano_Arguello_Vargas_unavailable }
			}
			
			
			traits = { ideology_D FM_Biased_Intellectual }
		}
	# Silvio Argüello Cardenal
		NIC_FM_Silvio_Arguello_Cardenal = {
			picture = Silvio_Arguello_Cardenal
			allowed = { tag = NIC }
			available = {
				date > 1947.1.1
				date < 1964.1.1
				D_Minister_Allowed = yes
				NOT = { has_country_flag = Silvio_Arguello_Cardenal_unavailable }
			}
			
			
			traits = { ideology_D FM_Great_Compromiser }
		}
	# Virgilio Reyes Godoy
		NIC_FM_Virgilio_Reyes_Godoy = {
			picture = Virgilio_Reyes_Godoy
			allowed = { tag = NIC }
			available = {
				date > 1990.1.1
				date < 2020.1.1
				D_Minister_Allowed = yes
				NOT = { has_country_flag = Virgilio_Reyes_Godoy_unavailable }
			}
			
			
			traits = { ideology_D FM_Apologetic_Clerk }
		}
	# Leon Cabrales
		NIC_FM_Leon_Cabrales = {
			picture = Leon_Cabrales
			allowed = { tag = NIC }
			available = {
				date > 1933.1.1
				date < 1964.1.1
				D_Minister_Allowed = yes
				NOT = { has_country_flag = Leon_Cabrales_unavailable }
			}
			
			
			traits = { ideology_D FM_Biased_Intellectual }
		}
	# Sergio Ramirez Mercado
		NIC_FM_Sergio_Ramirez_Mercado = {
			picture = Sergio_Ramirez_Mercado
			allowed = { tag = NIC }
			available = {
				date > 1979.1.1
				date < 2020.1.1
				S_Minister_Allowed = yes
				NOT = { has_country_flag = Sergio_Ramirez_Mercado_unavailable }
			}
			
			
			traits = { ideology_S FM_Biased_Intellectual }
		}
	# Luis Cardenal
		NIC_FM_Luis_Cardenal = {
			picture = Luis_Cardenal
			allowed = { tag = NIC }
			available = {
				date > 1933.1.1
				date < 1964.1.1
				C_Minister_Allowed = yes
				NOT = { has_country_flag = Luis_Cardenal_unavailable }
			}
			
			
			traits = { ideology_C FM_Ideological_Crusader }
		}
}
#################################################
### Minister of Security
#################################################
	Minister_of_Security = {
	# Gilbert D. Hatfield
		NIC_MoS_Gilbert_D_Hatfield = {
			picture = Gilbert_D_Hatfield
			allowed = { tag = NIC }
			available = {
				date > 1914.1.1
				date < 1933.1.1
				A_Minister_Allowed = yes
				NOT = { has_country_flag = Gilbert_D_Hatfield_unavailable }
			}
			
			
			traits = { ideology_A MoS_Prince_Of_Terror }
		}
	# Gustavo Pavon Ochoa
		NIC_MoS_Gustavo_Pavon_Ochoa = {
			picture = Gustavo_Pavon_Ochoa
			allowed = { tag = NIC }
			available = {
				date > 1944.1.1
				date < 1964.1.1
				A_Minister_Allowed = yes
				NOT = { has_country_flag = Gustavo_Pavon_Ochoa_unavailable }
			}
			
			
			traits = { ideology_A MoS_Silent_Lawyer }
		}
	# Anastacio G. Somoza
		NIC_MoS_Anastacio_G_Somoza = {
			picture = Anastacio_G_Somoza
			allowed = { tag = NIC }
			available = {
				date > 1933.1.1
				date < 1964.1.1
				D_Minister_Allowed = yes
				NOT = { has_country_flag = Anastacio_G_Somoza_unavailable }
			}
			
			
			traits = { ideology_D MoS_Efficient_Sociopath }
		}
	# Victor Roman y Reyes
		NIC_MoS_Victor_Roman_y_Reyes = {
			picture = Victor_Roman_y_Reyes
			allowed = { tag = NIC }
			available = {
				date > 1939.1.1
				date < 1964.1.1
				D_Minister_Allowed = yes
				NOT = { has_country_flag = Victor_Roman_y_Reyes_unavailable }
			}
			
			
			traits = { ideology_D MoS_Prince_Of_Terror }
		}
	# Leon Cabrales
		NIC_MoS_Leon_Cabrales = {
			picture = Leon_Cabrales
			allowed = { tag = NIC }
			available = {
				date > 1941.1.1
				date < 1964.1.1
				D_Minister_Allowed = yes
				NOT = { has_country_flag = Leon_Cabrales_unavailable }
			}
			
			
			traits = { ideology_D MoS_Back_Stabber }
		}
	# Nicolas Eden Jímenez
		NIC_MoS_Nicolas_Eden_Jimenez = {
			picture = Nicolas_Eden_Jimenez
			allowed = { tag = NIC }
			available = {
				date > 1947.1.1
				date < 1964.1.1
				D_Minister_Allowed = yes
				NOT = { has_country_flag = Nicolas_Eden_Jimenez_unavailable }
			}
			
			
			traits = { ideology_D MoS_Compassionate_Gentleman }
		}
	# Arnoldo Alemán
		NIC_MoS_Arnoldo_Aleman = {
			picture = Arnoldo_Aleman
			allowed = { tag = NIC }
			available = {
				date > 1985.1.1
				date < 2020.1.1
				D_Minister_Allowed = yes
				NOT = { has_country_flag = Arnoldo_Aleman_unavailable }
			}
			
			
			traits = { ideology_D MoS_Silent_Lawyer }
		}
	# Alcacio Trelles Mendoza
		NIC_MoS_Alcacio_Trelles_Mendoza = {
			picture = Alcacio_Trelles_Mendoza
			allowed = { tag = NIC }
			available = {
				date > 1933.1.1
				date < 1964.1.1
				D_Minister_Allowed = yes
				NOT = { has_country_flag = Alcacio_Trelles_Mendoza_unavailable }
			}
			
			
			traits = { ideology_D MoS_Crooked_Kleptocrat }
		}
	# Guillermo Cuadra
		NIC_MoS_Guillermo_Cuadra = {
			picture = Guillermo_Cuadra
			allowed = { tag = NIC }
			available = {
				date > 1933.1.1
				date < 1964.1.1
				D_Minister_Allowed = yes
				NOT = { has_country_flag = Guillermo_Cuadra_unavailable }
			}
			
			
			traits = { ideology_D MoS_Crime_Fighter }
		}
	# Juan Y. Masquez
		NIC_MoS_Juan_Y_Masquez = {
			picture = Juan_Y_Masquez
			allowed = { tag = NIC }
			available = {
				date > 1933.1.1
				date < 1964.1.1
				C_Minister_Allowed = yes
				NOT = { has_country_flag = Juan_Y_Masquez_unavailable }
			}
			
			
			traits = { ideology_C MoS_Efficient_Sociopath }
		}
	# Dirección General de Inteligencia
		NIC_MoS_Direccion_General_de_Inteligencia = {
			picture = Direccion_General_de_Inteligencia
			allowed = { tag = NIC }
			available = {
				date > 1979.1.1
				date < 2020.1.1
				C_Minister_Allowed = yes
				NOT = { has_country_flag = Direccion_General_de_Inteligencia_unavailable }
			}
			
			
			traits = { ideology_C MoS_Efficient_Sociopath }
		}
}
#################################################
### Armaments Minister
#################################################
	Armaments_Minister = {
	# Diego Manuel Chamorro Bolaños
		NIC_AM_Diego_Manuel_Chamorro_Bolanos = {
			picture = Diego_Manuel_Chamorro_Bolanos
			allowed = { tag = NIC }
			available = {
				date > 1914.1.1
				date < 1933.1.1
				A_Minister_Allowed = yes
				NOT = { has_country_flag = Diego_Manuel_Chamorro_Bolanos_unavailable }
			}
			
			
			traits = { ideology_A AM_Air_To_Ground_Proponent }
		}
	# Tomas Francisco Medina
		NIC_AM_Tomas_Francisco_Medina = {
			picture = Tomas_Francisco_Medina
			allowed = { tag = NIC }
			available = {
				date > 1933.1.1
				date < 1964.1.1
				A_Minister_Allowed = yes
				NOT = { has_country_flag = Tomas_Francisco_Medina_unavailable }
			}
			
			
			traits = { ideology_A AM_Corrupt_Kleptocrat }
		}
	# José Clemón Sacasa
		NIC_AM_Jose_Clemon_Sacasa = {
			picture = Jose_Clemon_Sacasa
			allowed = { tag = NIC }
			available = {
				date > 1947.1.1
				date < 1964.1.1
				A_Minister_Allowed = yes
				NOT = { has_country_flag = Jose_Clemon_Sacasa_unavailable }
			}
			
			
			traits = { ideology_A AM_Tank_Proponent }
		}
	# Anastacio G. Somoza
		NIC_AM_Anastacio_G_Somoza = {
			picture = Anastacio_G_Somoza
			allowed = { tag = NIC }
			available = {
				date > 1933.1.1
				date < 1964.1.1
				D_Minister_Allowed = yes
				NOT = { has_country_flag = Anastacio_G_Somoza_unavailable }
			}
			
			
			traits = { ideology_D AM_Corrupt_Kleptocrat }
		}
	# Nicolas Juarez Cejudo
		NIC_AM_Nicolas_Juarez_Cejudo = {
			picture = Nicolas_Juarez_Cejudo
			allowed = { tag = NIC }
			available = {
				date > 1933.1.1
				date < 1964.1.1
				D_Minister_Allowed = yes
				NOT = { has_country_flag = Nicolas_Juarez_Cejudo_unavailable }
			}
			
			
			traits = { ideology_D AM_Air_To_Ground_Proponent }
		}
	# Carlos Brenes Jarquin
		NIC_AM_Carlos_Brenes_Jarquin = {
			picture = Carlos_Brenes_Jarquin
			allowed = { tag = NIC }
			available = {
				date > 1937.1.1
				date < 1964.1.1
				D_Minister_Allowed = yes
				NOT = { has_country_flag = Carlos_Brenes_Jarquin_unavailable }
			}
			
			
			traits = { ideology_D AM_Laissez-faire_Capitalist }
		}
	# Salvador Buenrostrí Cardeñas
		NIC_AM_Salvador_Buenrostri_Cardenas = {
			picture = Salvador_Buenrostri_Cardenas
			allowed = { tag = NIC }
			available = {
				date > 1939.1.1
				date < 1964.1.1
				D_Minister_Allowed = yes
				NOT = { has_country_flag = Salvador_Buenrostri_Cardenas_unavailable }
			}
			
			
			traits = { ideology_D AM_Air_Superiority_Proponent }
		}
	# Leonardo Argüello Vargas
		NIC_AM_Leonardo_Arguello_Vargas = {
			picture = Leonardo_Arguello_Vargas
			allowed = { tag = NIC }
			available = {
				date > 1941.1.1
				date < 1964.1.1
				D_Minister_Allowed = yes
				NOT = { has_country_flag = Leonardo_Arguello_Vargas_unavailable }
			}
			
			
			traits = { ideology_D AM_Infantry_Proponent }
		}
	# Benjamin Lacayo Sacasa
		NIC_AM_Benjamin_Lacayo_Sacasa = {
			picture = Benjamin_Lacayo_Sacasa
			allowed = { tag = NIC }
			available = {
				date > 1943.1.1
				date < 1964.1.1
				D_Minister_Allowed = yes
				NOT = { has_country_flag = Benjamin_Lacayo_Sacasa_unavailable }
			}
			
			
			traits = { ideology_D AM_Administrative_Genius }
		}
	# Benjamin Casal Cohen
		NIC_AM_Benjamin_Casal_Cohen = {
			picture = Benjamin_Casal_Cohen
			allowed = { tag = NIC }
			available = {
				date > 1944.1.1
				date < 1964.1.1
				D_Minister_Allowed = yes
				NOT = { has_country_flag = Benjamin_Casal_Cohen_unavailable }
			}
			
			
			traits = { ideology_D AM_Military_Entrepreneur }
		}
	# Juan Estrada Ayala
		NIC_AM_Juan_Estrada_Ayala = {
			picture = Juan_Estrada_Ayala
			allowed = { tag = NIC }
			available = {
				date > 1947.1.1
				date < 1964.1.1
				D_Minister_Allowed = yes
				NOT = { has_country_flag = Juan_Estrada_Ayala_unavailable }
			}
			
			
			traits = { ideology_D AM_Air_To_Ground_Proponent }
		}
	# Violeta Chamorro
		NIC_AM_Violeta_Chamorro = {
			picture = Violeta_Chamorro
			allowed = { tag = NIC }
			available = {
				date > 1985.1.1
				date < 2020.1.1
				D_Minister_Allowed = yes
				NOT = { has_country_flag = Violeta_Chamorro_unavailable }
			}
			
			
			traits = { ideology_D AM_Laissez-faire_Capitalist }
		}
	# Omar Cabezas
		NIC_AM_Omar_Cabezas = {
			picture = Omar_Cabezas
			allowed = { tag = NIC }
			available = {
				date > 1979.1.1
				date < 2020.1.1
				C_Minister_Allowed = yes
				NOT = { has_country_flag = Omar_Cabezas_unavailable }
			}
			
			
			traits = { ideology_C AM_Theoretical_Scientist }
		}
	# Teophilo S. Grálles
		NIC_AM_Teophilo_S_Gralles = {
			picture = Teophilo_S_Gralles
			allowed = { tag = NIC }
			available = {
				date > 1933.1.1
				date < 1964.1.1
				C_Minister_Allowed = yes
				NOT = { has_country_flag = Teophilo_S_Gralles_unavailable }
			}
			
			
			traits = { ideology_C AM_Strategic_Air_Proponent }
		}
}
#################################################
### Head of Intelligence
#################################################
	Head_of_Intelligence = {
	# Emiliano Chamorro
		NIC_HoI_Emiliano_Chamorro = {
			picture = Emiliano_Chamorro
			allowed = { tag = NIC }
			available = {
				date > 1914.1.1
				date < 1933.1.1
				A_Minister_Allowed = yes
				NOT = { has_country_flag = Emiliano_Chamorro_unavailable }
			}
			
			
			traits = { ideology_A HoI_Logistics_Specialist }
		}
	# Francisco Estrasa
		NIC_HoI_Francisco_Estrasa = {
			picture = Francisco_Estrasa
			allowed = { tag = NIC }
			available = {
				date > 1933.1.1
				date < 1964.1.1
				A_Minister_Allowed = yes
				NOT = { has_country_flag = Francisco_Estrasa_unavailable }
			}
			
			
			traits = { ideology_A HoI_Industrial_Specialist }
		}
	# José Clemón Sacasa
		NIC_HoI_Jose_Clemon_Sacasa = {
			picture = Jose_Clemon_Sacasa
			allowed = { tag = NIC }
			available = {
				date > 1947.1.1
				date < 1964.1.1
				A_Minister_Allowed = yes
				NOT = { has_country_flag = Jose_Clemon_Sacasa_unavailable }
			}
			
			
			traits = { ideology_A HoI_Dismal_Enigma }
		}
	# Leonardo Argüello Vargas
		NIC_HoI_Leonardo_Arguello_Vargas = {
			picture = Leonardo_Arguello_Vargas
			allowed = { tag = NIC }
			available = {
				date > 1933.1.1
				date < 1964.1.1
				D_Minister_Allowed = yes
				NOT = { has_country_flag = Leonardo_Arguello_Vargas_unavailable }
			}
			
			
			traits = { ideology_D HoI_Technical_Specialist }
		}
	# Leonardo Argüello Vincés
		NIC_HoI_Leonardo_Arguello_Vinces = {
			picture = Leonardo_Arguello_Vinces
			allowed = { tag = NIC }
			available = {
				date > 1937.1.1
				date < 1964.1.1
				D_Minister_Allowed = yes
				NOT = { has_country_flag = Leonardo_Arguello_Vinces_unavailable }
			}
			
			
			traits = { ideology_D HoI_Dismal_Enigma }
		}
	# Victor Roman y Reyes
		NIC_HoI_Victor_Roman_y_Reyes = {
			picture = Victor_Roman_y_Reyes
			allowed = { tag = NIC }
			available = {
				date > 1941.1.1
				date < 1964.1.1
				D_Minister_Allowed = yes
				NOT = { has_country_flag = Victor_Roman_y_Reyes_unavailable }
			}
			
			
			traits = { ideology_D HoI_Technical_Specialist }
		}
	# José Luís Pavon Vinales
		NIC_HoI_Jose_Luis_Pavon_Vinales = {
			picture = Jose_Luis_Pavon_Vinales
			allowed = { tag = NIC }
			available = {
				date > 1944.1.1
				date < 1964.1.1
				D_Minister_Allowed = yes
				NOT = { has_country_flag = Jose_Luis_Pavon_Vinales_unavailable }
			}
			
			
			traits = { ideology_D HoI_Logistics_Specialist }
		}
	# Juan Pablo Esquerra
		NIC_HoI_Juan_Pablo_Esquerra = {
			picture = Juan_Pablo_Esquerra
			allowed = { tag = NIC }
			available = {
				date > 1947.1.1
				date < 1964.1.1
				D_Minister_Allowed = yes
				NOT = { has_country_flag = Juan_Pablo_Esquerra_unavailable }
			}
			
			
			traits = { ideology_D HoI_Dismal_Enigma }
		}
	# Arnoldo Alemán
		NIC_HoI_Arnoldo_Aleman = {
			picture = Arnoldo_Aleman
			allowed = { tag = NIC }
			available = {
				date > 1985.1.1
				date < 2020.1.1
				D_Minister_Allowed = yes
				NOT = { has_country_flag = Arnoldo_Aleman_unavailable }
			}
			
			
			traits = { ideology_D HoI_Political_Specialist }
		}
	# Juan Pablo Esquerra
		NIC_HoI_Juan_Pablo_Esquerra_2 = {
			picture = Juan_Pablo_Esquerra_2
			allowed = { tag = NIC }
			available = {
				date > 1933.1.1
				date < 1964.1.1
				S_Minister_Allowed = yes
				NOT = { has_country_flag = Juan_Pablo_Esquerra_unavailable }
			}
			
			
			traits = { ideology_S HoI_Dismal_Enigma }
		}
	# Dirección General de Inteligencia
		NIC_HoI_Direccion_General_de_Inteligencia = {
			picture = Direccion_General_de_Inteligencia
			allowed = { tag = NIC }
			available = {
				date > 1979.1.1
				date < 2020.1.1
				C_Minister_Allowed = yes
				NOT = { has_country_flag = Direccion_General_de_Inteligencia_unavailable }
			}
			
			
			traits = { ideology_C HoI_Political_Specialist }
		}
}
#################################################
### Chief of Staff
#################################################
	Chief_of_Staff = {
	# Emiliano Chamorro Vargas
		NIC_CoStaff_Emiliano_Chamorro_Vargas = {
			picture = Emiliano_Chamorro_Vargas
			allowed = { tag = NIC }
			available = {
				date > 1914.1.1
				date < 1933.1.1
				A_Minister_Allowed = yes
				NOT = { has_country_flag = Emiliano_Chamorro_Vargas_unavailable }
			}
			
			
			traits = { ideology_A CoStaff_School_Of_Fire_Support }
		}
	# Augusto Caraval Antonio
		NIC_CoStaff_Augusto_Caraval_Antonio = {
			picture = Augusto_Caraval_Antonio
			allowed = { tag = NIC }
			available = {
				date > 1933.1.1
				date < 1964.1.1
				A_Minister_Allowed = yes
				NOT = { has_country_flag = Augusto_Caraval_Antonio_unavailable }
			}
			
			
			traits = { ideology_A CoStaff_School_Of_Fire_Support }
		}
	# Anastacio G. Somoza
		NIC_CoStaff_Anastacio_G_Somoza = {
			picture = Anastacio_G_Somoza
			allowed = { tag = NIC }
			available = {
				date > 1933.1.1
				date < 1964.1.1
				D_Minister_Allowed = yes
				NOT = { has_country_flag = Anastacio_G_Somoza_unavailable }
			}
			
			
			traits = { ideology_D CoStaff_School_Of_Defence }
		}
	# Manuel Roque Garcia
		NIC_CoStaff_Manuel_Roque_Garcia = {
			picture = Manuel_Roque_Garcia
			allowed = { tag = NIC }
			available = {
				date > 1947.1.1
				date < 1964.1.1
				D_Minister_Allowed = yes
				NOT = { has_country_flag = Manuel_Roque_Garcia_unavailable }
			}
			
			
			traits = { ideology_D CoStaff_School_Of_Manoeuvre }
		}
	# Arturo Cruz Sequeira
		NIC_CoStaff_Arturo_Cruz_Sequeira = {
			picture = Arturo_Cruz_Sequeira
			allowed = { tag = NIC }
			available = {
				date > 1985.1.1
				date < 2020.1.1
				D_Minister_Allowed = yes
				NOT = { has_country_flag = Arturo_Cruz_Sequeira_unavailable }
			}
			
			
			traits = { ideology_D CoStaff_School_Of_Psychology }
		}
	# Juan Pablo Esquerra
		NIC_CoStaff_Juan_Pablo_Esquerra = {
			picture = Juan_Pablo_Esquerra
			allowed = { tag = NIC }
			available = {
				date > 1933.1.1
				date < 1964.1.1
				S_Minister_Allowed = yes
				NOT = { has_country_flag = Juan_Pablo_Esquerra_unavailable }
			}
			
			
			traits = { ideology_S CoStaff_School_Of_Psychology }
		}
	# Joaquín Cuadra
		NIC_CoStaff_Joaquin_Cuadra = {
			picture = Joaquin_Cuadra
			allowed = { tag = NIC }
			available = {
				date > 1979.1.1
				date < 2020.1.1
				C_Minister_Allowed = yes
				NOT = { has_country_flag = Joaquin_Cuadra_unavailable }
			}
			
			
			traits = { ideology_C CoStaff_School_Of_Mass_Combat }
		}
}
#################################################
### Chief of Army
#################################################
	Chief_of_Army = {
	# Emiliano Chamorro Vargas
		NIC_CoArmy_Emiliano_Chamorro_Vargas = {
			picture = Emiliano_Chamorro_Vargas
			allowed = { tag = NIC }
			available = {
				date > 1914.1.1
				date < 1933.1.1
				A_Minister_Allowed = yes
				NOT = { has_country_flag = Emiliano_Chamorro_Vargas_unavailable }
			}
			
			
			traits = { ideology_A CoArmy_Static_Defence_Doctrine }
		}
	# Manuel Corovél Kirsch
		NIC_CoArmy_Manuel_Corovel_Kirsch = {
			picture = Manuel_Corovel_Kirsch
			allowed = { tag = NIC }
			available = {
				date > 1944.1.1
				date < 1964.1.1
				A_Minister_Allowed = yes
				NOT = { has_country_flag = Manuel_Corovel_Kirsch_unavailable }
			}
			
			
			traits = { ideology_A CoArmy_Armoured_Spearhead_Doctrine }
		}
	# Augusto Caraval Antonio
		NIC_CoArmy_Augusto_Caraval_Antonio = {
			picture = Augusto_Caraval_Antonio
			allowed = { tag = NIC }
			available = {
				date > 1933.1.1
				date < 1964.1.1
				D_Minister_Allowed = yes
				NOT = { has_country_flag = Augusto_Caraval_Antonio_unavailable }
			}
			
			
			traits = { ideology_D CoArmy_Elastic_Defence_Doctrine }
		}
	# Anastacio G. Somoza
		NIC_CoArmy_Anastacio_G_Somoza = {
			picture = Anastacio_G_Somoza
			allowed = { tag = NIC }
			available = {
				date > 1937.1.1
				date < 1964.1.1
				D_Minister_Allowed = yes
				NOT = { has_country_flag = Anastacio_G_Somoza_unavailable }
			}
			
			
			traits = { ideology_D CoArmy_Static_Defence_Doctrine }
		}
	# Victor Roman y Reyes
		NIC_CoArmy_Victor_Roman_y_Reyes = {
			picture = Victor_Roman_y_Reyes
			allowed = { tag = NIC }
			available = {
				date > 1941.1.1
				date < 1964.1.1
				D_Minister_Allowed = yes
				NOT = { has_country_flag = Victor_Roman_y_Reyes_unavailable }
			}
			
			
			traits = { ideology_D CoArmy_Decisive_Battle_Doctrine }
		}
	# Manuel Roque Garcia
		NIC_CoArmy_Manuel_Roque_Garcia = {
			picture = Manuel_Roque_Garcia
			allowed = { tag = NIC }
			available = {
				date > 1947.1.1
				date < 1964.1.1
				D_Minister_Allowed = yes
				NOT = { has_country_flag = Manuel_Roque_Garcia_unavailable }
			}
			
			
			traits = { ideology_D CoArmy_Guns_And_Butter_Doctrine }
		}
	# Arturo Cruz Sequeira
		NIC_CoArmy_Arturo_Cruz_Sequeira = {
			picture = Arturo_Cruz_Sequeira
			allowed = { tag = NIC }
			available = {
				date > 1985.1.1
				date < 2020.1.1
				D_Minister_Allowed = yes
				NOT = { has_country_flag = Arturo_Cruz_Sequeira_unavailable }
			}
			
			
			traits = { ideology_D CoArmy_Commando_Doctrine_Army }
		}
	# Manuel Corovél Kirsch
		NIC_CoArmy_Manuel_Corovel_Kirsch_2 = {
			picture = Manuel_Corovel_Kirsch_2
			allowed = { tag = NIC }
			available = {
				date > 1933.1.1
				date < 1964.1.1
				S_Minister_Allowed = yes
				NOT = { has_country_flag = Manuel_Corovel_Kirsch_unavailable }
			}
			
			
			traits = { ideology_S CoArmy_Static_Defence_Doctrine }
		}
	# Joaquín Cuadra
		NIC_CoArmy_Joaquin_Cuadra = {
			picture = Joaquin_Cuadra
			allowed = { tag = NIC }
			available = {
				date > 1979.1.1
				date < 2020.1.1
				C_Minister_Allowed = yes
				NOT = { has_country_flag = Joaquin_Cuadra_unavailable }
			}
			
			
			traits = { ideology_C CoArmy_Guerilla_Warfare_Doctrine }
		}
}
#################################################
### Chief of Navy
#################################################
	Chief_of_Navy = {
	# Emiliano Chamorro Vargas
		NIC_CoNavy_Emiliano_Chamorro_Vargas = {
			picture = Emiliano_Chamorro_Vargas
			allowed = { tag = NIC }
			available = {
				date > 1914.1.1
				date < 1933.1.1
				A_Minister_Allowed = yes
				NOT = { has_country_flag = Emiliano_Chamorro_Vargas_unavailable }
			}
			
			
			traits = { ideology_A CoNavy_Open_Seas_Doctrine }
		}
	# Gustavo Flores Mendienta
		NIC_CoNavy_Gustavo_Flores_Mendienta = {
			picture = Gustavo_Flores_Mendienta
			allowed = { tag = NIC }
			available = {
				date > 1933.1.1
				date < 1964.1.1
				D_Minister_Allowed = yes
				NOT = { has_country_flag = Gustavo_Flores_Mendienta_unavailable }
			}
			
			
			traits = { ideology_D CoNavy_Base_Control_Doctrine }
		}
	# Noel Esto Niño Miranda
		NIC_CoNavy_Noel_Esto_Nino_Miranda = {
			picture = Noel_Esto_Nino_Miranda
			allowed = { tag = NIC }
			available = {
				date > 1944.1.1
				date < 1964.1.1
				D_Minister_Allowed = yes
				NOT = { has_country_flag = Noel_Esto_Nino_Miranda_unavailable }
			}
			
			
			traits = { ideology_D CoNavy_Open_Seas_Doctrine }
		}
	# Arturo Cruz Sequeira
		NIC_CoNavy_Arturo_Cruz_Sequeira = {
			picture = Arturo_Cruz_Sequeira
			allowed = { tag = NIC }
			available = {
				date > 1985.1.1
				date < 2020.1.1
				D_Minister_Allowed = yes
				NOT = { has_country_flag = Arturo_Cruz_Sequeira_unavailable }
			}
			
			
			traits = { ideology_D CoNavy_Base_Control_Doctrine }
		}
	# Noel Esto Niño Miranda
		NIC_CoNavy_Noel_Esto_Nino_Miranda_2 = {
			picture = Noel_Esto_Nino_Miranda_2
			allowed = { tag = NIC }
			available = {
				date > 1933.1.1
				date < 1964.1.1
				S_Minister_Allowed = yes
				NOT = { has_country_flag = Noel_Esto_Nino_Miranda_unavailable }
			}
			
			
			traits = { ideology_S CoNavy_Open_Seas_Doctrine }
		}
	# Joaquín Cuadra
		NIC_CoNavy_Joaquin_Cuadra = {
			picture = Joaquin_Cuadra
			allowed = { tag = NIC }
			available = {
				date > 1979.1.1
				date < 2020.1.1
				C_Minister_Allowed = yes
				NOT = { has_country_flag = Joaquin_Cuadra_unavailable }
			}
			
			
			traits = { ideology_C CoNavy_Indirect_Approach_Doctrine }
		}
}
#################################################
### Chief of Airforce
#################################################
	Chief_of_Airforce = {
	# Guillermo R. Cuadra
		NIC_CoAir_Guillermo_R_Cuadra = {
			picture = Guillermo_R_Cuadra
			allowed = { tag = NIC }
			available = {
				date > 1933.1.1
				date < 1964.1.1
				D_Minister_Allowed = yes
				NOT = { has_country_flag = Guillermo_R_Cuadra_unavailable }
			}
			
			
			traits = { ideology_D CoAir_Naval_Aviation_Doctrine }
		}
	# Joel Garcia Zaldana
		NIC_CoAir_Joel_Garcia_Zaldana = {
			picture = Joel_Garcia_Zaldana
			allowed = { tag = NIC }
			available = {
				date > 1944.1.1
				date < 1964.1.1
				D_Minister_Allowed = yes
				NOT = { has_country_flag = Joel_Garcia_Zaldana_unavailable }
			}
			
			
			traits = { ideology_D CoAir_Army_Aviation_Doctrine }
		}
	# Arturo Cruz Sequeira
		NIC_CoAir_Arturo_Cruz_Sequeira = {
			picture = Arturo_Cruz_Sequeira
			allowed = { tag = NIC }
			available = {
				date > 1985.1.1
				date < 2020.1.1
				D_Minister_Allowed = yes
				NOT = { has_country_flag = Arturo_Cruz_Sequeira_unavailable }
			}
			
			
			traits = { ideology_D CoAir_Army_Aviation_Doctrine }
		}
	# Joel Garcia Zaldana
		NIC_CoAir_Joel_Garcia_Zaldana_2 = {
			picture = Joel_Garcia_Zaldana_2
			allowed = { tag = NIC }
			available = {
				date > 1933.1.1
				date < 1964.1.1
				S_Minister_Allowed = yes
				NOT = { has_country_flag = Joel_Garcia_Zaldana_unavailable }
			}
			
			
			traits = { ideology_S CoAir_Army_Aviation_Doctrine }
		}
	# Joaquín Cuadra
		NIC_CoAir_Joaquin_Cuadra = {
			picture = Joaquin_Cuadra
			allowed = { tag = NIC }
			available = {
				date > 1979.1.1
				date < 2020.1.1
				C_Minister_Allowed = yes
				NOT = { has_country_flag = Joaquin_Cuadra_unavailable }
			}
			
			
			traits = { ideology_C CoAir_Carpet_Bombing_Doctrine }
		}
	}
}
