ideas = {
#################################################
### Head of Government
#################################################
	Head_of_Government = {
	# Jamiat II Nawab of Manowar
		PAK_HoG_Jamiat_II_Nawab_of_Manowar = {
			picture = Jamiat_II_Nawab_of_Manowar
			allowed = { tag = PAK }
			available = {
				date > 1933.1.1
				date < 1964.1.1
				A_Minister_Allowed = yes
				NOT = { has_country_flag = Jamiat_II_Nawab_of_Manowar_unavailable }
			}
			
			
			traits = { ideology_A HoG_Old_Airmarshal }
		}
	# Muhammad Zia-ul-Haq
		PAK_HoG_Muhammad_ZiaulHaq = {
			picture = Muhammad_ZiaulHaq
			allowed = { tag = PAK }
			available = {
				date > 1977.1.1
				date < 1989.1.1
				A_Minister_Allowed = yes
				NOT = { has_country_flag = Muhammad_ZiaulHaq_unavailable }
			}
			
			
			traits = { ideology_A HoG_Old_General }
		}
	# Muhammad Khan Junejo
		PAK_HoG_Muhammad_Khan_Junejo = {
			picture = Muhammad_Khan_Junejo
			allowed = { tag = PAK }
			available = {
				date > 1985.1.1
				date < 1994.1.1
				A_Minister_Allowed = yes
				NOT = { has_country_flag = Muhammad_Khan_Junejo_unavailable }
			}
			
			
			traits = { ideology_A HoG_Corporate_Suit }
		}
	# Nawaz Sharif
		PAK_HoG_Nawaz_Sharif = {
			picture = Nawaz_Sharif
			allowed = { tag = PAK }
			available = {
				date > 1990.1.1
				date < 2020.1.1
				D_Minister_Allowed = yes
				NOT = { has_country_flag = Nawaz_Sharif_unavailable }
			}
			
			
			traits = { ideology_D HoG_Smiling_Oilman }
		}
	# Sir John Anderson
		PAK_HoG_Sir_John_Anderson = {
			picture = Sir_John_Anderson
			allowed = { tag = PAK }
			available = {
				date > 1933.1.1
				date < 1964.1.1
				D_Minister_Allowed = yes
				NOT = { has_country_flag = Sir_John_Anderson_unavailable }
			}
			
			
			traits = { ideology_D HoG_Political_Protege }
		}
	# Lawrence Marquess of Zetland
		PAK_HoG_Lawrence_Marquess_of_Zetland = {
			picture = Lawrence_Marquess_of_Zetland
			allowed = { tag = PAK }
			available = {
				date > 1936.1.1
				date < 1964.1.1
				D_Minister_Allowed = yes
				NOT = { has_country_flag = Lawrence_Marquess_of_Zetland_unavailable }
			}
			
			
			traits = { ideology_D HoG_Silent_Workhorse }
		}
	# Leo Amery
		PAK_HoG_Leo_Amery = {
			picture = Leo_Amery
			allowed = { tag = PAK }
			available = {
				date > 1940.1.1
				date < 1964.1.1
				D_Minister_Allowed = yes
				NOT = { has_country_flag = Leo_Amery_unavailable }
			}
			
			
			traits = { ideology_D HoG_Political_Protege }
		}
	# Frederick Pethick-Lawrence
		PAK_HoG_Frederick_PethickLawrence = {
			picture = Frederick_PethickLawrence
			allowed = { tag = PAK }
			available = {
				date > 1945.1.1
				date < 1964.1.1
				D_Minister_Allowed = yes
				NOT = { has_country_flag = Frederick_PethickLawrence_unavailable }
			}
			
			
			traits = { ideology_D HoG_Corporate_Suit }
		}
	# Chaudry Mohammad Ali
		PAK_HoG_Chaudry_Mohammad_Ali = {
			picture = Chaudry_Mohammad_Ali
			allowed = { tag = PAK }
			available = {
				date > 1955.1.1
				date < 1964.1.1
				D_Minister_Allowed = yes
				NOT = { has_country_flag = Chaudry_Mohammad_Ali_unavailable }
			}
			
			
			traits = { ideology_D HoG_Smiling_Oilman }
		}
	# Huseyn Shaheed Suhrawardy
		PAK_HoG_Huseyn_Shaheed_Suhrawardy = {
			picture = Huseyn_Shaheed_Suhrawardy
			allowed = { tag = PAK }
			available = {
				date > 1956.1.1
				date < 1963.1.1
				D_Minister_Allowed = yes
				NOT = { has_country_flag = Huseyn_Shaheed_Suhrawardy_unavailable }
			}
			
			
			traits = { ideology_D HoG_Happy_Amateur }
		}
	# Sir Feroz Khan Noon
		PAK_HoG_Sir_Feroz_Khan_Noon = {
			picture = Sir_Feroz_Khan_Noon
			allowed = { tag = PAK }
			available = {
				date > 1958.1.1
				date < 1971.1.1
				D_Minister_Allowed = yes
				NOT = { has_country_flag = Sir_Feroz_Khan_Noon_unavailable }
			}
			
			
			traits = { ideology_D HoG_Smiling_Oilman }
		}
	# Muhammad Ayub Khan
		PAK_HoG_Muhammad_Ayub_Khan = {
			picture = Muhammad_Ayub_Khan
			allowed = { tag = PAK }
			available = {
				date > 1959.1.1
				date < 1975.1.1
				D_Minister_Allowed = yes
				NOT = { has_country_flag = Muhammad_Ayub_Khan_unavailable }
			}
			
			
			traits = { ideology_D HoG_Silent_Workhorse }
		}
	# Mohammad Ali Jinnah
		PAK_HoG_Mohammad_Ali_Jinnah = {
			picture = Mohammad_Ali_Jinnah
			allowed = { tag = PAK }
			available = {
				date > 1933.1.1
				date < 1964.1.1
				D_Minister_Allowed = yes
				NOT = { has_country_flag = Mohammad_Ali_Jinnah_unavailable }
			}
			
			
			traits = { ideology_D HoG_Flamboyant_Tough_Guy }
		}
	# Liaquat Ali Khan
		PAK_HoG_Liaquat_Ali_Khan = {
			picture = Liaquat_Ali_Khan
			allowed = { tag = PAK }
			available = {
				date > 1947.1.1
				date < 1964.1.1
				D_Minister_Allowed = yes
				NOT = { has_country_flag = Liaquat_Ali_Khan_unavailable }
			}
			
			
			traits = { ideology_D HoG_Backroom_Backstabber }
		}
	# Khwaja Nazimuddin
		PAK_HoG_Khwaja_Nazimuddin = {
			picture = Khwaja_Nazimuddin
			allowed = { tag = PAK }
			available = {
				date > 1947.1.1
				date < 1964.1.1
				D_Minister_Allowed = yes
				NOT = { has_country_flag = Khwaja_Nazimuddin_unavailable }
			}
			
			
			traits = { ideology_D HoG_Corporate_Suit }
		}
	# Mohammad Ali Bogra
		PAK_HoG_Mohammad_Ali_Bogra = {
			picture = Mohammad_Ali_Bogra
			allowed = { tag = PAK }
			available = {
				date > 1953.1.1
				date < 1964.1.1
				D_Minister_Allowed = yes
				NOT = { has_country_flag = Mohammad_Ali_Bogra_unavailable }
			}
			
			
			traits = { ideology_D HoG_Ambitious_Union_Boss }
		}
	# Zulfikar Ali Bhutto
		PAK_HoG_Zulfikar_Ali_Bhutto = {
			picture = Zulfikar_Ali_Bhutto
			allowed = { tag = PAK }
			available = {
				date > 1971.1.1
				date < 1980.1.1
				D_Minister_Allowed = yes
				NOT = { has_country_flag = Zulfikar_Ali_Bhutto_unavailable }
			}
			
			
			traits = { ideology_D HoG_Old_General }
		}
	# Benazir Bhutto
		PAK_HoG_Benazir_Bhutto = {
			picture = Benazir_Bhutto
			allowed = { tag = PAK }
			available = {
				date > 1980.1.1
				date < 2008.1.1
				D_Minister_Allowed = yes
				NOT = { has_country_flag = Benazir_Bhutto_unavailable }
			}
			
			
			traits = { ideology_D HoG_Ambitious_Union_Boss }
		}
}
#################################################
### Foreign Minister
#################################################
	Foreign_Minister = {
	# H.H. Nwanm Khan Jorawar
		PAK_FM_HH_Nwanm_Khan_Jorawar = {
			picture = HH_Nwanm_Khan_Jorawar
			allowed = { tag = PAK }
			available = {
				date > 1933.1.1
				date < 1964.1.1
				A_Minister_Allowed = yes
				NOT = { has_country_flag = HH_Nwanm_Khan_Jorawar_unavailable }
			}
			
			
			traits = { ideology_A FM_Ideological_Crusader }
		}
	# Yaqub Ali Khan
		PAK_FM_Yaqub_Ali_Khan = {
			picture = Yaqub_Ali_Khan
			allowed = { tag = PAK }
			available = {
				date > 1980.1.1
				date < 2020.1.1
				D_Minister_Allowed = yes
				NOT = { has_country_flag = Yaqub_Ali_Khan_unavailable }
			}
			
			
			traits = { ideology_D FM_Great_Compromiser }
		}
	# Sir Bertrand Glancy
		PAK_FM_Sir_Bertrand_Glancy = {
			picture = Sir_Bertrand_Glancy
			allowed = { tag = PAK }
			available = {
				date > 1933.1.1
				date < 1964.1.1
				D_Minister_Allowed = yes
				NOT = { has_country_flag = Sir_Bertrand_Glancy_unavailable }
			}
			
			
			traits = { ideology_D FM_Great_Compromiser }
		}
	# Liaquat Ali Khan
		PAK_FM_Liaquat_Ali_Khan = {
			picture = Liaquat_Ali_Khan
			allowed = { tag = PAK }
			available = {
				date > 1933.1.1
				date < 1964.1.1
				D_Minister_Allowed = yes
				NOT = { has_country_flag = Liaquat_Ali_Khan_unavailable }
			}
			
			
			traits = { ideology_D FM_The_Cloak_N_Dagger_Schemer }
		}
	# Mohammed Ayub Khan
		PAK_FM_Mohammed_Ayub_Khan = {
			picture = Mohammed_Ayub_Khan
			allowed = { tag = PAK }
			available = {
				date > 1946.1.1
				date < 1964.1.1
				D_Minister_Allowed = yes
				NOT = { has_country_flag = Mohammed_Ayub_Khan_unavailable }
			}
			
			
			traits = { ideology_D FM_General_Staffer }
		}
	# Chaudry Mohammad Ali
		PAK_FM_Chaudry_Mohammad_Ali = {
			picture = Chaudry_Mohammad_Ali
			allowed = { tag = PAK }
			available = {
				date > 1951.1.1
				date < 1964.1.1
				D_Minister_Allowed = yes
				NOT = { has_country_flag = Chaudry_Mohammad_Ali_unavailable }
			}
			
			
			traits = { ideology_D FM_Biased_Intellectual }
		}
	# Husain Suhrawandy
		PAK_FM_Husain_Suhrawandy = {
			picture = Husain_Suhrawandy
			allowed = { tag = PAK }
			available = {
				date > 1953.1.1
				date < 1964.1.1
				D_Minister_Allowed = yes
				NOT = { has_country_flag = Husain_Suhrawandy_unavailable }
			}
			
			
			traits = { ideology_D FM_Apologetic_Clerk }
		}
	# Benazir Bhutto
		PAK_FM_Benazir_Bhutto = {
			picture = Benazir_Bhutto
			allowed = { tag = PAK }
			available = {
				date > 1980.1.1
				date < 2008.1.1
				D_Minister_Allowed = yes
				NOT = { has_country_flag = Benazir_Bhutto_unavailable }
			}
			
			
			traits = { ideology_D FM_Great_Compromiser }
		}
}
#################################################
### Minister of Security
#################################################
	Minister_of_Security = {
	# H.H. Muzaffar ul-Mulk
		PAK_MoS_HH_Muzaffar_ulMulk = {
			picture = HH_Muzaffar_ulMulk
			allowed = { tag = PAK }
			available = {
				date > 1933.1.1
				date < 1964.1.1
				A_Minister_Allowed = yes
				NOT = { has_country_flag = HH_Muzaffar_ulMulk_unavailable }
			}
			
			
			traits = { ideology_A MoS_Back_Stabber }
		}
	# Sardar Farooq Khan
		PAK_MoS_Sardar_Farooq_Khan = {
			picture = Sardar_Farooq_Khan
			allowed = { tag = PAK }
			available = {
				date > 1980.1.1
				date < 2011.1.1
				A_Minister_Allowed = yes
				NOT = { has_country_flag = Sardar_Farooq_Khan_unavailable }
			}
			
			
			traits = { ideology_A MoS_Crooked_Kleptocrat }
		}
	# Herbert William Emerson
		PAK_MoS_Herbert_William_Emerson = {
			picture = Herbert_William_Emerson
			allowed = { tag = PAK }
			available = {
				date > 1933.1.1
				date < 1964.1.1
				D_Minister_Allowed = yes
				NOT = { has_country_flag = Herbert_William_Emerson_unavailable }
			}
			
			
			traits = { ideology_D MoS_Prince_Of_Terror }
		}
	# Evan Meredith Jenkins
		PAK_MoS_Evan_Meredith_Jenkins = {
			picture = Evan_Meredith_Jenkins
			allowed = { tag = PAK }
			available = {
				date > 1943.1.1
				date < 1964.1.1
				D_Minister_Allowed = yes
				NOT = { has_country_flag = Evan_Meredith_Jenkins_unavailable }
			}
			
			
			traits = { ideology_D MoS_Compassionate_Gentleman }
		}
	# Agha Nek Mohammad
		PAK_MoS_Agha_Nek_Mohammad = {
			picture = Agha_Nek_Mohammad
			allowed = { tag = PAK }
			available = {
				date > 1980.1.1
				date < 2005.1.1
				D_Minister_Allowed = yes
				NOT = { has_country_flag = Agha_Nek_Mohammad_unavailable }
			}
			
			
			traits = { ideology_D MoS_Crime_Fighter }
		}
	# Liaquat Ali Khan
		PAK_MoS_Liaquat_Ali_Khan = {
			picture = Liaquat_Ali_Khan
			allowed = { tag = PAK }
			available = {
				date > 1933.1.1
				date < 1964.1.1
				D_Minister_Allowed = yes
				NOT = { has_country_flag = Liaquat_Ali_Khan_unavailable }
			}
			
			
			traits = { ideology_D MoS_Efficient_Sociopath }
		}
	# Abdul Badshah Khan
		PAK_MoS_Abdul_Badshah_Khan = {
			picture = Abdul_Badshah_Khan
			allowed = { tag = PAK }
			available = {
				date > 1944.1.1
				date < 1964.1.1
				D_Minister_Allowed = yes
				NOT = { has_country_flag = Abdul_Badshah_Khan_unavailable }
			}
			
			
			traits = { ideology_D MoS_Man_Of_The_People }
		}
	# Moulvi Tamizaddin Khan
		PAK_MoS_Moulvi_Tamizaddin_Khan = {
			picture = Moulvi_Tamizaddin_Khan
			allowed = { tag = PAK }
			available = {
				date > 1951.1.1
				date < 1964.1.1
				D_Minister_Allowed = yes
				NOT = { has_country_flag = Moulvi_Tamizaddin_Khan_unavailable }
			}
			
			
			traits = { ideology_D MoS_Silent_Lawyer }
		}
}
#################################################
### Armaments Minister
#################################################
	Armaments_Minister = {
	# Mehtar Saif ur-Rahman
		PAK_AM_Mehtar_Saif_urRahman = {
			picture = Mehtar_Saif_urRahman
			allowed = { tag = PAK }
			available = {
				date > 1933.1.1
				date < 1964.1.1
				A_Minister_Allowed = yes
				NOT = { has_country_flag = Mehtar_Saif_urRahman_unavailable }
			}
			
			
			traits = { ideology_A AM_Resource_Industrialist }
		}
	# Ghulam Ishaq Khan
		PAK_AM_Ghulam_Ishaq_Khan = {
			picture = Ghulam_Ishaq_Khan
			allowed = { tag = PAK }
			available = {
				date > 1980.1.1
				date < 2007.1.1
				D_Minister_Allowed = yes
				NOT = { has_country_flag = Ghulam_Ishaq_Khan_unavailable }
			}
			
			
			traits = { ideology_D AM_Administrative_Genius }
		}
	# Albert E. Clutterbuck
		PAK_AM_Albert_E_Clutterbuck = {
			picture = Albert_E_Clutterbuck
			allowed = { tag = PAK }
			available = {
				date > 1933.1.1
				date < 1964.1.1
				D_Minister_Allowed = yes
				NOT = { has_country_flag = Albert_E_Clutterbuck_unavailable }
			}
			
			
			traits = { ideology_D AM_Corrupt_Kleptocrat }
		}
	# Francis Edgar Kearney
		PAK_AM_Francis_Edgar_Kearney = {
			picture = Francis_Edgar_Kearney
			allowed = { tag = PAK }
			available = {
				date > 1940.1.1
				date < 1964.1.1
				D_Minister_Allowed = yes
				NOT = { has_country_flag = Francis_Edgar_Kearney_unavailable }
			}
			
			
			traits = { ideology_D AM_Military_Entrepreneur }
		}
	# Dr. Zakir Husain
		PAK_AM_Dr_Zakir_Husain = {
			picture = Dr_Zakir_Husain
			allowed = { tag = PAK }
			available = {
				date > 1933.1.1
				date < 1964.1.1
				D_Minister_Allowed = yes
				NOT = { has_country_flag = Dr_Zakir_Husain_unavailable }
			}
			
			
			traits = { ideology_D AM_Theoretical_Scientist }
		}
	# Zahid Hussain
		PAK_AM_Zahid_Hussain = {
			picture = Zahid_Hussain
			allowed = { tag = PAK }
			available = {
				date > 1941.1.1
				date < 1964.1.1
				D_Minister_Allowed = yes
				NOT = { has_country_flag = Zahid_Hussain_unavailable }
			}
			
			
			traits = { ideology_D AM_Administrative_Genius }
		}
	# Abdul Wahab Khan
		PAK_AM_Abdul_Wahab_Khan = {
			picture = Abdul_Wahab_Khan
			allowed = { tag = PAK }
			available = {
				date > 1952.1.1
				date < 1964.1.1
				D_Minister_Allowed = yes
				NOT = { has_country_flag = Abdul_Wahab_Khan_unavailable }
			}
			
			
			traits = { ideology_D AM_Infantry_Proponent }
		}
}
#################################################
### Head of Intelligence
#################################################
	Head_of_Intelligence = {
	# Lord Edward Gleichen
		PAK_HoI_Lord_Edward_Gleichen = {
			picture = Lord_Edward_Gleichen
			allowed = { tag = PAK }
			available = {
				date > 1933.1.1
				date < 1964.1.1
				A_Minister_Allowed = yes
				NOT = { has_country_flag = Lord_Edward_Gleichen_unavailable }
			}
			
			
			traits = { ideology_A HoI_Dismal_Enigma }
		}
	# Akhtar Abdur Rahman
		PAK_HoI_Akhtar_Abdur_Rahman = {
			picture = Akhtar_Abdur_Rahman
			allowed = { tag = PAK }
			available = {
				date > 1980.1.1
				date < 1989.1.1
				A_Minister_Allowed = yes
				NOT = { has_country_flag = Akhtar_Abdur_Rahman_unavailable }
			}
			
			
			traits = { ideology_A HoI_Logistics_Specialist }
		}
	# Frederick Gough-Calthorpe
		PAK_HoI_Frederick_GoughCalthorpe = {
			picture = Frederick_GoughCalthorpe
			allowed = { tag = PAK }
			available = {
				date > 1933.1.1
				date < 1964.1.1
				D_Minister_Allowed = yes
				NOT = { has_country_flag = Frederick_GoughCalthorpe_unavailable }
			}
			
			
			traits = { ideology_D HoI_Industrial_Specialist }
		}
	# Wilfred Hart-Sugden
		PAK_HoI_Wilfred_HartSugden = {
			picture = Wilfred_HartSugden
			allowed = { tag = PAK }
			available = {
				date > 1941.1.1
				date < 1964.1.1
				D_Minister_Allowed = yes
				NOT = { has_country_flag = Wilfred_HartSugden_unavailable }
			}
			
			
			traits = { ideology_D HoI_Naval_Intelligence_Specialist }
		}
	# Agha Nek Mohammad
		PAK_HoI_Agha_Nek_Mohammad = {
			picture = Agha_Nek_Mohammad
			allowed = { tag = PAK }
			available = {
				date > 1980.1.1
				date < 2005.1.1
				D_Minister_Allowed = yes
				NOT = { has_country_flag = Agha_Nek_Mohammad_unavailable }
			}
			
			
			traits = { ideology_D HoI_Political_Specialist }
		}
	# Ifthqar Husain Memdoot
		PAK_HoI_Ifthqar_Husain_Memdoot = {
			picture = Ifthqar_Husain_Memdoot
			allowed = { tag = PAK }
			available = {
				date > 1933.1.1
				date < 1964.1.1
				D_Minister_Allowed = yes
				NOT = { has_country_flag = Ifthqar_Husain_Memdoot_unavailable }
			}
			
			
			traits = { ideology_D HoI_Industrial_Specialist }
		}
	# Abdul Wahab Khan
		PAK_HoI_Abdul_Wahab_Khan = {
			picture = Abdul_Wahab_Khan
			allowed = { tag = PAK }
			available = {
				date > 1949.1.1
				date < 1964.1.1
				D_Minister_Allowed = yes
				NOT = { has_country_flag = Abdul_Wahab_Khan_unavailable }
			}
			
			
			traits = { ideology_D HoI_Logistics_Specialist }
		}
}
#################################################
### Chief of Staff
#################################################
	Chief_of_Staff = {
	# H.H. Shriman VIII Maharaja of Kashmir
		PAK_CoStaff_HH_Shriman_VIII_Maharaja_of_Kashmir = {
			picture = HH_Shriman_VIII_Maharaja_of_Kashmir
			allowed = { tag = PAK }
			available = {
				date > 1933.1.1
				date < 1964.1.1
				A_Minister_Allowed = yes
				NOT = { has_country_flag = HH_Shriman_VIII_Maharaja_of_Kashmir_unavailable }
			}
			
			
			traits = { ideology_A CoStaff_School_Of_Mass_Combat }
		}
	# Mirza Aslam Beg
		PAK_CoStaff_Mirza_Aslam_Beg = {
			picture = Mirza_Aslam_Beg
			allowed = { tag = PAK }
			available = {
				date > 1962.1.1
				date < 1964.1.1
				A_Minister_Allowed = yes
				NOT = { has_country_flag = Mirza_Aslam_Beg_unavailable }
			}
			
			
			traits = { ideology_A CoStaff_School_Of_Psychology }
		}
	# Mirza Aslam Beg
		PAK_CoStaff_Mirza_Aslam_Beg_2 = {
			picture = Mirza_Aslam_Beg_2
			allowed = { tag = PAK }
			available = {
				date > 1962.1.1
				date < 1964.1.1
				D_Minister_Allowed = yes
				NOT = { has_country_flag = Mirza_Aslam_Beg_unavailable }
			}
			
			
			traits = { ideology_D CoStaff_School_Of_Psychology }
		}
	# Rahimuddin Khan
		PAK_CoStaff_Rahimuddin_Khan = {
			picture = Rahimuddin_Khan
			allowed = { tag = PAK }
			available = {
				date > 1980.1.1
				date < 2020.1.1
				D_Minister_Allowed = yes
				NOT = { has_country_flag = Rahimuddin_Khan_unavailable }
			}
			
			
			traits = { ideology_D CoStaff_School_Of_Fire_Support }
		}
	# Wallace Duffield Wright
		PAK_CoStaff_Wallace_Duffield_Wright = {
			picture = Wallace_Duffield_Wright
			allowed = { tag = PAK }
			available = {
				date > 1933.1.1
				date < 1964.1.1
				D_Minister_Allowed = yes
				NOT = { has_country_flag = Wallace_Duffield_Wright_unavailable }
			}
			
			
			traits = { ideology_D CoStaff_School_Of_Defence }
		}
	# Sir Skindher Hitay Khan
		PAK_CoStaff_Sir_Skindher_Hitay_Khan = {
			picture = Sir_Skindher_Hitay_Khan
			allowed = { tag = PAK }
			available = {
				date > 1933.1.1
				date < 1964.1.1
				D_Minister_Allowed = yes
				NOT = { has_country_flag = Sir_Skindher_Hitay_Khan_unavailable }
			}
			
			
			traits = { ideology_D CoStaff_School_Of_Psychology }
		}
	# Muhammad Yahya Khan
		PAK_CoStaff_Muhammad_Yahya_Khan = {
			picture = Muhammad_Yahya_Khan
			allowed = { tag = PAK }
			available = {
				date > 1945.1.1
				date < 1964.1.1
				D_Minister_Allowed = yes
				NOT = { has_country_flag = Muhammad_Yahya_Khan_unavailable }
			}
			
			
			traits = { ideology_D CoStaff_School_Of_Fire_Support }
		}
}
#################################################
### Chief of Army
#################################################
	Chief_of_Army = {
	# Rukn Nawab ud-Duala
		PAK_CoArmy_Rukn_Nawab_udDuala = {
			picture = Rukn_Nawab_udDuala
			allowed = { tag = PAK }
			available = {
				date > 1933.1.1
				date < 1964.1.1
				A_Minister_Allowed = yes
				NOT = { has_country_flag = Rukn_Nawab_udDuala_unavailable }
			}
			
			
			traits = { ideology_A CoArmy_Decisive_Battle_Doctrine }
		}
	# Mirza Aslam Beg
		PAK_CoArmy_Mirza_Aslam_Beg = {
			picture = Mirza_Aslam_Beg
			allowed = { tag = PAK }
			available = {
				date > 1980.1.1
				date < 2020.1.1
				A_Minister_Allowed = yes
				NOT = { has_country_flag = Mirza_Aslam_Beg_unavailable }
			}
			
			
			traits = { ideology_A CoArmy_Armoured_Spearhead_Doctrine }
		}
	# B.G.E. Dyer
		PAK_CoArmy_BGE_Dyer = {
			picture = BGE_Dyer
			allowed = { tag = PAK }
			available = {
				date > 1933.1.1
				date < 1964.1.1
				D_Minister_Allowed = yes
				NOT = { has_country_flag = BGE_Dyer_unavailable }
			}
			
			
			traits = { ideology_D CoArmy_Static_Defence_Doctrine }
		}
	# Muhammad Ayub Khan
		PAK_CoArmy_Muhammad_Ayub_Khan = {
			picture = Muhammad_Ayub_Khan
			allowed = { tag = PAK }
			available = {
				date > 1933.1.1
				date < 1964.1.1
				D_Minister_Allowed = yes
				NOT = { has_country_flag = Muhammad_Ayub_Khan_unavailable }
			}
			
			
			traits = { ideology_D CoArmy_Elastic_Defence_Doctrine }
		}
	# Muhammad Yahya Khan
		PAK_CoArmy_Muhammad_Yahya_Khan = {
			picture = Muhammad_Yahya_Khan
			allowed = { tag = PAK }
			available = {
				date > 1945.1.1
				date < 1964.1.1
				D_Minister_Allowed = yes
				NOT = { has_country_flag = Muhammad_Yahya_Khan_unavailable }
			}
			
			
			traits = { ideology_D CoArmy_Armoured_Spearhead_Doctrine }
		}
}
#################################################
### Chief of Navy
#################################################
	Chief_of_Navy = {
	# John Talbot-Savignac-Hall
		PAK_CoNavy_John_TalbotSavignacHall = {
			picture = John_TalbotSavignacHall
			allowed = { tag = PAK }
			available = {
				date > 1933.1.1
				date < 1964.1.1
				D_Minister_Allowed = yes
				NOT = { has_country_flag = John_TalbotSavignacHall_unavailable }
			}
			
			
			traits = { ideology_D CoNavy_Indirect_Approach_Doctrine }
		}
	# Tariq Kamal Khan
		PAK_CoNavy_Tariq_Kamal_Khan = {
			picture = Tariq_Kamal_Khan
			allowed = { tag = PAK }
			available = {
				date > 1980.1.1
				date < 2020.1.1
				D_Minister_Allowed = yes
				NOT = { has_country_flag = Tariq_Kamal_Khan_unavailable }
			}
			
			
			traits = { ideology_D CoNavy_Power_Projection_Doctrine }
		}
	# Ali Rehman Khan
		PAK_CoNavy_Ali_Rehman_Khan = {
			picture = Ali_Rehman_Khan
			allowed = { tag = PAK }
			available = {
				date > 1933.1.1
				date < 1964.1.1
				D_Minister_Allowed = yes
				NOT = { has_country_flag = Ali_Rehman_Khan_unavailable }
			}
			
			
			traits = { ideology_D CoNavy_Base_Control_Doctrine }
		}
	# H.H. Diwan III Nawab Khanji
		PAK_CoNavy_HH_Diwan_III_Nawab_Khanji = {
			picture = HH_Diwan_III_Nawab_Khanji
			allowed = { tag = PAK }
			available = {
				date > 1933.1.1
				date < 1964.1.1
				D_Minister_Allowed = yes
				NOT = { has_country_flag = HH_Diwan_III_Nawab_Khanji_unavailable }
			}
			
			
			traits = { ideology_D CoNavy_Open_Seas_Doctrine }
		}
}
#################################################
### Chief of Airforce
#################################################
	Chief_of_Airforce = {
	# H.H. Ahmad ul-Mulk
		PAK_CoAir_HH_Ahmad_ulMulk = {
			picture = HH_Ahmad_ulMulk
			allowed = { tag = PAK }
			available = {
				date > 1933.1.1
				date < 1964.1.1
				A_Minister_Allowed = yes
				NOT = { has_country_flag = HH_Ahmad_ulMulk_unavailable }
			}
			
			
			traits = { ideology_A CoAir_Carpet_Bombing_Doctrine }
		}
	# Gerald Hendrickson
		PAK_CoAir_Gerald_Hendrickson = {
			picture = Gerald_Hendrickson
			allowed = { tag = PAK }
			available = {
				date > 1933.1.1
				date < 1964.1.1
				D_Minister_Allowed = yes
				NOT = { has_country_flag = Gerald_Hendrickson_unavailable }
			}
			
			
			traits = { ideology_D CoAir_Naval_Aviation_Doctrine }
		}
	# Muhammad Anwar Shamim
		PAK_CoAir_Muhammad_Anwar_Shamim = {
			picture = Muhammad_Anwar_Shamim
			allowed = { tag = PAK }
			available = {
				date > 1980.1.1
				date < 2014.1.1
				D_Minister_Allowed = yes
				NOT = { has_country_flag = Muhammad_Anwar_Shamim_unavailable }
			}
			
			
			traits = { ideology_D CoAir_Air_Superiority_Doctrine }
		}
	# Asghar Khan
		PAK_CoAir_Asghar_Khan = {
			picture = Asghar_Khan
			allowed = { tag = PAK }
			available = {
				date > 1933.1.1
				date < 1964.1.1
				D_Minister_Allowed = yes
				NOT = { has_country_flag = Asghar_Khan_unavailable }
			}
			
			
			traits = { ideology_D CoAir_Vertical_Envelopment_Doctrine }
		}
	}
}
