state={
	id=1006
	name="STATE_1006"
	
    history={
		owner = MAL
		victory_points = {
			12199 2
		}
		buildings = {
			infrastructure = 3
			12199 = {
				naval_base = 1

			}

		}
		add_core_of = MAL
		1942.11.22 = {
			controller = JAP

		}
		1944.6.20 = {
			controller = SIA

		}
		1946.1.1 = {
			controller = MAL

		}

	}
	
	provinces={
		4355 7329 12199 13308 
	}
	manpower=314964
	buildings_max_level_factor=1.000
	state_category=rural
}
