state={
	id=1017
	name="STATE_1017"
	
	history={
		owner = IRQ
		victory_points = {
			13321 2
		}
		buildings = {
			infrastructure = 3

		}
		add_core_of = IRQ

	}
	
	provinces={
		13321 
	}
	manpower=81539
	buildings_max_level_factor=1.000
	state_category=rural
}
