
state={
	id=104
	name="STATE_104"
	resources={
		aluminium=7.000
		steel=5.000
	}

	history={
		owner = YUG
		victory_points = {
			11899 5 
		}
		victory_points = {
			6799 2 
		}
		victory_points = {
			13602 1 
		}
		buildings = {
			infrastructure = 5
			industrial_complex = 2
			air_base = 2

		}
		add_core_of = YUG
		add_core_of = BOS
		1941.6.22 = {
			owner = CRO

		}
		1946.1.1 = {
			owner = YUG

		}
		2000.1.1 = {
			owner = BOS
			remove_core_of = YUG

		}

	}

	provinces={
		6799 11899 13602 
	}
	manpower=1857400
	buildings_max_level_factor=1.000
	state_category=town
}
