state={
	id=1041
	name="STATE_1041"
	
	history={
		owner = SWI
		victory_points = {
			663 10 
		}
		victory_points = {
			11623 2
		}
		victory_points = {
			13370 1
		}
		buildings = {
			infrastructure = 6
			industrial_complex = 1
			arms_factory = 1

		}
		add_core_of = SWI

	}
	
	provinces={
		661 663 11601 11623 13369 13370 13372 
	}
	manpower=1520968
	buildings_max_level_factor=1.000
	state_category=city
}
