state={
	id=1055
	name="STATE_1055"
	
	history={
		owner = SAF
		victory_points = {
		    2207 1
		}
		victory_points = {
		    2229 1
		}
		buildings = {
			infrastructure = 2

		}
		add_core_of = NAM
    }

	provinces={
		2207 2229 13442 13443 13444 13445 13446 13447 13448 13450 13451 
	}
	manpower=79000
	buildings_max_level_factor=1.000
	state_category=pastoral
}
