state={
	id=1062
	name="STATE_1062"
	
	history={
		owner = FRA
		victory_points = {
			13494 2
		}
		victory_points = {
			12956 1
		}
		victory_points = {
			13492 1
		}
		buildings = {
			infrastructure = 3
			12956 = {
				naval_base = 1

			}

		}
		add_core_of = MAD
		1972.1.1 = {
			owner = MAD

		}

	}
	
	provinces={
		2200 8180 8246 10993 12956 13492 13493 13494 13495 
	}
	manpower=3366291
	buildings_max_level_factor=1.000
	state_category=rural
}
