state={
	id=1072
	name="STATE_1072"
	
	history={
		owner = EGY
		buildings = {
			infrastructure = 1

		}
		add_core_of = EGY
		1972.1.1 = {
			owner = ISR

		}
		1980.1.1 = {
			owner = EGY

		}

	}
	
	provinces={
		13586 
	}
	manpower=1
	buildings_max_level_factor=1.000
	state_category=tiny_island
}
