state={
	id=1147
	name="STATE_1147"
	
	history={
		owner = ENG
		buildings = {
			infrastructure = 1

		}
		add_core_of = GUY
		add_claim_by = HOL
		1972.1.1 = {
			owner = GUY
			
		}
		1980.1.1 = {
			remove_claim_by = HOL
			add_claim_by = SUR
			
		}

	}
	
	provinces={
		12926 
	}
	manpower=600
	buildings_max_level_factor=1.000
	state_category=enclave
}
