
state={
	id=1175
	name="STATE_1175"

	history={
		owner = POL
		victory_points = {
			13219 2
		}
		buildings = {
			infrastructure = 5

		}
		add_core_of = POL
		1940.5.10 = {
			controller = GER

		}
		1946.1.1 = {
			controller = POL

		}

	}

	provinces={
		9412 13219 13659
	}
	manpower=153390
	buildings_max_level_factor=1.000
	state_category=pastoral
}
