
state={
	id=1177
	name="STATE_1177"

	history={
		owner = FRA
		victory_points = {
			7919 2 
		}
		victory_points = {
			1993 1 
		}
		buildings = {
			infrastructure = 2

		}
		add_core_of = CHA
		1972.1.1 = {
			owner = CHA

		}

	}

	provinces={
		1883 1993 7919 13839 
	}
	manpower=137929
	buildings_max_level_factor=1.000
	state_category=rural
}
