state={
	id=1239
	name="STATE_1239"

	history={
		owner = ENG
		victory_points = {
			5210 3
		}
		victory_points = {
			14035 2
		}
		buildings = {
			infrastructure = 3
			5210 = {
				naval_base = 2

			}

		}
		add_core_of = KEN
		1972.1.1 = {
			owner = KEN

		}

	}

	provinces={
		5210 14034 14035 14037 
	}
	manpower=1208333
	buildings_max_level_factor=1.000
	state_category=rural
}
