state={
	id=1256
	name="STATE_1256"
	resources={
		oil=1.000
	}
	history={
		owner = IRQ
		victory_points = {
			10811 2 
		}
		buildings = {
			infrastructure = 3

		}
		add_core_of = IRQ
		add_core_of = KUR
		add_core_of = ASY

	}

	provinces={
		10811 13346 
	}
	manpower=1292535
	buildings_max_level_factor=1.000
	state_category=rural
}
