state={
	id=1267
	name="STATE_1267"

	history={
		owner = TUR
		buildings = {
			infrastructure = 4
			arms_factory = 1

		}
		add_core_of = TUR
		set_demilitarized_zone = yes
		1939.9.1 = {
			set_demilitarized_zone = no

		}

	}

	provinces={
		11829 
	}
	manpower=1820086
	buildings_max_level_factor=1.000
	state_category=town
}
