
state={
	id=1275
	name="STATE_1275"

	history={
		owner = ENG
		buildings = {
			infrastructure = 3

		}
		add_core_of = SUD
		1960.1.1 = {
			owner = SUD

		}

	}

	provinces={
		14153 14161 14182 
	}
	manpower=832112
	buildings_max_level_factor=1.000
	state_category=pastoral
}
