state={
	id=1280
	name="STATE_1280"

	history={
		owner = ENG
		victory_points = {
			12725 3
		}
		buildings = {
			infrastructure = 2
			12725 = {
				naval_base = 3

			}

		}
		add_core_of = SUD
		1960.1.1 = {
			owner = SUD

		}

	}

	provinces={
		1977 2003 2046 7989 10902 12725 
	}
	manpower=489725
	buildings_max_level_factor=1.000
	state_category=town
}
