state={
	id=1283
	name="STATE_1283"

	history={
		owner = ENG
		buildings = {
			infrastructure = 2
			14184 = {
				naval_base = 2
				coastal_bunker = 1

			}

		}
		add_core_of = IRE
		1939.1.1 = {
			owner = IRE

		}

	}

	provinces={
		14184 
	}
	manpower=1000
	buildings_max_level_factor=1.000
	state_category=enclave
}
