
state={
	id=1288
	name="STATE_1288"

	history={
		owner = CAN
		buildings = {
			infrastructure = 2

		}
		add_core_of = CAN
		add_core_of = QUE

	}

	provinces={
		4769 7683 7807 7810 7893 10534 10715 14210 14211 
	}
	manpower=92518
	buildings_max_level_factor=1.000
	state_category=pastoral
}
