state={
	id=1295
	name="STATE_1295"

	history={
		owner = DEI
		victory_points = {
			10135 3
		}
		buildings = {
			infrastructure = 4

		}
		add_core_of = INS
		1942.11.22 = {
			controller = JAP

		}
		1946.1.1 = {
			controller = DEI

		}

	}

	provinces={
		10135 
	}
	manpower=3594290
	buildings_max_level_factor=1.000
	state_category=rural
}
