
state={
	id=133
	name="STATE_133"

	history={
		owner = ENG
		buildings = {
			infrastructure = 3

		}
		add_core_of = ENG
		add_core_of = SCO
	}

	provinces={
		6062 13732 13733 
	}
	manpower=45778
	buildings_max_level_factor=1.000
	state_category=pastoral
}
