state={
	id=1344
	name="STATE_1344"

	history={
		owner = RAJ
		victory_points = {
			4616 3
		}
		victory_points = {
			10416 2
		}
		buildings = {
			infrastructure = 3

		}
		add_core_of = PAK
		add_core_of = RAJ
		add_core_of = BAN
		1950.1.1 = {
			owner = PAK
			remove_core_of = RAJ

		}
		1972.1.1 = {
			owner = BAN
			remove_core_of = PAK

		}

	}

	provinces={
		4616 7662 10416 10443 
	}
	manpower=1500000
	buildings_max_level_factor=1.000
	state_category=rural
}
