state={
	id=1347
	name="STATE_1347"

	history={
		owner = POR
		victory_points = {
		    12958 3
		}
		victory_points = {
		    10966 3
		}
		buildings = {
			infrastructure = 2

		}
		add_core_of = ANG
		1980.1.1 = {
			owner = ANG

		}

	}

	provinces={
		5158 10966 12958 14354 14357 14358 14361 
	}
	manpower=2019555
	buildings_max_level_factor=1.000
	state_category=rural
}
