state={
	id=1351
	name="STATE_1351"

	history={
		owner = SOV
		victory_points = {
			3668 3
		}
		victory_points = {
			3682 2
		}
		buildings = {
			infrastructure = 4

		}
		add_core_of = SOV
		add_core_of = DAG

	}

	provinces={
		700 712 728 1450 3668 3682 3711 4463 6689 6701 6730 6748 7554 7624 9645 
	}
	manpower=2910249
	buildings_max_level_factor=1.000
	state_category=rural
}
