state={
	id=1354
	name="STATE_1354"

	history={
		owner = SOV
		victory_points = {
			14366 2
		}
		buildings = {
			infrastructure = 3

		}
		add_core_of = SOV
		add_core_of = ING

	}

	provinces={
		11609 14366 
	}
	manpower=412529
	buildings_max_level_factor=1.000
	state_category=pastoral
}
