state={
	id=1362
	name="STATE_1362"

	history={
		owner = RAJ
		victory_points = {
			14389 5
		}
		buildings = {
			infrastructure = 4

		}
		add_core_of = RAJ
		add_core_of = PAK
		1950.1.1 = {
			owner = PAK
			remove_core_of = RAJ

		}

	}

	provinces={
		14389 
	}
	manpower=1014825
	buildings_max_level_factor=1.000
	state_category=town
}
