state={
	id=1390
	name="STATE_1390"

	history={
		owner = BRA
		victory_points = {
			5216 2
		}
		buildings = {
			infrastructure = 2

		}
		add_core_of = BRA

	}

	provinces={
		5216 14494 14496 
	}
	manpower=733559
	buildings_max_level_factor=1.000
	state_category=pastoral
}
