state={
	id=1393
	name="STATE_1393"

	history={
		owner = BRA
		victory_points = {
			12853 2
		}
		buildings = {
			infrastructure = 2
			12853 = {
				naval_base = 2

			}

		}
		add_core_of = BRA

	}

	provinces={
		2035 2214 5008 8172 10874 10956 12853 12999 14495 14503 14508 14510 
	}
	manpower=7581051
	buildings_max_level_factor=1.000
	state_category=pastoral
}
