state={
	id=1415
	name="STATE_1415"

	history={
		owner = ENG
		victory_points = {
			14562 2
		}
		buildings = {
			infrastructure = 3

		}
		add_core_of = NGA
		1972.1.1 = {
			owner = NGA

		}

	}

	provinces={
		1932 12817 14558 14561 14562 14565 
	}
	manpower=3954772
	buildings_max_level_factor=1.000
	state_category=rural
}
