state={
	id=1430
	name="STATE_1430"

	history={
		owner = PRU
		set_compliance = 25
		victory_points = {
			14603 1
		}
		buildings = {
			infrastructure = 1

		}
		add_core_of = COL
		add_claim_by = PRU
		1936.1.1 = {
			owner = COL
			remove_claim_by = PRU
		
		}

	}

	provinces={
		14603 
	}
	manpower=48144
	buildings_max_level_factor=1.000
	state_category=wasteland
}
