
state={
	id=1455
	name="STATE_1455"

	history={
		owner = PHI
		victory_points = {
			1261 3 
		}
		buildings = {
			infrastructure = 3

		}
		add_core_of = PHI
		1942.11.22 = {
			controller = JAP

		}
		1946.1.1 = {
			controller = PHI

		}

	}

	provinces={
		1261 10186 12112 
	}
	manpower=1354995
	buildings_max_level_factor=1.000
	state_category=rural
}
