state={
	id=1514
	name="STATE_1514"

	history={
		owner = USA
		victory_points = {
			3834 5 
		}
		victory_points = {
			10783 1 
		}
		buildings = {
			infrastructure = 4

		}
		add_core_of = USA

	}

	provinces={
		3834 7920 10783 
	}
	manpower=58366
	buildings_max_level_factor=1.000
	state_category=pastoral
}
