state={
	id=1519
	name="STATE_1519"

	history={
		owner = RAJ
		victory_points = {
			10729 5
		}
		victory_points = {
			14954 3
		}
		victory_points = {
			2076 3
		}
		buildings = {
			infrastructure = 4

		}
		add_core_of = RAJ

	}

	provinces={
		2002 2076 10729 14953 14954 14955 
	}
	manpower=1055450
	buildings_max_level_factor=1.000
	state_category=rural
}
