state={
	id=1520
	name="STATE_1520"

	history={
		owner = RAJ
		victory_points = {
			14951 5 
		}
		victory_points = {
			2032 2
		}
		buildings = {
			infrastructure = 4

		}
		add_core_of = RAJ

	}

	provinces={
		2032 12868 14951 14952 
	}
	manpower=1404653
	buildings_max_level_factor=1.000
	state_category=rural
}
