state={
	id=1554
	name="STATE_1554"

	history={
		owner = XSM
		victory_points = {
			14832 1 
		}
		victory_points = {
			8127 1 
		}
		buildings = {
			infrastructure = 2

		}
		add_core_of = XSM
		add_core_of = CHI
		add_core_of = PRC
		1950.1.1 = {
			owner = PRC

		}

	}

	provinces={
		4783 5031 7511 7727 7803 8055 8102 8127 10770 10899 12750 12776 14832 14833 
	}
	manpower=231334
	buildings_max_level_factor=1.000
	state_category=pastoral
}
