
state={
	id=1556
	name="STATE_1556"

	history={
		owner = USA
		victory_points = {
			1719 3 
		}
		buildings = {
			infrastructure = 4

		}
		add_core_of = USA

	}

	provinces={
		1719 1734 6767 6827 7896 12550 12588 13241 13242 13243 
	}
	manpower=308096
	buildings_max_level_factor=1.000
	state_category=rural
}
