state={
	id=1572
	name="STATE_1572"

	history={
		owner = SOV
		buildings = {
			infrastructure = 2

		}
		add_core_of = SOV
		add_core_of = KAZ
		2000.1.1 = {
			owner = KAZ

		}

	}

	provinces={
		1220 1314 1360 1371 1429 4376 4394 7313 7337 7354 7410 10131 10164 10264 12108 12163 12179 12198 12227 12294 
	}
	manpower=26574
	buildings_max_level_factor=1.000
	state_category=wasteland
}
