state={
	id=1594
	name="STATE_1594"

	history={
		owner = RAJ
		victory_points = {
			8007 2 
		}
		buildings = {
			infrastructure = 3

		}
		add_core_of = RAJ
		add_core_of = PAK
		1950.1.1 = {
			owner = PAK
			remove_core_of = RAJ

		}

	}

	provinces={
		1107 7903 8007 10139 10843 10898 12792 14385 15125 15126 15127 15128 
	}
	manpower=1871843
	buildings_max_level_factor=1.000
	state_category=pastoral
}
