state={
	id=1604
	name="STATE_1604"

	history={
		owner = AST
		victory_points = {
			10260 1
		}
		buildings = {
			infrastructure = 2

		}
		add_core_of = PNG
		1942.11.22 = {
			JAP = {
				set_province_controller = 7305
				set_province_controller = 7409
			}

		}
		1943.7.26 = {
			controller = AST

		}

	}

	provinces={
		7305 7333 7409 10231 10248 10260 
	}
	manpower=186309
	buildings_max_level_factor=1.000
	state_category=pastoral
}
