
state={
	id=1618
	name="STATE_1618"

	history={
		owner = NOR
		add_core_of = NOR
		1940.5.10 = {
			controller = GER

		}
		1946.1.1 = {
			controller = NOR

		}

	}

	provinces={
		9047 11101 
	}
	manpower=1
	buildings_max_level_factor=1.000
	state_category=wasteland
	impassable=yes
}
