state={
	id=1620
	name="STATE_1620"

	history={
		owner = USA
		victory_points = {
			4586 1
		}
		buildings = {
			infrastructure = 3

		}
		add_core_of = USA

	}

	provinces={
		4586 
	}
	manpower=33888
	buildings_max_level_factor=1.000
	state_category=pastoral
}
