state={
	id=1638
	name="STATE_1638"

	history={
		owner = ITA
		buildings = {
			infrastructure = 4
			14296 = {
				naval_base = 1

			}

		}
		add_core_of = ITA
		1943.7.26 = {
			controller = ENG

		}
		1944.6.20 = {
			controller = ITA

		}

	}
	provinces={
		14296 
	}
	manpower=7665
	buildings_max_level_factor=1.000
	state_category=tiny_island
}