
state={
	id=185
	name="STATE_185"
	resources={
		chromium=20.000
		steel=20.000
	}

	history={
		owner = GRE
		victory_points = {
			3914 2
		}
		buildings = {
			infrastructure = 4
			air_base = 3
			9805 = {
				naval_base = 1

			}

		}
		add_core_of = GRE
		1941.6.22 = {
			controller = ITA

		}
		1944.6.20 = {
			controller = GER
			
		}
		1945.1.1 = {
			controller = GRE

		}

	}

	provinces={
		3914 9805 9916 
	}
	manpower=460900
	buildings_max_level_factor=1.000
	state_category=town
}
