
state={
	id=2
	name="STATE_2"

	history={
		owner = ITA
		victory_points = {
			9904 30 
		}
		victory_points = {
			11751 3
		}
		victory_points = {
			15072 2
		}
		victory_points = {
			11846 2
		}
		victory_points = {
			923 1
		}
		victory_points = {
			15074 1
		}
		buildings = {
			infrastructure = 8
			air_base = 8
			arms_factory = 1
			industrial_complex = 3
			15072 = {
				naval_base = 5

			}
			11846 = {
				naval_base = 2

			}

		}
		add_core_of = ITA
		add_province_modifier = {
			static_modifiers = { ITA_swamps }
			province = {
				id = 11846
			}
		}
		1936.1.1 = {
			remove_province_modifier = {
				static_modifiers = { ITA_swamps }
				province = {
					id = 11846
				}
			}
		}
		1939.1.1 = {
			buildings = {
				arms_factory = 2
				industrial_complex = 5

			}

		}

	}

	provinces={
		923 6862 9904 11751 11846 11882 15071 15072 15073 15074 
	}
	manpower=2501971
	buildings_max_level_factor=1.000
	state_category=city
}
