
state={
	id=211
	name="STATE_211"
	resources={
		steel=12.000
	}

	history={
		owner = BUL
		victory_points = {
			9919 2
		}
		buildings = {
			infrastructure = 4
			industrial_complex = 2
			9919 = {
				naval_base = 1
				
			}
		}
		add_core_of = BUL
	}

	provinces={
		6967 9888 9902 9919 
	}
	manpower=1575499
	buildings_max_level_factor=1.000
	state_category=town
}
