
state={
	id=238
	name="STATE_238"

	history={
		owner = SOV
		victory_points = {
			6490 2
		}
		victory_points = {
			6796 1
		}
		buildings = {
			infrastructure = 4

		}
		add_core_of = SOV
		1942.11.22 = {
			controller = GER

		}
		1943.7.26 = {
			controller = SOV

		}

	}

	provinces={
		426 585 775 3417 3443 3464 3587 3777 3779 6417 6468 6490 6503 6796 9415 9459 9581 11400 11403 11416 11559 
	}
	manpower=556677
	buildings_max_level_factor=1.000
	state_category=rural
}
