
state={
	id=288
	name="STATE_288"
	resources={
		rubber=3.000
	}

	history={
		owner = RAJ
		victory_points = {
			1330 10
		}
		buildings = {
			infrastructure = 4
			industrial_complex = 1
			air_base = 1
			1330 = {
				naval_base = 4

			}

		}
		add_core_of = BRM
		1942.11.22 = {
			controller = JAP

		}
		1946.1.1 = {
			controller = RAJ

		}
		1950.1.1 = {
			owner = BRM
			controller = BRM

		}

	}

	provinces={
		1330 10267 14983 
	}
	manpower=10000000
	buildings_max_level_factor=1.000
	state_category=town
}
