
state={
	id=302
	name="STATE_302"
	resources={
		tungsten=60.000
		steel=2.000
	}

	history={
		owner = BOL
		victory_points = {
			5230 10
		}
		buildings = {
			infrastructure = 3
			arms_factory = 1
			industrial_complex = 3
			air_base = 2

		}
		add_core_of = BOL

	}

	provinces={
		5188 5230 8157 8225 13195 14755 14756 14894 14899 
	}
	manpower=2044500
	buildings_max_level_factor=1.000
	state_category=city
}
