
state={
	id=330
	name="STATE_330"
	resources={
		steel=2.000
		chromium=3.000
	}

	history={
		owner = MON
		victory_points = {
			13929 5 
		}
		buildings = {
			infrastructure = 3
			arms_factory = 1
			industrial_complex = 2
			air_base = 1

		}
		add_core_of = MON
		add_claim_by = CHI

	}

	provinces={
		4732 4801 4862 7752 13918 13923 13926 13929 
	}
	manpower=335500
	buildings_max_level_factor=1.000
	state_category=town
}
