
state={
	id=337
	name="STATE_337"

	history={
		owner = DEN
		victory_points = {
			13003 1 
		}
		buildings = {
			infrastructure = 4
			13003 = {
				naval_base = 1

			}

		}
		add_core_of = DEN
		add_core_of = FAR
		1936.1.1 = {
			add_manpower = 900

		}
		1940.5.10 = {
			owner = ENG

		}
		1946.1.1 = {
			owner = DEN

		}

	}

	provinces={
		13003 
	}
	manpower=25000
	buildings_max_level_factor=1.000
	state_category=small_island
}
