
state={
	id=374
	name="STATE_374"
	resources={
		oil=60.000
		aluminium=20.000
	}

	history={
		owner = USA
		victory_points = {
			10798 5 
		}
		victory_points = {
			1806 2 
		}
		buildings = {
			infrastructure = 4
			industrial_complex = 2
			air_base = 2

		}
		add_core_of = USA
		1939.1.1 = {
			buildings = {
				industrial_complex = 3

			}

		}

	}

	provinces={
		1618 1806 2043 4919 5103 6803 7762 7904 7945 8025 9822 10702 10798 11743 11802 
	}
	manpower=2396039
	buildings_max_level_factor=1.000
	state_category=city
}
