
state={
	id=377
	name="STATE_377"
	resources={
		steel=20.000
		oil=5.000
		aluminium=8.000
	}

	history={
		owner = USA
		victory_points = {
			853 10 
		}
		buildings = {
			infrastructure = 4
			industrial_complex = 1
			air_base = 2

		}
		add_core_of = USA

	}

	provinces={
		853 4796 7747 8115 
	}
	manpower=435572
	buildings_max_level_factor=1.000
	state_category=rural
}
