
state={
	id=389
	name="STATE_389"
	resources={
		steel=17.000
		oil=7.000
	}

	history={
		owner = USA
		victory_points = {
			1836 1 
		}
		buildings = {
			infrastructure = 4

		}
		add_core_of = USA

	}

	provinces={
		1836 4759 4772 6722 7877 10709 12566 
	}
	manpower=680844
	buildings_max_level_factor=1.000
	state_category=rural
}
