
state={
	id=394
	name="STATE_394"
	resources={
		steel=53.000
	}

	history={
		owner = USA
		victory_points = {
			12357 5 
		}
		victory_points = {
			12456 2 
		}
		victory_points = {
			4166 2 
		}
		buildings = {
			infrastructure = 6
			industrial_complex = 3

		}
		add_core_of = USA
		1936.1.1 = {
			add_manpower = 42000
			
		}

	}

	provinces={
		703 926 1560 1760 1849 3699 4029 4166 4738 4834 7776 7829 9657 9678 10341 10526 12357 12456 13199 13240 13623 
	}
	manpower=3040000
	buildings_max_level_factor=1.000
	state_category=city
}
