
state={
	id=432
	name="STATE_432"
	resources={
		oil=5.000
	}

	history={
		owner = RAJ
		victory_points = {
			12366 5
		}
		victory_points = {
			10514 2
		}
		victory_points = {
			12322 2
		}
		buildings = {
			infrastructure = 3

		}
		add_core_of = RAJ

	}

	provinces={
		1525 7455 10349 10514 12322 12366 14328 14416 14418 
	}
	manpower=8977100
	buildings_max_level_factor=1.000
	state_category=town
}
