
state={
	id=440
	name="STATE_440"

	history={
		owner = RAJ
		victory_points = {
			12005 5 
		}
		victory_points = {
			9084 3 
		}
		victory_points = {
			12822 3 
		}
		buildings = {
			infrastructure = 5
			industrial_complex = 1

		}
		add_core_of = RAJ
		add_core_of = PAK
		1950.1.1 = {
			owner = PAK
			remove_core_of = RAJ

		}

	}

	provinces={
		4979 8022 8106 9084 10066 10173 10772 10887 12005 12822 14388 15129 
	}
	manpower=13665000
	buildings_max_level_factor=1.000
	state_category=town
}
