
state={
	id=459
	name="STATE_459"
	resources={
		steel=20.000
	}

	history={
		owner = FRA
		victory_points = {
			1145 10
		}
		buildings = {
			infrastructure = 4
			air_base = 3
			1145 = {
				naval_base = 2

			}

		}
		add_core_of = ALG
		1941.6.22 = {
			owner = VIC

		}
		1942.11.22 = {
			owner = FRA

		}
		1972.1.1 = {
			owner = ALG

		}

	}

	provinces={
		1145 9964 11939 
	}
	manpower=2317458
	buildings_max_level_factor=1.000
	state_category=large_town
}
