
state={
	id=47
	name="STATE_47"
	resources={
		steel=3.000
		chromium=12.000
		aluminium=30.000
		tungsten=10.000
	}

	history={
		owner = GRE
		victory_points = {
			4109 20 
		}
		buildings = {
			infrastructure = 5
			arms_factory = 1
			industrial_complex = 1
			4109 = {
				naval_base = 9
			}
		}
		add_core_of = GRE
		1941.6.22 = {
			controller = ITA

		}
		1944.6.20 = {
			controller = GER
			
		}
		1945.1.1 = {
			controller = GRE

		}
	}

	provinces={
		3988 4109 
	}
	manpower=1612500
	buildings_max_level_factor=1.000
	state_category=large_town
}
