
state={
	id=574
	name="STATE_574"

	history={
		owner = SOV
		victory_points = {
			10641 1 
		}
		buildings = {
			infrastructure = 2
			air_base = 1

		}
		add_core_of = SOV

	}

	provinces={
		1722 1745 1748 1795 1819 1852 1878 2853 4229 4726 4752 4798 4821 4855 4878 6085 6211 7691 7746 7765 7785 7817 7844 7889 9224 10557 10589 10608 10641 10667 10701 10714 12549 12565 12608 12611 12623 12634 12660 12694 13059 13061 14425 14806 14807 14808 
	}
	manpower=407866
	buildings_max_level_factor=1.000
	state_category=wasteland
}
