
state={
	id=582
	name="STATE_582"

	history={
		owner = SOV
		victory_points = {
			1292 3
		}
		victory_points = {
			12106 1
		}
		victory_points = {
			1327 1
		}
		buildings = {
			infrastructure = 5

		}
		add_core_of = SOV

	}

	provinces={
		1292 1294 1327 1775 4242 10170 12106 
	}
	manpower=1044991
	buildings_max_level_factor=1.000
	state_category=rural
}
