
state={
	id=633
	name="STATE_633"

	history={
		owner = JAP
		victory_points = {
			13042 1
		}
		buildings = {
			infrastructure = 3
			air_base = 2
			13040 = {
				naval_base = 1

			}
			13041 = {
				naval_base = 3

			}
			13043 = {
				naval_base = 1

			}
			13046 = {
				naval_base = 1

			}
			1002 = {
				naval_base = 1

			}
			13039 = {
				naval_base = 1

			}
			13045 = {
				naval_base = 1

			}

		}
		add_core_of = MAR
		1946.1.1 = {
			owner = USA

		}
		1991.1.1 = {
			owner = MAR

		}

	}

	provinces={
		1002 13039 13040 13041 13042 13043 13044 13045 13046 
	}
	manpower=52517
	buildings_max_level_factor=1.000
	state_category=small_island
}
