
state={
	id=668
	name="STATE_668"

	history={
		owner = DEI
		victory_points = {
			1574 3
		}
		buildings = {
			infrastructure = 3
			1574 = {
				naval_base = 1

			}

		}
		add_core_of = INS
		add_core_of = SMK
		1942.11.22 = {
			controller = JAP

		}
		1946.1.1 = {
			controller = DEI

		}

	}

	provinces={
		1574 7557 10409 
	}
	manpower=579100
	buildings_max_level_factor=1.000
	state_category=pastoral
}
