
state={
	id=671
	name="STATE_671"
	resources={
		chromium=6.000
		tungsten=27.000
	}

	history={
		owner = VIN
		victory_points = {
			4075 10 
		}
		victory_points = {
			4119 3 
		}
		buildings = {
			infrastructure = 4
			industrial_complex = 1
			air_base = 1
			4119 = {
				naval_base = 3

			}

		}
		add_core_of = VIN
		1942.11.22 = {
			owner = JAP

		}
		1946.1.1 = {
			owner = VIN
			add_core_of = VIE

		}
		1956.1.1 = {
			owner = VIE

		}
		1980.1.1 = {
			remove_core_of = VIN

		}

	}

	provinces={
		1185 4075 4119 
	}
	manpower=7781631
	buildings_max_level_factor=1.000
	state_category=town
}
