
state={
	id=686
	name="STATE_686"

	history={
		owner = USA
		victory_points = {
			1440 3
		}
		buildings = {
			infrastructure = 4
			industrial_complex = 1
			air_base = 4
			1440 = {
				naval_base = 3

			}

		}
		add_core_of = PRT

	}

	provinces={
		1440 13698 
	}
	manpower=1543913
	buildings_max_level_factor=1.000
	state_category=rural
}
