
state={
	id=687
	name="STATE_687"
	resources={
		aluminium=60.000
	}

	history={
		owner = ENG
		victory_points = {
			4982 1
		}
		buildings = {
			infrastructure = 3
			4982 = {
				naval_base = 1

			}

		}
		add_core_of = GUY
		1972.1.1 = {
			owner = GUY
			
		}

	}

	provinces={
		4982 8107 13686 
	}
	manpower=216807
	buildings_max_level_factor=1.000
	state_category=pastoral
}
