
state={
	id=691
	name="STATE_691"
	resources={
		oil=12.000
	}

	history={
		owner = ENG
		victory_points = {
			3284 1 
		}
		buildings = {
			infrastructure = 3
			3284 = {
				naval_base = 1

			}

		}
		add_core_of = TRT
		1972.1.1 = {
			owner = TRT

		}

	}

	provinces={
		3284 
	}
	manpower=408500
	buildings_max_level_factor=1.000
	state_category=small_island
}
