
state={
	id=695
	name="STATE_695"

	history={
		owner = HOL
		victory_points = {
			153 1 
		}
		buildings = {
			infrastructure = 3
			153 = {
				naval_base = 1
				coastal_bunker = 2

			}

		}
		add_core_of = CRC

	}

	provinces={
		153 
	}
	manpower=76299
	buildings_max_level_factor=1.000
	state_category=small_island
}
