
state={
	id=716
	name="STATE_716"
	resources={
		steel=27.000
	}

	history={
		owner = MAN
		victory_points = {
			11771 10 
		}
		victory_points = {
			9885 2 
		}
		victory_points = {
			9781 2 
		}
		victory_points = {
			9788 2 
		}
		victory_points = {
			9835 2 
		}
		victory_points = {
			11764 2 
		}
		buildings = {
			infrastructure = 4
			arms_factory = 2
			industrial_complex = 2
			air_base = 5
			964 = {
				naval_base = 3

			}

		}
		add_core_of = CHI
		add_core_of = MAN
		add_core_of = PRC
		1946.1.1 = {
			owner = CHI

		}
		1950.1.1 = {
			owner = PRC

		}

	}

	provinces={
		836 887 892 964 987 3783 3849 3895 3934 6804 6837 6918 6951 9781 9788 9835 9854 9885 11764 11771 11808 11815 11886 14850 
	}
	manpower=10264620
	buildings_max_level_factor=1.000
	state_category=city
}
