
state={
	id=783
	name="STATE_783"

	history={
		owner = USA
		victory_points = {
			9786 2 
		}
		victory_points = {
			13344 1
		}
		buildings = {
			infrastructure = 6
			industrial_complex = 1

		}
		add_core_of = USA
		1936.1.1 = {
			add_manpower = 5000
			
		}

	}

	provinces={
		9786 13344 
	}
	manpower=248000
	buildings_max_level_factor=1.000
	state_category=rural
}
