
state={
	id=789
	name="STATE_789"

	history={
		owner = FRA
		victory_points = {
			13775 3 
		}
		victory_points = {
			5054 2
		}
		buildings = {
			infrastructure = 3

		}
		add_core_of = CMR
		1960.1.1 = {
			owner = CMR

		}

	}

	provinces={
		5036 5054 13773 13774 13775 
	}
	manpower=1877113
	buildings_max_level_factor=1.000
	state_category=rural
}
