
state={
	id=810
	name="STATE_810"

	history={
		owner = POL
		victory_points = {
			3254 1
		}
		buildings = {
			infrastructure = 3

		}
		add_core_of = POL
		add_claim_by = LIT
		1940.5.10 = {
			owner = GER

		}
		1941.6.21 = {
			remove_claim_by = LIT

		}
		1945.1.1 = {
			owner = SOV

		}
		1946.1.1 = {
			owner = POL

		}
	}

	provinces={
		3254 12099 
	}
	manpower=137890
	buildings_max_level_factor=1.000
	state_category=pastoral
}
