
state={
	id=84
	name="STATE_84"
	resources={
		steel=3.000
	}

	history={
		owner = ROM
		victory_points = {
			690 3 
		}
		victory_points = {
			6679 2 
		}
		buildings = {
			infrastructure = 4
			arms_factory = 1
			industrial_complex = 1

		}
		add_core_of = ROM
		add_claim_by = HUN
		1946.1.1 = {
			remove_claim_by = HUN

		}

	}

	provinces={
		676 690 693 3665 3676 3694 6679 6709 9619 11622 11639 
	}
	manpower=1622300
	buildings_max_level_factor=1.000
	state_category=town
}
