
state={
	id=848
	name="STATE_848"

	history={
		owner = FRA
		victory_points = {
			14537 3 
		}
		victory_points = {
			14538 2 
		}
		buildings = {
			infrastructure = 2

		}
		add_core_of = SYR
		add_core_of = KUR
		1950.1.1 = {
			owner = SYR

		}
		1960.1.1 = {
			owner = EGY

		}
		1972.1.1 = {
			owner = SYR

		}

	}

	provinces={
		1549 1578 10882 13227 14537 14538 
	}
	manpower=142000
	buildings_max_level_factor=1.000
	state_category=pastoral
}
