state={
	id=886
	name="STATE_886"
	
	history={
		owner = POL
		victory_points = {
			9494 1
		}
		buildings = {
			infrastructure = 3

		}
		add_core_of = POL
		add_core_of = UKR
		1940.5.10 = {
			owner = SOV

		}
		1942.11.22 = {
			controller = GGP

		}
		1945.1.1 = {
			controller = SOV
			
		}
		1946.1.1 = {
			owner = POL
			controller = POL
			remove_core_of = UKR
		}
	}
	
	provinces={
		3434 9494 
	}
	manpower=66715
	buildings_max_level_factor=1.000
	state_category=pastoral
}
