
state={
	id=90
	name="STATE_90"
	resources={
		steel=12.000
	}

	history={
		owner = POL
		victory_points = {
			6416 2
		}
		victory_points = {
			3586 2
		}
		victory_points = {
			3458 2
		}
		buildings = {
			infrastructure = 6
			industrial_complex = 1

		}
		add_core_of = POL
		1940.5.10 = {
			owner = GGP

		}
		1946.1.1 = {
			owner = POL

		}

	}

	provinces={
		562 3458 3497 3586 6416 11428 11430 11532 
	}
	manpower=2135700
	buildings_max_level_factor=1.000
	state_category=town
}
