state={
	id=921
	name="STATE_921"
	
	history={
		owner = USA
		buildings = {
			infrastructure = 5
			8206 = {
				naval_base = 4

			}

		}
		add_core_of = CUB

	}
	provinces={
		8206 
	}
	manpower=1000
	buildings_max_level_factor=1.000
	state_category=enclave
}
