state={
	id=932
	name="STATE_932"
	
	history={
		owner = FRA
		victory_points = {
			177 1
		}
		buildings = {
			infrastructure = 4
			177 = {
				naval_base = 3

			}

		}
		add_core_of = MRQ

	}
	
	provinces={
		177 
	}
	manpower=222001
	buildings_max_level_factor=1.000
	state_category=small_island
}
