state={
	id=978
	name="STATE_978"
	
	history={
		owner = YUG
		buildings = {
			infrastructure = 3
			
		}
		add_core_of = YUG
		add_core_of = CRO
		add_claim_by = HUN
		1941.6.22 = {
			controller = HUN

		}
		1945.1.1 = {
			controller = YUG

		}
		1946.1.1 = {
			remove_claim_by = HUN

		}
		2000.1.1 = {
			owner = CRO
			remove_core_of = YUG

		}
	}
	
	provinces={
		9608 
	}
	manpower=10986
	buildings_max_level_factor=1.000
	state_category=pastoral
}
