state={
	id=979
	name="STATE_979"
	
	history={
		owner = JAP
		victory_points = {
	        848 2
		}
		buildings = {
			infrastructure = 3

		}
		add_core_of = KOR
		add_core_of = PRK
		1946.1.1 = {
			owner = SOV

		}
		1950.1.1 = {
			owner = PRK
			add_core_of = PRK

		}

	}
	
	provinces={
		848 4004 13276 
	}
	manpower=398947
	buildings_max_level_factor=1.000
	state_category=rural
}
