technologies = {
	##################################################################
	###  WW1 + Interwar Doctrines
	##################################################################
	# 20th Century Warfare
	Twentieth_Century_Warfare = {
		path = {
			leads_to_tech = Leading_by_Task
			research_cost_coeff = 1
		}
		path = {
			leads_to_tech = Leading_by_Order
			research_cost_coeff = 1
		}
		start_year = 1907
		xp_research_type = army
		xp_research_cost = 100
		xp_research_bonus = 1.00
		category_all_infantry = {
			max_organisation = 5
		}
		doctrine = yes
		research_cost = 3
		folder = {
			name = land_doctrine_folder
			position = { x = 0 y = 0 }
		}
		categories = {
			land_doctrine
		}
		ai_will_do = {
			factor = 20
		}
	}
	# Leading By Task
	Leading_by_Task = {
		xor = { Leading_by_Order }
		path = {
			leads_to_tech = Strongpoint
			research_cost_coeff = 1
		}
		start_year = 1910
		xp_research_type = army
		xp_research_cost = 100
		xp_research_bonus = 1.00
		category_all_infantry = {
			default_morale = 0.05
		}
		doctrine = yes
		research_cost = 3
		folder = {
			name = land_doctrine_folder
			position = { x = -1 y = 2 }
		}
		categories = {
			land_doctrine
		}
		ai_will_do = {
			factor = 20
		}
	}
	# Leading By Order
	Leading_by_Order = {
		xor = { Leading_by_Task }
		path = {
			leads_to_tech = Strongpoint
			research_cost_coeff = 1
		}
		start_year = 1910
		xp_research_type = army
		xp_research_cost = 100
		xp_research_bonus = 1.00
		category_all_infantry = {
			max_organisation = 5
		}
		doctrine = yes
		research_cost = 3
		folder = {
			name = land_doctrine_folder
			position = { x = 1 y = 2 }
		}
		categories = {
			land_doctrine
		}
		ai_will_do = {
			factor = 20
		}
	}
	# Strongpoint
	Strongpoint = {
		path = {
			leads_to_tech = Mass_Charge
			research_cost_coeff = 1
		}
		path = {
			leads_to_tech = Static_Defence
			research_cost_coeff = 1
		}
		start_year = 1914
		xp_research_type = army
		xp_research_cost = 100
		xp_research_bonus = 1.00
		category_all_infantry = {
			max_organisation = 5
		}
		doctrine = yes
		research_cost = 3
		folder = {
			name = land_doctrine_folder
			position = { x = 0 y = 4 }
		}
		categories = {
			land_doctrine
		}
		ai_will_do = {
			factor = 20
		}
	}
	# Mass Charge
	Mass_Charge = {
		path = {
			leads_to_tech = Counterattack
			research_cost_coeff = 1
		}
		start_year = 1914
		xp_research_type = army
		xp_research_cost = 100
		xp_research_bonus = 1.00
		category_all_infantry = {
			default_morale = 0.1
		}
		doctrine = yes
		research_cost = 3
		folder = {
			name = land_doctrine_folder
			position = { x = -1 y = 6 }
		}
		categories = {
			land_doctrine
		}
		ai_will_do = {
			factor = 20
		}
	}
	# Static Defence
	Static_Defence = {
		path = {
			leads_to_tech = Counterattack
			research_cost_coeff = 1
		}
		start_year = 1914
		xp_research_type = army
		xp_research_cost = 100
		xp_research_bonus = 1.00
		category_all_infantry = {
			defense = 0.05
		}
		max_dig_in = 5
		enable_tactic = tactic_delay
		doctrine = yes
		research_cost = 3
		folder = {
			name = land_doctrine_folder
			position = { x = 1 y = 6 }
		}
		categories = {
			land_doctrine
		}
		ai_will_do = {
			factor = 20
		}
	}
	# Counterattack
	Counterattack = {
		path = {
			leads_to_tech = Defence_In_Depth
			research_cost_coeff = 1
		}
		path = {
			leads_to_tech = Schwerpunkt
			research_cost_coeff = 1
		}
		start_year = 1914
		xp_research_type = army
		xp_research_cost = 100
		xp_research_bonus = 1.00
		category_all_infantry = {
			max_organisation = -5
			breakthrough = 0.05
			defense = 0.05
		}
		enable_tactic = tactic_counterattack
		doctrine = yes
		research_cost = 3
		folder = {
			name = land_doctrine_folder
			position = { x = 0 y = 8 }
		}
		categories = {
			land_doctrine
		}
		ai_will_do = {
			factor = 20
		}
	}
	# Defence In Depth
	Defence_In_Depth = {
		xor = { Schwerpunkt }
		path = {
			leads_to_tech = Separate_Arms_Force
			research_cost_coeff = 1
		}
		start_year = 1915
		xp_research_type = army
		xp_research_cost = 100
		xp_research_bonus = 1.00
		category_all_infantry = {
			defense = 0.05
			max_organisation = 5
		}
		doctrine = yes
		research_cost = 3
		folder = {
			name = land_doctrine_folder
			position = { x = -1 y = 10 }
		}
		categories = {
			land_doctrine
		}
		ai_will_do = {
			factor = 20
		}
	}
	# Schwerpunkt
	Schwerpunkt = {
		xor = { Defence_In_Depth }
		path = {
			leads_to_tech = Separate_Arms_Force
			research_cost_coeff = 1
		}
		start_year = 1915
		xp_research_type = army
		xp_research_cost = 100
		xp_research_bonus = 1.00
		category_army = {
			breakthrough = 0.1
		}
		doctrine = yes
		research_cost = 3
		folder = {
			name = land_doctrine_folder
			position = { x = 1 y = 10 }
		}
		categories = {
			land_doctrine
		}
		ai_will_do = {
			factor = 20
		}
	}
	# Separate Arms Force
	Separate_Arms_Force = {
		path = {
			leads_to_tech = Combined_Arms_Effort
			research_cost_coeff = 1
		}
		start_year = 1916
		xp_research_type = army
		xp_research_cost = 100
		xp_research_bonus = 1.00
		category_all_infantry = {
			breakthrough = 0.05
			soft_attack = 0.05
		}
		doctrine = yes
		research_cost = 3
		folder = {
			name = land_doctrine_folder
			position = { x = 0 y = 12 }
		}
		categories = {
			land_doctrine
		}
		ai_will_do = {
			factor = 20
		}
	}
	# Combined Arms Effort
	Combined_Arms_Effort = {
		path = {
			leads_to_tech = Specialized_Branch_Tactical_Experience
			research_cost_coeff = 1
		}
		path = {
			leads_to_tech = Cross_Branch_Tactical_Experience
			research_cost_coeff = 1
		}
		start_year = 1918
		xp_research_type = army
		xp_research_cost = 100
		xp_research_bonus = 1.00
		category_all_infantry = {
			soft_attack = 0.1
			hard_attack = 0.1
		}
		doctrine = yes
		research_cost = 3
		folder = {
			name = land_doctrine_folder
			position = { x = 0 y = 14 }
		}
		categories = {
			land_doctrine
		}
		ai_will_do = {
			factor = 20
		}
	}
	# Specialized-Branch Tactical Experience
	Specialized_Branch_Tactical_Experience = {
		xor = { Cross_Branch_Tactical_Experience }
		start_year = 1923
		path = {
			leads_to_tech = Beyond_Trench_Warfare
			research_cost_coeff = 1
		}
		xp_research_type = army
		xp_research_cost = 100
		xp_research_bonus = 1.00
		category_all_infantry = {
			max_organisation = -12
			soft_attack = -0.2
			breakthrough = -0.2
			defense = -0.2
		}
		doctrine = yes
		research_cost = 3
		folder = {
			name = land_doctrine_folder
			position = { x = -1 y = 16 }
		}
		categories = {
			land_doctrine
		}
		ai_will_do = {
			factor = 20
		}
	}
	# Cross-Branch Tactical Experience
	Cross_Branch_Tactical_Experience = {
		xor = { Specialized_Branch_Tactical_Experience }
		start_year = 1923
		path = {
			leads_to_tech = Beyond_Trench_Warfare
			research_cost_coeff = 1
		}
		xp_research_type = army
		xp_research_cost = 100
		xp_research_bonus = 1.00
		category_all_infantry = {
			max_organisation = -15
			soft_attack = -0.1
			breakthrough = -0.2
			defense = -0.1
		}
		doctrine = yes
		research_cost = 3
		folder = {
			name = land_doctrine_folder
			position = { x = 1 y = 16 }
		}
		categories = {
			land_doctrine
		}
		ai_will_do = {
			factor = 20
		}
	}
	Beyond_Trench_Warfare = {
		start_year = 1923
		xp_research_type = army
		xp_research_cost = 100
		xp_research_bonus = 1.00
		category_all_infantry = {
			maximum_speed = 0.1
			breakthrough = 0.1
		}
		doctrine = yes
		research_cost = 3
		folder = {
			name = land_doctrine_folder
			position = { x = 0 y = 18 }
		}
		categories = {
			land_doctrine
		}
		ai_will_do = {
			factor = 20
		}
	}
	##################################################################
	###  Mobility Focus
	##################################################################
	# Mobility Focus
	Mobility_Focus = {
		xor = { Firepower_Focus Planning_Focus Manpower_Focus }
		dependencies = {
			Beyond_Trench_Warfare = 1
		}
		path = {
			leads_to_tech = Spearhead
			research_cost_coeff = 1
		}
		start_year = 1930
		xp_research_type = army
		xp_research_cost = 100
		xp_research_bonus = 1.00
		enable_tactic = tactic_unexpected_thrust
		category_all_infantry = {
			max_organisation = 10
		}
		army_speed_factor = 0.10
		doctrine = yes
		research_cost = 3
		folder = {
			name = land_doctrine_folder
			position = { x = 0 y = 0 }
		}
		categories = {
			land_doctrine
			cat_mobile_warfare
		}
		ai_will_do = {
			factor = 20
		}
	}
	# Spearhead
	Spearhead = {
		path = {
			leads_to_tech = Armored_Schwerpunkt
			research_cost_coeff = 1
		}
		path = {
			leads_to_tech = Delay
			research_cost_coeff = 1
		}
		start_year = 1937
		xp_research_type = army
		xp_research_cost = 100
		xp_research_bonus = 1.00
		category_army = {
			breakthrough = 0.1
		}
		org_loss_when_moving = -0.1
		doctrine = yes
		research_cost = 3
		folder = {
			name = land_doctrine_folder
			position = { x = 0 y = 2 }
		}
		categories = {
			land_doctrine
			cat_mobile_warfare
		}
		ai_will_do = {
			factor = 20
		}
	}
	# Armored Schwerpunkt
	Armored_Schwerpunkt = {
		path = {
			leads_to_tech = Combined_Arms_Offensive
			research_cost_coeff = 1
		}
		start_year = 1937
		xp_research_type = army
		xp_research_cost = 100
		xp_research_bonus = 1.00
		category_tanks = {
			max_organisation = 4
		}
		category_all_armor = {
			default_morale = 0.1
			breakthrough = 0.05
		}
		doctrine = yes
		research_cost = 3
		folder = {
			name = land_doctrine_folder
			position = { x = -1 y = 4 }
		}
		categories = {
			land_doctrine
			cat_mobile_warfare
		}
		ai_will_do = {
			factor = 20
		}
	}
	# Combined Arms Offensive
	Combined_Arms_Offensive = {
		path = {
			leads_to_tech = Kampfgruppe
			research_cost_coeff = 1
		}
		start_year = 1938
		xp_research_type = army
		xp_research_cost = 100
		xp_research_bonus = 1.00
		army_bonus_air_superiority_factor = 0.10
		category_artillery = {
			soft_attack = 0.05
		}
		category_tanks = {
			breakthrough = 0.1
		}
		doctrine = yes
		research_cost = 3
		folder = {
			name = land_doctrine_folder
			position = { x = -1 y = 6 }
		}
		categories = {
			land_doctrine
			cat_mobile_warfare
		}
		ai_will_do = {
			factor = 20
		}
	}
	# Delay
	Delay = {
		path = {
			leads_to_tech = Elastic_Defense
			research_cost_coeff = 1
		}
		start_year = 1939
		xp_research_type = army
		xp_research_cost = 100
		xp_research_bonus = 1.00
		category_all_infantry = {
			max_organisation = 15
		}
		enable_tactic = tactic_delay
		doctrine = yes
		research_cost = 3
		folder = {
			name = land_doctrine_folder
			position = { x = 1 y = 4 }
		}
		categories = {
			land_doctrine
			cat_mobile_warfare
		}
		ai_will_do = {
			factor = 20
		}
	}
	# Elastic Defense
	Elastic_Defense = {
		path = {
			leads_to_tech = Kampfgruppe
			research_cost_coeff = 1
		}
		start_year = 1940
		xp_research_type = army
		xp_research_cost = 100
		xp_research_bonus = 1.00
		motorized = {
			defense = 0.1
		}
		mechanized = {
			defense = 0.1
		}
		category_tanks = {
			max_organisation = 1
		}
		category_all_armor = {
			maximum_speed = 0.1
		}
		enable_tactic = tactic_elastic_defense
		doctrine = yes
		research_cost = 3
		folder = {
			name = land_doctrine_folder
			position = { x = 1 y = 6 }
		}
		categories = {
			land_doctrine
			cat_mobile_warfare
		}
		ai_will_do = {
			factor = 20
		}
	}
	# Kampfgruppe
	Kampfgruppe = {
		path = {
			leads_to_tech = Firebrigades
			research_cost_coeff = 1
		}
		path = {
			leads_to_tech = Spearhead_HQs
			research_cost_coeff = 1
		}
		start_year = 1941
		xp_research_type = army
		xp_research_cost = 100
		xp_research_bonus = 1.00
		category_all_infantry = {
			default_morale = 0.1
			max_organisation = 10
		}
		planning_speed = 0.2
		enable_tactic = tactic_overwhelming_fire
		doctrine = yes
		research_cost = 3
		folder = {
			name = land_doctrine_folder
			position = { x = 0 y = 8 }
		}
		categories = {
			land_doctrine
			cat_mobile_warfare
		}
		ai_will_do = {
			factor = 20
		}
	}
	# Firebrigades
	Firebrigades = {
		path = {
			leads_to_tech = Modern_Blitzkrieg
			research_cost_coeff = 1
		}
		start_year = 1943
		xp_research_type = army
		xp_research_cost = 100
		xp_research_bonus = 1.00
		category_all_infantry = {
			max_organisation = 5
			default_morale = 0.05
		}
		category_artillery = {
			soft_attack = 0.1
		}
		doctrine = yes
		research_cost = 3
		folder = {
			name = land_doctrine_folder
			position = { x = -1 y = 10 }
		}
		categories = {
			land_doctrine
			cat_mobile_warfare
		}
		ai_will_do = {
			factor = 20
		}
	}
	# Spearhead HQs
	Spearhead_HQs = {
		path = {
			leads_to_tech = Modern_Blitzkrieg
			research_cost_coeff = 1
		}
		start_year = 1943
		xp_research_type = army
		xp_research_cost = 100
		xp_research_bonus = 1.00
		category_all_armor = {
			max_organisation = 2
			breakthrough = 0.05
		}
		doctrine = yes
		research_cost = 3
		folder = {
			name = land_doctrine_folder
			position = { x = 1 y = 10 }
		}
		categories = {
			land_doctrine
			cat_mobile_warfare
		}
		ai_will_do = {
			factor = 20
		}
	}
	# Modern Blitzkrieg
	Modern_Blitzkrieg = {
		path = {
			leads_to_tech = Modern_Blitzkrieg
			research_cost_coeff = 1
		}
		start_year = 1946
		xp_research_type = army
		xp_research_cost = 100
		xp_research_bonus = 1.00
		category_tanks = {
			max_organisation = 3
			breakthrough = 0.20
		}
		category_all_armor = {
			default_morale = 0.1
		}
		enable_tactic = tactic_backhand_blow
		doctrine = yes
		research_cost = 3
		folder = {
			name = land_doctrine_folder
			position = { x = 0 y = 12 }
		}
		categories = {
			land_doctrine
			cat_mobile_warfare
		}
		ai_will_do = {
			factor = 20
		}
	}
	##################################################################
	###  Manpower Focus
	##################################################################
	# Manpower Focus
	Manpower_Focus = {
		xor = { Mobility_Focus Firepower_Focus Planning_Focus }
		dependencies = {
			Beyond_Trench_Warfare = 1
		}
		path = {
			leads_to_tech = Peoples_Army
			research_cost_coeff = 1
		}
		start_year = 1930
		xp_research_type = army
		xp_research_cost = 100
		xp_research_bonus = 1.00
		conscription = 0.01
		doctrine = yes
		research_cost = 3
		folder = {
			name = land_doctrine_folder
			position = { x = 0 y = 0 }
		}
		categories = {
			land_doctrine
			cat_mass_assault
		}
		ai_will_do = {
			factor = 20
		}
	}
	# People's Army
	Peoples_Army = {
		path = {
			leads_to_tech = Peoples_War
			research_cost_coeff = 1
		}
		path = {
			leads_to_tech = Large_Front
			research_cost_coeff = 1
		}
		start_year = 1936
		xp_research_type = army
		xp_research_cost = 100
		xp_research_bonus = 1.00
		category_all_infantry = {
			max_organisation = 10
		}
		militia = {
			default_morale = 0.1
		}
		doctrine = yes
		research_cost = 3
		folder = {
			name = land_doctrine_folder
			position = { x = 0 y = 2 }
		}
		categories = {
			land_doctrine
			cat_mass_assault
		}
		ai_will_do = {
			factor = 20
		}
	}
	# Large Front ---------------------------------------------------
	Large_Front = {
		xor = { Peoples_War }
		path = {
			leads_to_tech = Deep_Operations
			research_cost_coeff = 1
		}
		path = {
			leads_to_tech = Pocket_Defense
			research_cost_coeff = 1
		}
		start_year = 1937
		xp_research_type = army
		xp_research_cost = 100
		xp_research_bonus = 1.00
		category_all_infantry = {
			max_organisation = 3
			default_morale = 0.1
			defense = 0.1
		}
		doctrine = yes
		research_cost = 3
		folder = {
			name = land_doctrine_folder
			position = { x = 2 y = 4 }
		}
		categories = {
			land_doctrine
			cat_mass_assault
		}
		ai_will_do = {
			factor = 20
		}
	}
	# Deep Operations
	Deep_Operations = {
		path = {
			leads_to_tech = Large_Formation_SOP
			research_cost_coeff = 1
		}
		start_year = 1940
		xp_research_type = army
		xp_research_cost = 100
		xp_research_bonus = 1.00
		category_tanks = {
			max_organisation = 2
			maximum_speed = 0.05
		}
		category_army = {
			breakthrough = 0.05
		}
		enable_tactic = tactic_blitz
		doctrine = yes
		research_cost = 3
		folder = {
			name = land_doctrine_folder
			position = { x = 3 y = 6 }
		}
		categories = {
			land_doctrine
			cat_mass_assault
		}
		ai_will_do = {
			factor = 20
		}
	}
	# Large Formation SOP
	Large_Formation_SOP = {
		path = {
			leads_to_tech = Movement_Speed_Offensive
			research_cost_coeff = 1
		}
		start_year = 1941
		xp_research_type = army
		xp_research_cost = 100
		xp_research_bonus = 1.00
		supply_consumption_factor = -0.05
		infantry = {
			combat_width = -0.4
		}
		enable_tactic = tactic_relentless_assault
		doctrine = yes
		research_cost = 3
		folder = {
			name = land_doctrine_folder
			position = { x = 3 y = 8 }
		}
		categories = {
			land_doctrine
			cat_mass_assault
		}
		ai_will_do = {
			factor = 20
		}
	}
	# Pocket Defense
	Pocket_Defense = {
		path = {
			leads_to_tech = Defense_in_Depth_2
			research_cost_coeff = 1
		}
		start_year = 1940
		xp_research_type = army
		xp_research_cost = 100
		xp_research_bonus = 1.00
		no_supply_grace = 48
		out_of_supply_factor = -0.10
		doctrine = yes
		research_cost = 3
		folder = {
			name = land_doctrine_folder
			position = { x = 1 y = 6 }
		}
		categories = {
			land_doctrine
			cat_mass_assault
		}
		ai_will_do = {
			factor = 20
		}
	}
	# Defense in Depth
	Defense_in_Depth_2 = {
		path = {
			leads_to_tech = Movement_Speed_Offensive
			research_cost_coeff = 1
		}
		start_year = 1941
		xp_research_type = army
		xp_research_cost = 100
		xp_research_bonus = 1.00
		max_dig_in = 5
		category_light_infantry = {
			defense = 0.05
		}
		doctrine = yes
		research_cost = 3
		folder = {
			name = land_doctrine_folder
			position = { x = 1 y = 8 }
		}
		categories = {
			land_doctrine
			cat_mass_assault
		}
		ai_will_do = {
			factor = 20
		}
	}
	# Movement Speed Offensive
	Movement_Speed_Offensive = {
		path = {
			leads_to_tech = Mechanized_Wave
			research_cost_coeff = 1
		}
		start_year = 1942
		xp_research_type = army
		xp_research_cost = 100
		xp_research_bonus = 1.00
		org_loss_when_moving = -0.05
		land_reinforce_rate = 0.02
		enable_tactic = tactic_blitz
		doctrine = yes
		research_cost = 3
		folder = {
			name = land_doctrine_folder
			position = { x = 2 y = 10 }
		}
		categories = {
			land_doctrine
			cat_mass_assault
		}
		ai_will_do = {
			factor = 20
		}
	}
	# Mechanized Wave
	Mechanized_Wave = {
		start_year = 1946
		xp_research_type = army
		xp_research_cost = 100
		xp_research_bonus = 1.00
		category_all_armor = {
			default_morale = 0.05
		}
		motorized = {
			default_morale = 0.1
		}
		mechanized = {
			default_morale = 0.1
		}
		doctrine = yes
		research_cost = 3
		folder = {
			name = land_doctrine_folder
			position = { x = 2 y = 12 }
		}
		categories = {
			land_doctrine
			cat_mass_assault
		}
		ai_will_do = {
			factor = 20
		}
	}
	# Peoples War ---------------------------------------------------
	Peoples_War = {
		xor = { Large_Front }
		path = {
			leads_to_tech = Rural_Guerilla_Tactics
			research_cost_coeff = 1
		}
		path = {
			leads_to_tech = Revolutionary_Base_Areas
			research_cost_coeff = 1
		}
		start_year = 1937
		xp_research_type = army
		xp_research_cost = 100
		xp_research_bonus = 1.00
		# partisan_effect = 0.1
		attrition = -0.1
		doctrine = yes
		research_cost = 3
		folder = {
			name = land_doctrine_folder
			position = { x = -2 y = 4 }
		}
		categories = {
			land_doctrine
			cat_mass_assault
		}
		ai_will_do = {
			factor = 20
		}
	}
	# Rural Guerilla Tactics
	Rural_Guerilla_Tactics = {
		path = {
			leads_to_tech = Mobile_Guerilla_Warfare
			research_cost_coeff = 1
		}
		start_year = 1938
		xp_research_type = army
		xp_research_cost = 100
		xp_research_bonus = 1.00
		out_of_supply_factor = -0.30
		category_army = {
			default_morale = 0.2
		}
		# partisan_effect = 0.2
		doctrine = yes
		research_cost = 3
		folder = {
			name = land_doctrine_folder
			position = { x = -3 y = 6 }
		}
		categories = {
			land_doctrine
			cat_mass_assault
		}
		ai_will_do = {
			factor = 20
		}
	}
	# Mobile Guerilla Warfare
	Mobile_Guerilla_Warfare = {
		path = {
			leads_to_tech = Asymmetric_Warfare
			research_cost_coeff = 1
		}
		start_year = 1941
		xp_research_type = army
		xp_research_cost = 100
		xp_research_bonus = 1.00
		category_light_infantry = {
			default_morale = 0.3
		}
		doctrine = yes
		research_cost = 3
		folder = {
			name = land_doctrine_folder
			position = { x = -3 y = 8 }
		}
		categories = {
			land_doctrine
			cat_mass_assault
		}
		ai_will_do = {
			factor = 20
		}
	}
	# Revolutionary Base Areas
	Revolutionary_Base_Areas = {
		path = {
			leads_to_tech = Revolutionary_Base_Areas_Expansion
			research_cost_coeff = 1
		}
		start_year = 1939
		xp_research_type = army
		xp_research_cost = 100
		xp_research_bonus = 1.00
		# partisan_effect = 0.1
		out_of_supply_factor = -0.1
		no_supply_grace = 24
		doctrine = yes
		research_cost = 3
		folder = {
			name = land_doctrine_folder
			position = { x = -1 y = 6 }
		}
		categories = {
			land_doctrine
			cat_mass_assault
		}
		ai_will_do = {
			factor = 20
		}
	}
	# Revolutionary Base Areas Expansion
	Revolutionary_Base_Areas_Expansion = {
		path = {
			leads_to_tech = Asymmetric_Warfare
			research_cost_coeff = 1
		}
		start_year = 1942
		xp_research_type = army
		xp_research_cost = 100
		xp_research_bonus = 1.00
		# partisan_effect = 0.1
		category_light_infantry = {
			max_organisation = 5
		}
		doctrine = yes
		research_cost = 3
		folder = {
			name = land_doctrine_folder
			position = { x = -1 y = 8 }
		}
		categories = {
			land_doctrine
			cat_mass_assault
		}
		ai_will_do = {
			factor = 20
		}
	}
	# Asymmetric Warfare
	Asymmetric_Warfare = {
		start_year = 1945
		xp_research_type = army
		xp_research_cost = 100
		xp_research_bonus = 1.00
		# partisan_effect = 0.1
		land_reinforce_rate = 0.01
		enable_tactic = tactic_guerrilla_tactics
		doctrine = yes
		research_cost = 3
		folder = {
			name = land_doctrine_folder
			position = { x = -2 y = 12 }
		}
		categories = {
			land_doctrine
			cat_mass_assault
		}
		ai_will_do = {
			factor = 20
		}
	}
	##################################################################
	###  Firepower Focus
	##################################################################
	# Firepower Focus
	Firepower_Focus = {
		xor = { Mobility_Focus Planning_Focus Manpower_Focus }
		dependencies = {
			Beyond_Trench_Warfare = 1
		}
		path = {
			leads_to_tech = Superior_Firepower
			research_cost_coeff = 1
		}
		start_year = 1930
		xp_research_type = army
		xp_research_cost = 100
		xp_research_bonus = 1.00
		category_all_infantry = {
			max_organisation = 5
			defense = 0.05
		}
		doctrine = yes
		research_cost = 3
		folder = {
			name = land_doctrine_folder
			position = { x = 0 y = 0 }
		}
		categories = {
			land_doctrine
			cat_superior_firepower
		}
		ai_will_do = {
			factor = 20
		}
	}
	# Superior Firepower
	Superior_Firepower = {
		path = {
			leads_to_tech = Delay_2
			research_cost_coeff = 1
		}
		path = {
			leads_to_tech = Stand_Off
			research_cost_coeff = 1
		}
		start_year = 1936
		xp_research_type = army
		xp_research_cost = 100
		xp_research_bonus = 1.00
		category_front_line = {
			soft_attack = 0.2
		}
		doctrine = yes
		research_cost = 3
		folder = {
			name = land_doctrine_folder
			position = { x = 0 y = 2 }
		}
		categories = {
			land_doctrine
			cat_superior_firepower
		}
		ai_will_do = {
			factor = 20
		}
	}
	# Delay
	Delay_2 = {
		path = {
			leads_to_tech = Mobile_Defense
			research_cost_coeff = 1
		}
		start_year = 1937
		xp_research_type = army
		xp_research_cost = 100
		xp_research_bonus = 1.00
		category_light_infantry = {
			max_organisation = 10
		}
		enable_tactic = tactic_delay
		doctrine = yes
		research_cost = 3
		folder = {
			name = land_doctrine_folder
			position = { x = -1 y = 4 }
		}
		categories = {
			land_doctrine
			cat_superior_firepower
		}
		ai_will_do = {
			factor = 20
		}
	}
	# Mobile_Defense
	Mobile_Defense = {
		path = {
			leads_to_tech = Regimental_Combat_Teams
			research_cost_coeff = 1
		}
		start_year = 1938
		xp_research_type = army
		xp_research_cost = 100
		xp_research_bonus = 1.00
		category_all_infantry = {
			defense = 0.20
		}
		doctrine = yes
		research_cost = 3
		folder = {
			name = land_doctrine_folder
			position = { x = -1 y = 6 }
		}
		categories = {
			land_doctrine
			cat_superior_firepower
		}
		ai_will_do = {
			factor = 20
		}
	}
	# Stand Off
	Stand_Off = {
		path = {
			leads_to_tech = Integrated_Support
			research_cost_coeff = 1
		}
		start_year = 1939
		xp_research_type = army
		xp_research_cost = 100
		xp_research_bonus = 1.00
		doctrine = yes
		research_cost = 3
		category_all_infantry = {
			max_organisation = 10
		}
		folder = {
			name = land_doctrine_folder
			position = { x = 1 y = 4 }
		}
		categories = {
			land_doctrine
			cat_superior_firepower
		}
		ai_will_do = {
			factor = 20
		}
	}
	# Integrated Support
	Integrated_Support = {
		path = {
			leads_to_tech = Regimental_Combat_Teams
			research_cost_coeff = 1
		}
		start_year = 1940
		xp_research_type = army
		xp_research_cost = 100
		xp_research_bonus = 1.00
		category_support_battalions = {
			max_organisation = 10
			soft_attack = 0.25
		}
		doctrine = yes
		research_cost = 3
		folder = {
			name = land_doctrine_folder
			position = { x = 1 y = 6 }
		}
		categories = {
			land_doctrine
			cat_superior_firepower
		}
		ai_will_do = {
			factor = 20
		}
	}
	# Regimental Combat Teams
	Regimental_Combat_Teams = {
		path = {
			leads_to_tech = Mechanized_Offensive
			research_cost_coeff = 1
		}
		path = {
			leads_to_tech = Combined_Arms_Defense
			research_cost_coeff = 1
		}
		start_year = 1942
		xp_research_type = army
		xp_research_cost = 100
		xp_research_bonus = 1.00
		category_support_battalions = {
			max_organisation = 10
			soft_attack = 0.25
		}
		doctrine = yes
		research_cost = 3
		folder = {
			name = land_doctrine_folder
			position = { x = 0 y = 8 }
		}
		categories = {
			land_doctrine
			cat_superior_firepower
		}
		ai_will_do = {
			factor = 20
		}
	}
	# Mechanized Offensive
	Mechanized_Offensive = {
		path = {
			leads_to_tech = Airland_Battle
			research_cost_coeff = 1
		}
		start_year = 1943
		xp_research_type = army
		xp_research_cost = 100
		xp_research_bonus = 1.00
		category_all_armor = {
			breakthrough = 0.10
		}
		enable_tactic = tactic_blitz
		doctrine = yes
		research_cost = 3
		folder = {
			name = land_doctrine_folder
			position = { x = -1 y = 10 }
		}
		categories = {
			land_doctrine
			cat_superior_firepower
		}
		ai_will_do = {
			factor = 20
		}
	}
	# Combined Arms Defense
	Combined_Arms_Defense = {
		path = {
			leads_to_tech = Airland_Battle
			research_cost_coeff = 1
		}
		start_year = 1943
		xp_research_type = army
		xp_research_cost = 100
		xp_research_bonus = 1.00
		category_front_line = {
			defense = 0.05
			max_organisation = 5
		}
		doctrine = yes
		research_cost = 3
		folder = {
			name = land_doctrine_folder
			position = { x = 1 y = 10 }
		}
		categories = {
			land_doctrine
			cat_superior_firepower
		}
		ai_will_do = {
			factor = 20
		}
	}
	# Airland Battle
	Airland_Battle = {
		path = {
			leads_to_tech = Airland_Battle
			research_cost_coeff = 1
		}
		start_year = 1946
		xp_research_type = army
		xp_research_cost = 100
		xp_research_bonus = 1.00
		category_front_line = {
			max_organisation = 5
		}
		#combat advantage when air superior
		army_bonus_air_superiority_factor = 0.20
		doctrine = yes
		research_cost = 3
		folder = {
			name = land_doctrine_folder
			position = { x = 0 y = 12 }
		}
		categories = {
			land_doctrine
			cat_superior_firepower
		}
		ai_will_do = {
			factor = 20
		}
	}
	##################################################################
	###  Planning Focus
	##################################################################
	# Planning Focus
	Planning_Focus = {
		xor = { Mobility_Focus Firepower_Focus Manpower_Focus }
		dependencies = {
			Beyond_Trench_Warfare = 1
		}
		path = {
			leads_to_tech = Grand_Battle_Plan
			research_cost_coeff = 1
		}
		start_year = 1930
		xp_research_type = army
		xp_research_cost = 100
		xp_research_bonus = 1.00
		category_all_infantry = {
			max_organisation = 5
		}
		doctrine = yes
		research_cost = 3
		folder = {
			name = land_doctrine_folder
			position = { x = 0 y = 0 }
		}
		categories = {
			land_doctrine
			cat_grand_battle_plan
		}
		ai_will_do = {
			factor = 20
		}
	}
	# Grand Battle Plan
	Grand_Battle_Plan = {
		path = {
			leads_to_tech = Trench_Warfare
			research_cost_coeff = 1
		}
		path = {
			leads_to_tech = Pre_Planned_Defense
			research_cost_coeff = 1
		}
		path = {
			leads_to_tech = Mass_Assault
			research_cost_coeff = 1
		}
		start_year = 1936
		xp_research_type = army
		xp_research_cost = 100
		xp_research_bonus = 1.00
		#planning max bonus increase
		max_planning = 0.2
		doctrine = yes
		research_cost = 3
		folder = {
			name = land_doctrine_folder
			position = { x = 0 y = 2 }
		}
		categories = {
			land_doctrine
			cat_grand_battle_plan
		}
		ai_will_do = {
			factor = 20
		}
	}
	# Trench Warfare
	Trench_Warfare = {
		path = {
			leads_to_tech = Pre_Planned_Defense
			research_cost_coeff = 1
		}
		start_year = 1936
		xp_research_type = army
		xp_research_cost = 100
		xp_research_bonus = 1.00
		max_dig_in = 5
		dig_in_speed_factor = 0.2
		doctrine = yes
		research_cost = 3
		folder = {
			name = land_doctrine_folder
			position = { x = -2 y = 2 }
		}
		categories = {
			land_doctrine
			cat_grand_battle_plan
		}
		ai_will_do = {
			factor = 20
		}
	}
	# Mass Assault
	Mass_Assault = {
		path = {
			leads_to_tech = Pre_Planned_Defense
			research_cost_coeff = 1
		}
		start_year = 1938
		xp_research_type = army
		xp_research_cost = 100
		xp_research_bonus = 1.00
		category_all_infantry = {
			breakthrough = 0.05
			max_organisation = 5
		}
		doctrine = yes
		research_cost = 3
		folder = {
			name = land_doctrine_folder
			position = { x = 2 y = 2 }
		}
		categories = {
			land_doctrine
			cat_grand_battle_plan
		}
		ai_will_do = {
			factor = 20
		}
	}
	# Pre-planned Defense
	Pre_Planned_Defense = {
		path = {
			leads_to_tech = Central_Planning
			research_cost_coeff = 1
		}
		start_year = 1940
		xp_research_type = army
		xp_research_cost = 100
		xp_research_bonus = 1.00
		max_dig_in = 5
		doctrine = yes
		research_cost = 3
		folder = {
			name = land_doctrine_folder
			position = { x = 0 y = 4 }
		}
		categories = {
			land_doctrine
			cat_grand_battle_plan
		}
		ai_will_do = {
			factor = 20
		}
	}
	# Central Planning
	Central_Planning = {
		path = {
			leads_to_tech = Operational_Stages
			research_cost_coeff = 1
		}
		path = {
			leads_to_tech = Light_Mobility
			research_cost_coeff = 1
		}
		start_year = 1942
		xp_research_type = army
		xp_research_cost = 100
		xp_research_bonus = 1.00
		max_planning = 0.1
		doctrine = yes
		research_cost = 3
		folder = {
			name = land_doctrine_folder
			position = { x = 0 y = 6 }
		}
		categories = {
			land_doctrine
			cat_grand_battle_plan
		}
		ai_will_do = {
			factor = 20
		}
	}
	# Attritional Containment
	Attritional_Containment = {
		path = {
			leads_to_tech = Assault_Breakthrough
			research_cost_coeff = 1
		}
		start_year = 1942
		xp_research_type = army
		xp_research_cost = 100
		xp_research_bonus = 1.00
		category_all_infantry = {
			max_organisation = 5
		}
		category_tanks = {
			max_organisation = 1
		}
		doctrine = yes
		research_cost = 3
		folder = {
			name = land_doctrine_folder
			position = { x = -3 y = 8 }
		}
		categories = {
			land_doctrine
			cat_grand_battle_plan
		}
		ai_will_do = {
			factor = 20
		}
	}
	# Assault Breakthrough
	Assault_Breakthrough = {
		path = {
			leads_to_tech = Assault_Concentration
			research_cost_coeff = 1
		}
		start_year = 1944
		xp_research_type = army
		xp_research_cost = 100
		xp_research_bonus = 1.00
		category_tanks = {
			max_organisation = 1
			breakthrough = 0.10
		}
		category_all_infantry = {
			max_organisation = 5
			breakthrough = 0.10
		}
		enable_tactic = tactic_breakthrough
		doctrine = yes
		research_cost = 3
		folder = {
			name = land_doctrine_folder
			position = { x = -3 y = 10 }
		}
		categories = {
			land_doctrine
			cat_grand_battle_plan
		}
		ai_will_do = {
			factor = 20
		}
	}
	# Operational Stages
	Operational_Stages = {
		xor = { Light_Mobility }
		path = {
			leads_to_tech = Branch_Interoperability
			research_cost_coeff = 1
		}
		path = {
			leads_to_tech = Attritional_Containment
			research_cost_coeff = 1
		}
		start_year = 1943
		xp_research_type = army
		xp_research_cost = 100
		xp_research_bonus = 1.00
		doctrine = yes
		research_cost = 3
		folder = {
			name = land_doctrine_folder
			position = { x = -1 y = 8 }
		}
		categories = {
			land_doctrine
			cat_grand_battle_plan
		}
		ai_will_do = {
			factor = 20
		}
	}
	# Branch Interoperability
	Branch_Interoperability = {
		path = {
			leads_to_tech = Assault_Concentration
			research_cost_coeff = 1
		}
		start_year = 1944
		xp_research_type = army
		xp_research_cost = 100
		xp_research_bonus = 1.00
		category_all_infantry = {
			max_organisation = 5
		}
		category_tanks = {
			max_organisation = 1
		}
		doctrine = yes
		research_cost = 3
		folder = {
			name = land_doctrine_folder
			position = { x = -1 y = 10 }
		}
		categories = {
			land_doctrine
			cat_grand_battle_plan
		}
		ai_will_do = {
			factor = 20
		}
	}
	# Assault Concentration
	Assault_Concentration = {
		start_year = 1946
		xp_research_type = army
		xp_research_cost = 100
		xp_research_bonus = 1.00
		category_army = {
			breakthrough = 0.10
		}
		enable_tactic = tactic_breakthrough
		doctrine = yes
		research_cost = 3
		folder = {
			name = land_doctrine_folder
			position = { x = -2 y = 12 }
		}
		categories = {
			land_doctrine
			cat_grand_battle_plan
		}
		ai_will_do = {
			factor = 20
		}
	}
	# Light Mobility
	Light_Mobility = {
		xor = { Operational_Stages }
		path = {
			leads_to_tech = Combined_Arms
			research_cost_coeff = 1
		}
		path = {
			leads_to_tech = Infiltration_Assault
			research_cost_coeff = 1
		}
		start_year = 1941
		xp_research_type = army
		xp_research_cost = 100
		xp_research_bonus = 1.00
		land_reinforce_rate = 0.02
		category_all_infantry = {
			max_organisation = 5
		}
		category_tanks = {
			max_organisation = 1
		}
		doctrine = yes
		research_cost = 3
		folder = {
			name = land_doctrine_folder
			position = { x = 1 y = 8 }
		}
		categories = {
			land_doctrine
			cat_grand_battle_plan
		}
		ai_will_do = {
			factor = 20
		}
	}
	# Combined Arms
	Combined_Arms = {
		path = {
			leads_to_tech = Light_Infantry_Tactics
			research_cost_coeff = 1
		}
		start_year = 1943
		xp_research_type = army
		xp_research_cost = 100
		xp_research_bonus = 1.00
		doctrine = yes
		research_cost = 3
		folder = {
			name = land_doctrine_folder
			position = { x = 1 y = 10 }
		}
		categories = {
			land_doctrine
			cat_grand_battle_plan
		}
		ai_will_do = {
			factor = 20
		}
	}
	# Infiltration Assault
	Infiltration_Assault = {
		path = {
			leads_to_tech = Infiltration_in_Depth
			research_cost_coeff = 1
		}
		start_year = 1942
		xp_research_type = army
		xp_research_cost = 100
		xp_research_bonus = 1.00
		supply_consumption_factor = -0.10
		land_night_attack = 0.1
		doctrine = yes
		research_cost = 3
		folder = {
			name = land_doctrine_folder
			position = { x = 3 y = 8 }
		}
		categories = {
			land_doctrine
			cat_grand_battle_plan
		}
		ai_will_do = {
			factor = 20
		}
	}
	# Infiltration in Depth
	Infiltration_in_Depth = {
		path = {
			leads_to_tech = Light_Infantry_Tactics
			research_cost_coeff = 1
		}
		start_year = 1943
		xp_research_type = army
		xp_research_cost = 100
		xp_research_bonus = 1.00
		land_reinforce_rate = 0.02
		recon = {
			recon = 1
		}
		doctrine = yes
		research_cost = 3
		folder = {
			name = land_doctrine_folder
			position = { x = 3 y = 10 }
		}
		categories = {
			land_doctrine
			cat_grand_battle_plan
		}
		ai_will_do = {
			factor = 20
		}
	}
	# Light Infantry Tactics
	Light_Infantry_Tactics = {
		path = {
			leads_to_tech = Light_Infantry_Tactics
			research_cost_coeff = 1
		}
		start_year = 1946
		xp_research_type = army
		xp_research_cost = 100
		xp_research_bonus = 1.00
		category_light_infantry = {
			max_organisation = 5
			breakthrough = 0.1
		}
		enable_tactic = tactic_infantry_charge
		doctrine = yes
		research_cost = 3
		folder = {
			name = land_doctrine_folder
			position = { x = 2 y = 12 }
		}
		categories = {
			land_doctrine
			cat_grand_battle_plan
		}
		ai_will_do = {
			factor = 20
		}
	}
}
