﻿###########################
# Yugoslavian Events
###########################
add_namespace = yugoslavia
add_namespace = YUG_Election_1935
add_namespace = YUG_Election_1938
add_namespace = YUG_Politics
# Britain to Back Coup in Yugoslavia
country_event = {
	id = yugoslavia.1
	title = yugoslavia.1.t
	desc = yugoslavia.1.d
	picture = GFX_report_event_yugoslavian_king_peter
	fire_only_once = yes
	trigger = {
		tag = ENG
		YUG = {
			OR = {
				is_in_faction_with = GER
				gives_military_access_to = GER
			}
		}
		#HUN = { owns_state = 76 }
		GER = {
			OR = {
				AND = { is_in_faction_with = ITA is_in_faction_with = HUN }
				AND = { is_in_faction_with = ITA is_in_faction_with = BUL }
				AND = { is_in_faction_with = HUN is_in_faction_with = BUL }
			}
		}
		ENG = { NOT = { is_in_faction_with = GER } }
	}
	immediate = {
		hidden_effect = { remove_ideas = YUG_Anti_German_Sentiments }
	}
	mean_time_to_happen = {
		days = 14
	}
	option = {
		name = yugoslavia.1.a
		add_political_power = -50
		YUG = {
			country_event = { id = yugoslavia.2 }
		}
	}
	option = {
		name = yugoslavia.1.b
		ai_chance = { factor = 0 }
	}
}
# Yugoslavian Coup
country_event = {
	id = yugoslavia.2
	title = yugoslavia.2.t
	desc = yugoslavia.2.d
	picture = GFX_report_event_yugoslavian_king_peter
	is_triggered_only = yes
	immediate = {
		hidden_effect = { remove_ideas = { YUG_Anti_German_Sentiments } }
	}
	option = {
		name = yugoslavia.2.a
		retire_country_leader = yes
		create_country_leader = {
			name = "Peter II"
			desc = "POLITICS_PETER_II_DESC"
			picture = GFX_P_A_Peter_II
			ideology = authoritarian_democracy
			traits = {
				#
			}
		}
		#add_opinion_modifier = { target = GER modifier = anti_german_coup }
		diplomatic_relation = {
			country = GER
			relation = non_aggression_pact
			active = no
		}
		if = {
			limit = { is_in_faction_with = GER }
			GER = { remove_from_faction = YUG }
		}
		if = {
			limit = { gives_military_access_to = GER }
			GER = {
				diplomatic_relation = {
					country = YUG
					relation = military_access
					active = no
				}
			}
		}
		news_event = { hours = 6 id = news.150 }
	}
	option = {
		name = yugoslavia.2.b
		ai_chance = { factor = 0 }
		start_civil_war = {
			ideology = democratic
			size = 0.4
		}
	}
}
# Yugoslavia (British and (possibly) French Support)
country_event = {
	id = yugoslavia.3
	title = yugoslavia.3.t
	desc = {
		text = yugoslavia.3.d 
		trigger = {
			NOT = { has_global_flag = FRA_abandoned_yugoslavia }
		}
	}
	desc = {
		text = yugoslavia.3.d_FRA_abandoned_yugoslavia
		trigger = {
			has_global_flag = FRA_abandoned_yugoslavia
		}
	}
	picture = GFX_report_event_chamberlain_announce
	is_triggered_only = yes
	option = {
		name = yugoslavia.3.a
		effect_tooltip = {
			GER = {
				create_wargoal = {
					type = take_state_focus
					target = YUG
					generator = { 102 }
				}
			}
		}
	}
}
# Yugoslavia (French Support)
country_event = {
	id = yugoslavia.4
	title = yugoslavia.3.t
	desc = yugoslavia.4.d
	picture = GFX_report_event_chamberlain_announce
	is_triggered_only = yes
	option = {
		name = yugoslavia.4.a
		effect_tooltip = {
			GER = {
				create_wargoal = {
					type = take_state_focus
					target = YUG
					generator = { 102 }
				}
			}
		}
	}
}
# Yugoslavia (Abandoned)
country_event = {
	id = yugoslavia.5
	title = yugoslavia.5.t
	desc = yugoslavia.5.d
	picture = GFX_report_event_hitler_croatia_handshake
	is_triggered_only = yes
	option = { # Surrender Slovenia
		name = yugoslavia.5.a
		ai_chance = {
			factor = 90
			modifier = { # Decrease chance YUG resists if AUS isn't taken first
				AUS = { exists = yes }
				factor = 0.5
			}
			modifier = { # If they stand a chance to hold the line they will fight
				factor = 0.1
				strength_ratio = {
					tag = GER
					ratio > 0.70
				}
			}
			modifier = { #decrease if in faction
				factor = 0.5
				is_in_faction = yes
			}
			modifier = { # Increase it again if other bordering nations are in Axis
				any_neighbor_country = {
					NOT = { tag = GER }
					is_in_faction_with = GER
				}
				factor = 2.0
			}
		}
		GER = { country_event = germany.94 } #Germany gets Slovenia
	}
	option = { # Refuse anyway
		name = yugoslavia.5.b
		ai_chance = { factor = 10 }
		GER = {
			country_event = germany.95 #Germany gains wargoal
			effect_tooltip = {
				create_wargoal = {
					type = take_state_focus
					target = YUG
					generator = { 102 }
				}
			}
		}
	}
}
# Yugoslavia (Italian Support)
country_event = {
	id = yugoslavia.6
	title = yugoslavia.3.t
	desc = yugoslavia.6.d
	picture = GFX_report_event_fascists_posing
	is_triggered_only = yes
	option = {
		name = yugoslavia.6.a
		effect_tooltip = {
			GER = {
				create_wargoal = {
					type = take_state_focus
					target = YUG
					generator = { 102 }
				}
			}
		}
	}
}
# Fate of Yugoslavia
country_event = {
	id = yugoslavia.7
	title = germany.98.t
	desc = {
		text = yugoslavia.7.d
	}
	picture = GFX_report_event_german_inspect_troops
	is_triggered_only = yes
	#Nope
	option = {
		name = yugoslavia.7.a
		ai_chance = { 
			factor = 5
		}
		GER = { country_event = { id = germany.111 days = 1 } 
			effect_tooltip = {
				create_wargoal = {
					type = annex_everything
					target = YUG
				}
			}
		}
	}
	#Alrighty
	option = {
		name = yugoslavia.7.b
		ai_chance = { 
			factor = 10
			modifier = {
				factor = 0
				is_puppet = yes
			}
			modifier = {
				factor = 0
				any_other_country = {
					is_major = yes
					OR = {
						has_guaranteed = YUG
						is_in_faction_with = YUG
					}
				}
			}
		}
		custom_effect_tooltip = GAME_OVER_TT
		GER = {
			add_political_power = -75		
			add_named_threat = { threat = 5 name = GER_fate_of_yugoslavia }
			annex_country = { target = YUG transfer_troops = no }
			hidden_effect = {
				set_global_flag = GER_fate_of_yugoslavia_annex_YUG
				news_event = { hours = 6 id = news.169 }
			}
		}
	}
}
# Fate of Yugoslavia
country_event = {
	id = yugoslavia.8
	title = germany.98.t
	desc = {
		text = yugoslavia.8.d
	}
	picture = GFX_report_event_german_inspect_troops
	is_triggered_only = yes
	#Fuck that
	option = {
		name = yugoslavia.8.a
		ai_chance = { 
			factor = 10
		}
		GER = { country_event = { id = germany.111 days = 1 } 
			effect_tooltip = {
				create_wargoal = {
					type = annex_everything
					target = YUG
				}
			}
		}
	}
	#Sure thing
	option = {
		name = yugoslavia.8.b
		ai_chance = {
			factor = 10
			modifier = {
				factor = 0
				any_other_country = {
					is_major = yes
					OR = {
						has_guaranteed = YUG
						is_in_faction_with = YUG
					}
				}
			}
			modifier = {
				factor = 0
				is_puppet = yes
			} 
		}
		trigger = { 
			YUG = { 
				OR = { 
					owns_state = 103
					owns_state = 104
					owns_state = 109
				} 
			} 
		}
		GER = {		
			add_political_power = -25
			add_named_threat = { threat = 3 name = GER_fate_of_yugoslavia }
			CRO = {
				if = {
					limit = { YUG = { owns_state = 103 } }
					transfer_state = 103
				}
				if = {
					limit = { YUG = { owns_state = 104 } }
					transfer_state = 104
				}
				if = {
					limit = { YUG = { owns_state = 109 } }
					transfer_state = 109
				}						
			}
			puppet = CRO
			annex_country = { target = YUG transfer_troops = no }
			hidden_effect = {
				set_global_flag = GER_fate_of_yugoslavia_puppet_CRO_annex_YUG
				news_event = { hours = 6 id = news.169 }
			}
		}
	}
}
# Fate of Yugoslavia
country_event = {
	id = yugoslavia.9
	title = germany.98.t
	desc = {
		text = yugoslavia.9.d
	}
	picture = GFX_report_event_german_inspect_troops
	is_triggered_only = yes
	#No way
	option = {
		name = yugoslavia.9.a
		ai_chance = { factor = 2 }
		GER = { country_event = { id = germany.111 days = 1 } 
			effect_tooltip = {
				create_wargoal = {
					type = annex_everything
					target = YUG
				}
			}
		}
	}
	#Seems fair
	option = {
		name = yugoslavia.9.c
		ai_chance = { 
			factor = 10
			modifier = {
				factor = 0
				any_other_country = {
					is_major = yes
					OR = {
						has_guaranteed = YUG
						is_in_faction_with = YUG
					}
				}
			}
			modifier = {
				factor = 0
				is_puppet = yes
			} 
		}
		GER = {
			add_named_threat = { threat = 2 name = GER_fate_of_yugoslavia }
			CRO = {
				if = {
					limit = { YUG = { owns_state = 103 } }
					transfer_state = 103
				}
				if = {
					limit = { YUG = { owns_state = 104 } }
					transfer_state = 104
				}
				if = {
					limit = { YUG = { owns_state = 109 } }
					transfer_state = 109
				}						
			}
			puppet = CRO
			puppet = YUG
			hidden_effect = {
				set_global_flag = GER_fate_of_yugoslavia_puppet_CRO_YUG
				news_event = { hours = 6 id = news.169 }
			}
		}
	}
}
# Yugoslavian General Election, 1935
country_event = {
	id = YUG_Election_1935.1
	title = YUG_Election_1935.1.t
	desc = YUG_Election_1935.1.d
	picture = GFX_Generic_Elections
	is_triggered_only = yes
	trigger = {
		tag = YUG
		date > 1935.5.5
		has_start_date < 1935.5.5
	}
	# Milan Stojadinović - National Party
	option = {
		name = YUG_Election_1935.1.A
		retire_country_leader = yes
		create_country_leader = {
			name = "Milan Stojadinovic"
			picture = GFX_P_A_Milan_Stojadinovic
			ideology = monarchism
			traits = { POSITION_Prime_Minister SUBIDEOLOGY_Monarchism }
		}
		hidden_effect = {
			set_popularities = {
				democratic = 37
				authoritarian = 62
				fascist = 1
				socialist = 0
				communist = 0
			}
		}
	}
}
# Yugoslavian General Election, 1935
country_event = {
	id = YUG_Election_1938.1
	title = YUG_Election_1938.1.t
	desc = YUG_Election_1938.1.d
	picture = GFX_Generic_Elections
	is_triggered_only = yes
	trigger = {
		tag = YUG
		date > 1938.12.11
		has_start_date < 1938.12.11
	}
	# Milan Stojadinović - National Party
	option = {
		name = YUG_Election_1938.1.A
		create_country_leader = {
			name = "Milan Stojadinovic"
			picture = GFX_P_A_Milan_Stojadinovic
			ideology = monarchism
			traits = { POSITION_Prime_Minister SUBIDEOLOGY_Monarchism }
		}
		hidden_effect = {
			set_popularities = {
				democratic = 45
				authoritarian = 54
				fascist = 1
				socialist = 0
				communist = 0
			}
		}
	}
}
# Change of PM 
country_event = {
	id = YUG_Politics.1
	title = YUG_Politics.1.t
	desc = YUG_Politics.1.d
	picture = GFX_Generic_Elections
	is_triggered_only = yes
	trigger = {
		original_tag = YUG
		date > 1934.1.27
		has_start_date < 1934.1.27
	}
	# Nikola Uzunović - National Party
	option = {
		name = YUG_Politics.1.A
		retire_country_leader = yes
		create_country_leader = {
			name = "Nikola Uzunovic"
			picture = GFX_P_A_Nikola_Uzunovic
			ideology = monarchism
			traits = { POSITION_Prime_Minister SUBIDEOLOGY_Monarchism }
		}
	}
}
# Change of PM 
country_event = {
	id = YUG_Politics.2
	title = YUG_Politics.2.t
	desc = YUG_Politics.2.d
	picture = GFX_Generic_Elections
	is_triggered_only = yes
	trigger = {
		original_tag = YUG
		date > 1934.12.22
		has_start_date < 1934.12.22
	}
	# Bogoljub Jevtić - National Party
	option = {
		name = YUG_Politics.2.A
		retire_country_leader = yes
		create_country_leader = {
			name = "Bogoljub Jevtic"
			picture = GFX_P_A_Bogoljub_Jevtic
			ideology = monarchism
			traits = { POSITION_Prime_Minister SUBIDEOLOGY_Monarchism }
		}
	}
}
# Change of PM 
country_event = {
	id = YUG_Politics.3
	title = YUG_Politics.3.t
	desc = YUG_Politics.3.d
	picture = GFX_Generic_Elections
	is_triggered_only = yes
	trigger = {
		original_tag = YUG
		date > 1939.2.5
		has_start_date < 1939.2.5
	}
	# Dragiša Cvetković - National Party
	option = {
		name = YUG_Politics.3.A
		retire_country_leader = yes
		create_country_leader = {
			name = "Dragiša Cvetkovic"
			picture = GFX_P_A_Dragisa_Cvetkovic
			ideology = monarchism
			traits = { POSITION_Prime_Minister SUBIDEOLOGY_Monarchism }
		}
	}
}
