﻿division_template = {
	name = "Infantry Division"
	division_names_group = AST_INF_01
	regiments = {
		infantry = { x = 0 y = 0 }
		infantry = { x = 0 y = 1 }
		infantry = { x = 0 y = 2 }
		infantry = { x = 0 y = 3 }
		infantry = { x = 1 y = 0 }
		infantry = { x = 1 y = 1 }
		infantry = { x = 1 y = 2 }
		infantry = { x = 1 y = 3 }
		infantry = { x = 2 y = 0 }
		infantry = { x = 2 y = 1 }
		infantry = { x = 2 y = 2 }
		infantry = { x = 2 y = 3 }
		artillery_battalion = { x = 3 y = 0 }
		artillery_battalion = { x = 3 y = 1 }
		artillery_battalion_heavy = { x = 3 y = 2 }
	}
	support = {
		engineer = { x = 0 y = 0 }
		signal_company = { x = 0 y = 1 }
	}
}

division_template = {
	name = "Cavalry Division"  
	division_names_group = AST_CAV_01
	regiments = {
		cavalry = { x = 0 y = 0 }
		cavalry = { x = 0 y = 1 }
		cavalry = { x = 0 y = 2 }
		cavalry = { x = 1 y = 0 }
		cavalry = { x = 1 y = 1 }
		cavalry = { x = 1 y = 2 }
		cavalry = { x = 2 y = 0 }
		cavalry = { x = 2 y = 1 }
		cavalry = { x = 2 y = 2 }
		artillery_battalion_heavy = { x = 3 y = 0 }
	}
	support = {
		armored_car_recon = { x = 0 y = 0 }
		engineer = { x = 0 y = 1 }
		signal_company = { x = 0 y = 2 }
	}
}

division_template = {
	name = "Military District"	# These formations varied, but consisted of heavy artillery, fortress engineers, and anti-aircraft units.
	division_names_group = AST_GAR_01
	regiments = {
		garrison = { x = 0 y = 0 }
		artillery_battalion_heavy = { x = 1 y = 0 }
		artillery_battalion_heavy = { x = 1 y = 1 }
		anti_air_brigade = { x = 1 y = 2 }
	}
	support = {
		engineer = { x = 0 y = 0 }
	}
}

units = {
	##### Royal Australian Army #####

	division= { # 1st Infantry Division
		division_name = {
			is_name_ordered = yes
			name_order = 1
		}
		location = 7520 # Newcastle
		division_template = "Infantry Division"
		start_experience_factor = 0.14
		start_equipment_factor = 0.8

	}
	division= {	# 2nd Infantry Division
		division_name = {
			is_name_ordered = yes
			name_order = 2
		}
		location = 12406 # Parramatta
		division_template = "Infantry Division"
		start_experience_factor = 0.14
		start_equipment_factor = 0.8

	}
	division= {	# 3rd Infantry Division
		division_name = {
			is_name_ordered = yes
			name_order = 3
		}
		location = 7798 # Melbourne
		division_template = "Infantry Division"
		start_experience_factor = 0.14
		start_equipment_factor = 0.8

	}
	division= {	# 4th Infantry Division
		division_name = {
			is_name_ordered = yes
			name_order = 4
		}
		location = 7798 # Melbourne
		division_template = "Infantry Division"
		start_experience_factor = 0.14
		start_equipment_factor = 0.8

	}
	division= { # 5th Infantry Division - the division HQ was not raised until 1939 but the three component brigades all existed during this time.
		division_name = {
			is_name_ordered = yes
			name_order = 5
		}
		location = 7566 # Townsville
		division_template = "Infantry Division"
		start_experience_factor = 0.10
		start_equipment_factor = 0.8
	}
	division= { # 1st Cavalry Division
		division_name = {
			is_name_ordered = yes
			name_order = 1
		}
		location = 7564 # Brisbane
		division_template = "Cavalry Division"
		start_experience_factor = 0.18
		start_equipment_factor = 0.9
	}
	division= {	# 2nd Cavalry Division
		division_name = {
			is_name_ordered = yes
			name_order = 2
		}
		location = 7798 # Melbourne
		division_template = "Cavalry Division"
		start_experience_factor = 0.18
		start_equipment_factor = 0.60 # 2nd Cavalry Division had 2/3rds of the cavalry and artillery of the 1st Cavalry Division.
	}
	division= {
		division_name = {
			is_name_ordered = yes
			name_order = 1
		}
		location = 7564 # Brisbane
		division_template = "Military District"
		start_experience_factor = 0.18
		start_equipment_factor = 0.60
	}
	division= {
		division_name = {
			is_name_ordered = yes
			name_order = 2
		}
		location = 12406 # Sydney
		division_template = "Military District"
		start_experience_factor = 0.18
		start_equipment_factor = 0.9
	}
	division= {
		division_name = {
			is_name_ordered = yes
			name_order = 3
		}
		location = 7798 # Melbourne
		division_template = "Military District"
		start_experience_factor = 0.18
		start_equipment_factor = 0.6
	}
	division= {
		division_name = {
			is_name_ordered = yes
			name_order = 4
		}
		location = 12910 # Adelaide
		division_template = "Military District"
		start_experience_factor = 0.18
		start_equipment_factor = 0.6
	}
	division= {
		division_name = {
			is_name_ordered = yes
			name_order = 5
		}
		location = 1652 # Perth
		division_template = "Military District"
		start_experience_factor = 0.18
		start_equipment_factor = 0.7
	}
	division= {
		division_name = {
			is_name_ordered = yes
			name_order = 6
		}
		location = 2189 # Hobart
		division_template = "Military District"
		start_experience_factor = 0.18
		start_equipment_factor = 0.4
	}
	division= {
		division_name = {
			is_name_ordered = yes
			name_order = 7
		}
		location = 7669 # Darwin
		division_template = "Military District"
		start_experience_factor = 0.18
		start_equipment_factor = 0.3
	}
	division= {
		division_name = {
			is_name_ordered = yes
			name_order = 8
		}
		location = 7251 # Rabaul
		division_template = "Military District"
		start_experience_factor = 0.18
		start_equipment_factor = 0.3
	}

	##### Naval OOB #####
	fleet = {
		name = "Royal Australian Navy"
		naval_base = 12406 # Sydney
		task_force = {				
			name = "HM Australian Fleet"
			location = 12406 # Sydney
			ship = { name = "HMAS Albatross" definition = escort_carrier equipment = { CV_equipment_1912 = { amount = 1 owner = AST } } air_wings = {}}	
			ship = { name = "HMAS Australia" definition = heavy_cruiser equipment = { CA_equipment_1933 = { amount = 1 owner = AST } } }
			ship = { name = "HMAS Canberra" definition = heavy_cruiser equipment = { CA_equipment_1933 = { amount = 1 owner = AST } } }
			ship = { name = "HMAS Sydney" definition = light_cruiser equipment = { CL_equipment_1922 = { amount = 1 owner = AST } } }
			ship = { name = "HMAS Adelaide" definition = light_cruiser equipment = { CL_equipment_1922 = { amount = 1 owner = AST } } }
		}
		task_force = {
			name = "HM Australian Reserve Fleet"
			location = 12406 # Sydney
			ship = { name = "1st Destroyer Flotilla" definition = destroyer equipment = { DD_equipment_1916 = { amount = 1 owner = AST } } }
			ship = { name = "2nd Destroyer Flotilla" definition = destroyer equipment = { DD_equipment_1916 = { amount = 1 owner = AST } } }
		}
	}
}

air_wings = {
	### Royal Australian Air Force (RAAF)-- New South Wales
	285 = {
		Tactical_Bomber_equipment_1936 =  { # Interwar Tactical Bomber
			owner = "AST" 
			amount = 24
		}
	}
}


##### Starting Production #####
instant_effect = {
	add_equipment_production = {
		equipment = {
			type = Small_Arms_equipment_1936
			creator = "AST"
		}
		requested_factories = 2
		progress = 0.75
		efficiency = 100
	}

	add_equipment_production = {
		equipment = {
			type = Fighter_equipment_1936
			creator = "AST"
		}
		requested_factories = 1
		progress = 0.4
		efficiency = 100
	}

	add_equipment_production = {
		equipment = {
			type = Tactical_Bomber_equipment_1936
			creator = "AST"
		}
		requested_factories = 1
		progress = 0.32
		efficiency = 100
	}

	add_equipment_production = {
		equipment = {
			type = DD_equipment_1916
			creator = "AST"
		}
		requested_factories = 2
		progress = 0.2
		amount = 3
	}
}