﻿division_template = {
	name = "Kebur Zabagna"				# Imperial Bodyguard
	regiments = {
		infantry = { x = 0 y = 0 }
		infantry = { x = 0 y = 1 }
		infantry = { x = 0 y = 2 }
		infantry = { x = 1 y = 0 }
		infantry = { x = 1 y = 1 }
		infantry = { x = 1 y = 2 }
		infantry = { x = 2 y = 0 }
		infantry = { x = 2 y = 1 }
		infantry = { x = 2 y = 2 }
    }
    is_locked = yes
	priority = 2
}

division_template = {
	name = "yewenijeli kififili"		# Infantry Division
	regiments = {
		infantry = { x = 0 y = 0 }
		infantry = { x = 0 y = 1 }
		infantry = { x = 0 y = 2 }
		infantry = { x = 1 y = 0 }
        infantry = { x = 1 y = 1 }
        infantry = { x = 1 y = 2 }
	}
}

division_template = {
	name = "mīlīnīya diniberi"      # Militia Brigade
	regiments = {
		militia = { x = 0 y = 0 }
		militia = { x = 0 y = 1 }
		militia = { x = 1 y = 0 }
		militia = { x = 1 y = 1 }
    }
    priority = 0
}


units = {
	##### Imperial Guard ########## Imperial Guard #####
    division = {
        name = "Kebur Zabagna"
        location = 5010 # Addis Ababa
        division_template = "Kebur Zabagna"
        start_experience_factor = 0.2
    }
    ##### Army of the Left #####
    division = {
        name = "Gojjam  Sefari"
        location = 1984 # Gondar
        division_template = "yewenijeli kififili"
        start_experience_factor = 0.1
    }

    division = {
        name = "Wolqayt Sefari"
        location = 1984 # Gondar
        division_template = "mīlīnīya diniberi"
        start_experience_factor = 0
    }

    division = {
        name = "Semien Sefari"
        location = 1984 # Gondar
        division_template = "mīlīnīya diniberi"
        start_experience_factor = 0
    }

    division = {
        name = "1st Gojjam Levies"
        location = 1984 # Gondar
        division_template = "mīlīnīya diniberi"
        start_experience_factor = 0
        start_equipment_factor = 0.8
    }

    division = {
        name = "2nd Gojjam Levies"
        location = 1984 # Gondar
        division_template = "mīlīnīya diniberi"
        start_experience_factor = 0
        start_equipment_factor = 0.8
    }

    division = {
        name = "3rd Gojjam Levies"
        location = 1984 # Gondar
        division_template = "mīlīnīya diniberi"
        start_experience_factor = 0
        start_equipment_factor = 0.8
    }
    ##### Army of the Center #####
    division = {
        name = "Amino Sefari"
        location = 2072 # Adigrat
        division_template = "yewenijeli kififili"
        start_experience_factor = 0.1
        start_equipment_factor = 0.6
    }

    division = {
        name = "Gubba Sefari"
        location = 2072 # Adigrat
        division_template = "yewenijeli kififili"
        start_experience_factor = 0.1
        start_equipment_factor = 0.6
    }

    division = {
        name = "Gurage Sefari"
        location = 2072 # Adigrat
        division_template = "yewenijeli kififili"
        start_experience_factor = 0.1
        start_equipment_factor = 0.6
    }

    division = {
        name = "Jimma Sefari"
        location = 2072 # Adigrat
        division_template = "yewenijeli kififili"
        start_experience_factor = 0.1
        start_equipment_factor = 0.6
    }

    division = {
        name = "Mui Sefari"
        location = 2072 # Adigrat
        division_template = "yewenijeli kififili"
        start_experience_factor = 0.1
        start_equipment_factor = 0.6
    }

    division = {
        name = "Om Hajer Sefari"
        location = 2072 # Adigrat
        division_template = "yewenijeli kififili"
        start_experience_factor = 0.1
        start_equipment_factor = 0.6
    }

    division = {
        name = "Sela Sefari"
        location = 2072 # Adigrat
        division_template = "yewenijeli kififili"
        start_experience_factor = 0.1
        start_equipment_factor = 0.6
    }

    division = {
        name = "Sodo Sefari"
        location = 2072 # Adigrat
        division_template = "yewenijeli kififili"
        start_experience_factor = 0.1
        start_equipment_factor = 0.6
    }

    division = {
        name = "Welega Sefari"
        location = 2072 # Adigrat
        division_template = "yewenijeli kififili"
        start_experience_factor = 0.1
        start_equipment_factor = 0.6
    }
    ##### Army of the Right #####
    division = {
        name = "1. Begemder  Sefari"
        location = 13215 # Adigrat
        division_template = "mīlīnīya diniberi"
        start_experience_factor = 0
    }

    division = {
        name = "2. Begemder  Sefari"
        location = 13215 # Adigrat
        division_template = "mīlīnīya diniberi"
        start_experience_factor = 0
    }

    division = {
        name = "3. Begemder  Sefari"
        location = 13215 # Adigrat
        division_template = "mīlīnīya diniberi"
        start_experience_factor = 0
    }

    division = {
        name = "4. Begemder  Sefari"
        location = 13215 # Adigrat
        division_template = "mīlīnīya diniberi"
        start_experience_factor = 0
    }

    division = {
        name = "5. Begemder  Sefari"
        location = 13215 # Adigrat
        division_template = "mīlīnīya diniberi"
        start_experience_factor = 0
    }

    division = {
        name = "6. Begemder  Sefari"
        location = 13215 # Adigrat
        division_template = "mīlīnīya diniberi"
        start_experience_factor = 0
    }

    division = {
        name = "7. Begemder  Sefari"
        location = 13215 # Adigrat
        division_template = "mīlīnīya diniberi"
        start_experience_factor = 0
    }

    division = {
        name = "8. Begemder  Sefari"
        location = 13215 # Adigrat
        division_template = "mīlīnīya diniberi"
        start_experience_factor = 0
    }

    division = {
        name = "9. Begemder  Sefari"
        location = 13215 # Adigrat
        division_template = "mīlīnīya diniberi"
        start_experience_factor = 0
    }

    division = {
        name = "10. Begemder  Sefari"
        location = 13215 # Adigrat
        division_template = "mīlīnīya diniberi"
        start_experience_factor = 0
    }

    division = {
        name = "11. Begemder  Sefari"
        location = 13215 # Adigrat
        division_template = "mīlīnīya diniberi"
        start_experience_factor = 0
    }

    division = {
        name = "1. Tigray Sefari"
        location = 13215 # Adigrat
        division_template = "yewenijeli kififili"
        start_experience_factor = 0.1
    }

    division = {
        name = "2. Tigray Sefari"
        location = 13215 # Adigrat
        division_template = "yewenijeli kififili"
        start_experience_factor = 0.1
    }

    division = {
        name = "3. Tigray Sefari"
        location = 13215 # Adigrat
        division_template = "yewenijeli kififili"
        start_experience_factor = 0.1
    }

    division = {
        name = "1. Wag Sefari"
        location = 13215 # Adigrat
        division_template = "mīlīnīya diniberi"
        start_experience_factor = 0
        start_equipment_factor = 0.7
    }

    division = {
        name = "2. Wag Sefari"
        location = 13215 # Adigrat
        division_template = "mīlīnīya diniberi"
        start_experience_factor = 0
        start_equipment_factor = 0.7
    }

    division = {
        name = "1. Lasta Sefari"
        location = 13215 # Adigrat
        division_template = "yewenijeli kififili"
        start_experience_factor = 0.1
        start_equipment_factor = 0.05
    }

    division = {
        name = "2. Lasta Sefari"
        location = 13215 # Adigrat
        division_template = "yewenijeli kififili"
        start_experience_factor = 0.1
        start_equipment_factor = 0.9
    }

    division = {
        name = "1. Yejju Sefari"
        location = 13215 # Adigrat
        division_template = "yewenijeli kififili"
        start_experience_factor = 0.1
        start_equipment_factor = 0.9
    }

    division = {
        name = "2. Yejju Sefari"
        location = 13215 # Adigrat
        division_template = "yewenijeli kififili"
        start_experience_factor = 0.1
        start_equipment_factor = 0.9
    }
    ##### Danakil region #####
    division = {
        name = "Danakil Sefari"
        location = 2064 # Tendaho
        division_template = "mīlīnīya diniberi"
        start_experience_factor = 0
        start_equipment_factor = 0.6
    }
    ##### Northern Front Reserves #####
    division = {
        name = "1. Ifrata Sefari"
        location = 5097 # Dessie
        division_template = "yewenijeli kififili"
        start_experience_factor = 0.1
        start_equipment_factor = 0.9
    }

    division = {
        name = "2. Ifrata Sefari"
        location = 5097 # Dessie
        division_template = "yewenijeli kififili"
        start_experience_factor = 0.1
        start_equipment_factor = 0.9
    }

    division = {
        name = "1. Kaffa Sefari"
        location = 5097 # Dessie
        division_template = "yewenijeli kififili"
        start_experience_factor = 0.1
        start_equipment_factor = 0.9
    }

    division = {
        name = "2. Kaffa Sefari"
        location = 5097 # Dessie
        division_template = "yewenijeli kififili"
        start_experience_factor = 0.1
        start_equipment_factor = 0.9
    }

    division = {
        name = "Welega-Ardjo Sefari"
        location = 5097 # Dessie
        division_template = "yewenijeli kififili"
        start_experience_factor = 0.1
        start_equipment_factor = 0.75
    }

    division = {
        name = "Wollo Sefari"
        location = 5097 # Dessie
        division_template = "mīlīnīya diniberi"
        start_experience_factor = 0
        start_equipment_factor = 0.4
    }
    ##### Southern Front #####
    division = {
        name = "Ogaden Sefari"
        location = 10775 # Goba
        division_template = "mīlīnīya diniberi"
        start_experience_factor = 0
        start_equipment_factor = 0.4
    }
    ##### Hararghe  Sefari #####
    division = {
        name = "1. Illubabor Sefari"
        location = 7980 # Harar
        division_template = "mīlīnīya diniberi"
        start_experience_factor = 0
        start_equipment_factor = 0.8
    }

    division = {
        name = "2. Illubabor Sefari"
        location = 7980 # Harar
        division_template = "mīlīnīya diniberi"
        start_experience_factor = 0
        start_equipment_factor = 0.8
    }

    division = {
        name = "3. Illubabor Sefari"
        location = 7980 # Harar
        division_template = "mīlīnīya diniberi"
        start_experience_factor = 0
        start_equipment_factor = 0.8
    }

    division = {
        name = "Gemu Gofa Sefari"
        location = 7980 # Harar
        division_template = "mīlīnīya diniberi"
        start_experience_factor = 0
        start_equipment_factor = 0.6
    }

    division = {
        name = "Arusi Sefari"
        location = 7980 # Harar
        division_template = "mīlīnīya diniberi"
        start_experience_factor = 0
        start_equipment_factor = 0.6
    }

    division = {
        name = "Kula Sefari"
        location = 7980 # Harar
        division_template = "mīlīnīya diniberi"
        start_experience_factor = 0
        start_equipment_factor = 0.2
    }
    ##### Webi Shebelle Front #####
    division = {
        name = "Bale Sefari"
        location = 4995 # Gode
        division_template = "mīlīnīya diniberi"
        start_experience_factor = 0
        start_equipment_factor = 0.8
    }
    ##### Juba Front #####
    division = {
        name = "1. Sidamo Sefari"
        location = 8019 # Arba Minch
        division_template = "yewenijeli kififili"
        start_experience_factor = 0.1
        start_equipment_factor = 0.8
    }

    division = {
        name = "2. Sidamo Sefari"
        location = 8019 # Arba Minch
        division_template = "yewenijeli kififili"
        start_experience_factor = 0.1
        start_equipment_factor = 0.8
    }
}


### No air forces (small handful of various aircraft in 1935) ###

#########################
## STARTING PRODUCTION ##
#########################

instant_effect = {

	add_equipment_production = {
		equipment = {
			type = Small_Arms_equipment_1900
			creator = "ETH"
		}
		requested_factories = 2
		progress = 0.15
		efficiency = 50
	}

}

#################################