﻿﻿﻿division_template = {
	name = "Divisione Coloniale"
	division_names_group = ITA_COL_01

	regiments = {
		light_infantry = { x = 0 y = 0 }
		light_infantry = { x = 0 y = 1 }
		light_infantry = { x = 0 y = 2 }
		light_infantry = { x = 1 y = 0 }
		light_infantry = { x = 1 y = 1 }
		light_infantry = { x = 1 y = 2 }
		artillery_battalion_light = { x = 2 y = 0 }
		artillery_battalion_light = { x = 2 y = 1 }
    }
	support = {
		engineer = { x = 0 y = 0 }
		field_hospital = { x = 0 y = 1 }
		logistics_company = { x = 0 y = 2 }
		anti_tank = { x = 0 y = 3 }
		anti_air = { x = 0 y = 4 }
	}
    priority = 0
}
units = {
	division= {	
		division_name = {
			is_name_ordered = yes
			name_order = 1
		}
        location = 1149 # Tripoli
		division_template = "Divisione Coloniale"
	    start_experience_factor = 0.1
        start_equipment_factor = 0.80
		acclimatization={
			hot_climate=8540.000
			max_acclimatization=8540.000
		}
	}
	division= {	
		division_name = {
			is_name_ordered = yes
			name_order = 2
		}
		location = 11954 # Benghazi
		division_template = "Divisione Coloniale"
	    start_experience_factor = 0.1
        start_equipment_factor = 0.80
		acclimatization={
			hot_climate=8540.000
			max_acclimatization=8540.000
		}
	}
}